<?xml version="1.0" encoding="UTF-8" standalone="no"?>
<!-- Created with Inkscape (http://www.inkscape.org/) -->

<svg
   xmlns:ns0="http://www.iki.fi/pav/software/textext/"
   xmlns:dc="http://purl.org/dc/elements/1.1/"
   xmlns:cc="http://creativecommons.org/ns#"
   xmlns:rdf="http://www.w3.org/1999/02/22-rdf-syntax-ns#"
   xmlns:svg="http://www.w3.org/2000/svg"
   xmlns="http://www.w3.org/2000/svg"
   xmlns:xlink="http://www.w3.org/1999/xlink"
   xmlns:sodipodi="http://sodipodi.sourceforge.net/DTD/sodipodi-0.dtd"
   xmlns:inkscape="http://www.inkscape.org/namespaces/inkscape"
   viewBox="0 0 223.52002 230.29336"
   width="150mm"
   height="50mm"
   id="svg2"
   version="1.1"
   inkscape:version="0.92.4 (5da689c313, 2019-01-14)"
   sodipodi:docname="BLSchematic.svg">
  <sodipodi:namedview
     id="base"
     pagecolor="#ffffff"
     bordercolor="#666666"
     borderopacity="1.0"
     inkscape:pageopacity="0.0"
     inkscape:pageshadow="2"
     inkscape:zoom="2.4059444"
     inkscape:cx="283.46457"
     inkscape:cy="93.864733"
     inkscape:document-units="mm"
     inkscape:current-layer="layer1"
     showgrid="true"
     units="mm"
     inkscape:window-width="1920"
     inkscape:window-height="1016"
     inkscape:window-x="1920"
     inkscape:window-y="27"
     inkscape:window-maximized="1">
    <inkscape:grid
       type="xygrid"
       id="grid2985"
       empspacing="5"
       visible="true"
       enabled="true"
       snapvisiblegridlinesonly="true"
       units="mm"
       spacingx="1mm"
       spacingy="1mm" />
  </sodipodi:namedview>
  <defs
     id="defs4">
    <inkscape:path-effect
       effect="bspline"
       id="path-effect4274"
       is_visible="true"
       weight="33.333333"
       steps="2"
       helper_size="0"
       apply_no_weight="true"
       apply_with_weight="true"
       only_selected="false" />
    <inkscape:path-effect
       effect="bspline"
       id="path-effect4270"
       is_visible="true"
       weight="33.333333"
       steps="2"
       helper_size="0"
       apply_no_weight="true"
       apply_with_weight="true"
       only_selected="false" />
    <marker
       inkscape:stockid="Arrow1Mstart"
       orient="auto"
       refY="0.0"
       refX="0.0"
       id="marker3105"
       style="overflow:visible"
       inkscape:isstock="true">
      <path
         id="path3103"
         d="M 0.0,0.0 L 5.0,-5.0 L -12.5,0.0 L 5.0,5.0 L 0.0,0.0 z "
         style="fill-rule:evenodd;stroke:#808080;stroke-width:1pt;stroke-opacity:1;fill:#808080;fill-opacity:1"
         transform="scale(0.4) translate(10,0)" />
    </marker>
    <marker
       inkscape:isstock="true"
       style="overflow:visible;"
       id="marker2999"
       refX="0.0"
       refY="0.0"
       orient="auto"
       inkscape:stockid="Arrow1Mend">
      <path
         transform="scale(0.4) rotate(180) translate(10,0)"
         style="fill-rule:evenodd;stroke:#808080;stroke-width:1pt;stroke-opacity:1;fill:#808080;fill-opacity:1"
         d="M 0.0,0.0 L 5.0,-5.0 L -12.5,0.0 L 5.0,5.0 L 0.0,0.0 z "
         id="path2997" />
    </marker>
    <inkscape:path-effect
       effect="bspline"
       id="path-effect2988"
       is_visible="true"
       weight="33.333333"
       steps="2"
       helper_size="0"
       apply_no_weight="true"
       apply_with_weight="true"
       only_selected="false" />
    <inkscape:path-effect
       effect="bspline"
       id="path-effect2980"
       is_visible="true"
       weight="33.333333"
       steps="2"
       helper_size="0"
       apply_no_weight="true"
       apply_with_weight="true"
       only_selected="false" />
    <marker
       inkscape:stockid="Arrow1Mend"
       orient="auto"
       refY="0.0"
       refX="0.0"
       id="marker1690"
       style="overflow:visible;"
       inkscape:isstock="true">
      <path
         id="path1688"
         d="M 0.0,0.0 L 5.0,-5.0 L -12.5,0.0 L 5.0,5.0 L 0.0,0.0 z "
         style="fill-rule:evenodd;stroke:#5d75cd;stroke-width:1pt;stroke-opacity:1;fill:#5d75cd;fill-opacity:1"
         transform="scale(0.4) rotate(180) translate(10,0)" />
    </marker>
    <inkscape:path-effect
       effect="bspline"
       id="path-effect1686"
       is_visible="true"
       weight="33.333333"
       steps="2"
       helper_size="0"
       apply_no_weight="true"
       apply_with_weight="true"
       only_selected="false" />
    <marker
       inkscape:isstock="true"
       style="overflow:visible"
       id="marker1342"
       refX="0.0"
       refY="0.0"
       orient="auto"
       inkscape:stockid="Arrow1Mstart"
       inkscape:collect="always">
      <path
         transform="scale(0.4) translate(10,0)"
         style="fill-rule:evenodd;stroke:#808080;stroke-width:1pt;stroke-opacity:1;fill:#808080;fill-opacity:1"
         d="M 0.0,0.0 L 5.0,-5.0 L -12.5,0.0 L 5.0,5.0 L 0.0,0.0 z "
         id="path1340" />
    </marker>
    <marker
       inkscape:stockid="Arrow1Mend"
       orient="auto"
       refY="0.0"
       refX="0.0"
       id="marker1278"
       style="overflow:visible;"
       inkscape:isstock="true"
       inkscape:collect="always">
      <path
         id="path1276"
         d="M 0.0,0.0 L 5.0,-5.0 L -12.5,0.0 L 5.0,5.0 L 0.0,0.0 z "
         style="fill-rule:evenodd;stroke:#808080;stroke-width:1pt;stroke-opacity:1;fill:#808080;fill-opacity:1"
         transform="scale(0.4) rotate(180) translate(10,0)" />
    </marker>
    <inkscape:path-effect
       effect="bspline"
       id="path-effect1274"
       is_visible="true"
       weight="33.333333"
       steps="2"
       helper_size="0"
       apply_no_weight="true"
       apply_with_weight="true"
       only_selected="false" />
    <marker
       inkscape:stockid="Arrow1Mstart"
       orient="auto"
       refY="0.0"
       refX="0.0"
       id="Arrow1Mstart"
       style="overflow:visible"
       inkscape:isstock="true"
       inkscape:collect="always">
      <path
         id="path834"
         d="M 0.0,0.0 L 5.0,-5.0 L -12.5,0.0 L 5.0,5.0 L 0.0,0.0 z "
         style="fill-rule:evenodd;stroke:#808080;stroke-width:1pt;stroke-opacity:1;fill:#808080;fill-opacity:1"
         transform="scale(0.4) translate(10,0)" />
    </marker>
    <marker
       inkscape:stockid="Arrow1Mend"
       orient="auto"
       refY="0.0"
       refX="0.0"
       id="Arrow1Mend"
       style="overflow:visible;"
       inkscape:isstock="true">
      <path
         id="path837"
         d="M 0.0,0.0 L 5.0,-5.0 L -12.5,0.0 L 5.0,5.0 L 0.0,0.0 z "
         style="fill-rule:evenodd;stroke:#767676;stroke-width:1pt;stroke-opacity:1;fill:#767676;fill-opacity:1"
         transform="scale(0.4) rotate(180) translate(10,0)" />
    </marker>
    <inkscape:path-effect
       effect="bspline"
       id="path-effect826"
       is_visible="true"
       weight="33.333333"
       steps="2"
       helper_size="0"
       apply_no_weight="true"
       apply_with_weight="true"
       only_selected="false" />
    <inkscape:path-effect
       effect="bspline"
       id="path-effect822"
       is_visible="true"
       weight="33.333333"
       steps="2"
       helper_size="0"
       apply_no_weight="true"
       apply_with_weight="true"
       only_selected="false" />
    <g
       id="g1248-1">
      <symbol
         id="textext-e15ba935-0-2"
         overflow="visible"
         style="overflow:visible">
        <path
           id="path1242-7"
           d=""
           style="stroke:none"
           inkscape:connector-curvature="0" />
      </symbol>
      <symbol
         id="textext-e15ba935-1-0"
         overflow="visible"
         style="overflow:visible">
        <path
           id="path1245-9"
           d="M 3.734375,-6.03125 C 3.8125,-6.390625 3.84375,-6.5 4.78125,-6.5 c 0.296875,0 0.375,0 0.375,-0.1875 0,-0.125 -0.109375,-0.125 -0.15625,-0.125 -0.328125,0 -1.140625,0.03125 -1.46875,0.03125 -0.296875,0 -1.03125,-0.03125 -1.328125,-0.03125 -0.0625,0 -0.1875,0 -0.1875,0.203125 0,0.109375 0.09375,0.109375 0.28125,0.109375 0.015625,0 0.203125,0 0.375,0.015625 0.171875,0.03125 0.265625,0.03125 0.265625,0.171875 0,0.03125 0,0.0625 -0.03125,0.1875 L 1.5625,-0.78125 c -0.09375,0.390625 -0.109375,0.46875 -0.90625,0.46875 -0.171875,0 -0.265625,0 -0.265625,0.203125 C 0.390625,0 0.484375,0 0.65625,0 h 4.625 C 5.515625,0 5.515625,0 5.578125,-0.171875 L 6.375,-2.328125 c 0.03125,-0.109375 0.03125,-0.125 0.03125,-0.140625 0,-0.03125 -0.03125,-0.109375 -0.109375,-0.109375 -0.09375,0 -0.109375,0.0625 -0.171875,0.21875 -0.34375,0.90625 -0.78125,2.046875 -2.5,2.046875 H 2.6875 c -0.140625,0 -0.171875,0 -0.21875,0 -0.109375,-0.015625 -0.140625,-0.03125 -0.140625,-0.109375 0,-0.03125 0,-0.046875 0.046875,-0.21875 z m 0,0"
           style="stroke:none"
           inkscape:connector-curvature="0" />
      </symbol>
    </g>
    <g
       id="g1248-6">
      <symbol
         id="textext-e15ba935-0-1"
         overflow="visible"
         style="overflow:visible">
        <path
           id="path1242-8"
           d=""
           style="stroke:none"
           inkscape:connector-curvature="0" />
      </symbol>
      <symbol
         id="textext-e15ba935-1-7"
         overflow="visible"
         style="overflow:visible">
        <path
           id="path1245-92"
           d="M 3.734375,-6.03125 C 3.8125,-6.390625 3.84375,-6.5 4.78125,-6.5 c 0.296875,0 0.375,0 0.375,-0.1875 0,-0.125 -0.109375,-0.125 -0.15625,-0.125 -0.328125,0 -1.140625,0.03125 -1.46875,0.03125 -0.296875,0 -1.03125,-0.03125 -1.328125,-0.03125 -0.0625,0 -0.1875,0 -0.1875,0.203125 0,0.109375 0.09375,0.109375 0.28125,0.109375 0.015625,0 0.203125,0 0.375,0.015625 0.171875,0.03125 0.265625,0.03125 0.265625,0.171875 0,0.03125 0,0.0625 -0.03125,0.1875 L 1.5625,-0.78125 c -0.09375,0.390625 -0.109375,0.46875 -0.90625,0.46875 -0.171875,0 -0.265625,0 -0.265625,0.203125 C 0.390625,0 0.484375,0 0.65625,0 h 4.625 C 5.515625,0 5.515625,0 5.578125,-0.171875 L 6.375,-2.328125 c 0.03125,-0.109375 0.03125,-0.125 0.03125,-0.140625 0,-0.03125 -0.03125,-0.109375 -0.109375,-0.109375 -0.09375,0 -0.109375,0.0625 -0.171875,0.21875 -0.34375,0.90625 -0.78125,2.046875 -2.5,2.046875 H 2.6875 c -0.140625,0 -0.171875,0 -0.21875,0 -0.109375,-0.015625 -0.140625,-0.03125 -0.140625,-0.109375 0,-0.03125 0,-0.046875 0.046875,-0.21875 z m 0,0"
           style="stroke:none"
           inkscape:connector-curvature="0" />
      </symbol>
    </g>
    <marker
       inkscape:stockid="Arrow1Mend"
       orient="auto"
       refY="0"
       refX="0"
       id="marker1690-7"
       style="overflow:visible"
       inkscape:isstock="true">
      <path
         inkscape:connector-curvature="0"
         id="path1688-5"
         d="M 0,0 5,-5 -12.5,0 5,5 Z"
         style="fill:#5d75cd;fill-opacity:1;fill-rule:evenodd;stroke:#5d75cd;stroke-width:1.00000003pt;stroke-opacity:1"
         transform="matrix(-0.4,0,0,-0.4,-4,0)" />
    </marker>
    <inkscape:path-effect
       effect="bspline"
       id="path-effect1686-9"
       is_visible="true"
       weight="33.333333"
       steps="2"
       helper_size="0"
       apply_no_weight="true"
       apply_with_weight="true"
       only_selected="false" />
    <marker
       inkscape:stockid="Arrow1Mend"
       orient="auto"
       refY="0"
       refX="0"
       id="marker1690-2"
       style="overflow:visible"
       inkscape:isstock="true">
      <path
         inkscape:connector-curvature="0"
         id="path1688-8"
         d="M 0,0 5,-5 -12.5,0 5,5 Z"
         style="fill:#5d75cd;fill-opacity:1;fill-rule:evenodd;stroke:#5d75cd;stroke-width:1.00000003pt;stroke-opacity:1"
         transform="matrix(-0.4,0,0,-0.4,-4,0)" />
    </marker>
    <inkscape:path-effect
       effect="bspline"
       id="path-effect1686-97"
       is_visible="true"
       weight="33.333333"
       steps="2"
       helper_size="0"
       apply_no_weight="true"
       apply_with_weight="true"
       only_selected="false" />
    <marker
       inkscape:stockid="Arrow1Mend"
       orient="auto"
       refY="0"
       refX="0"
       id="marker1690-6"
       style="overflow:visible"
       inkscape:isstock="true">
      <path
         inkscape:connector-curvature="0"
         id="path1688-1"
         d="M 0,0 5,-5 -12.5,0 5,5 Z"
         style="fill:#5d75cd;fill-opacity:1;fill-rule:evenodd;stroke:#5d75cd;stroke-width:1.00000003pt;stroke-opacity:1"
         transform="matrix(-0.4,0,0,-0.4,-4,0)" />
    </marker>
    <inkscape:path-effect
       effect="bspline"
       id="path-effect1686-2"
       is_visible="true"
       weight="33.333333"
       steps="2"
       helper_size="0"
       apply_no_weight="true"
       apply_with_weight="true"
       only_selected="false" />
    <marker
       inkscape:stockid="Arrow1Mend"
       orient="auto"
       refY="0"
       refX="0"
       id="marker1690-3"
       style="overflow:visible"
       inkscape:isstock="true">
      <path
         inkscape:connector-curvature="0"
         id="path1688-19"
         d="M 0,0 5,-5 -12.5,0 5,5 Z"
         style="fill:#5d75cd;fill-opacity:1;fill-rule:evenodd;stroke:#5d75cd;stroke-width:1.00000003pt;stroke-opacity:1"
         transform="matrix(-0.4,0,0,-0.4,-4,0)" />
    </marker>
    <inkscape:path-effect
       effect="bspline"
       id="path-effect1686-4"
       is_visible="true"
       weight="33.333333"
       steps="2"
       helper_size="0"
       apply_no_weight="true"
       apply_with_weight="true"
       only_selected="false" />
    <marker
       inkscape:stockid="Arrow1Mend"
       orient="auto"
       refY="0"
       refX="0"
       id="marker1690-8"
       style="overflow:visible"
       inkscape:isstock="true">
      <path
         inkscape:connector-curvature="0"
         id="path1688-4"
         d="M 0,0 5,-5 -12.5,0 5,5 Z"
         style="fill:#5d75cd;fill-opacity:1;fill-rule:evenodd;stroke:#5d75cd;stroke-width:1.00000003pt;stroke-opacity:1"
         transform="matrix(-0.4,0,0,-0.4,-4,0)" />
    </marker>
    <inkscape:path-effect
       effect="bspline"
       id="path-effect1686-5"
       is_visible="true"
       weight="33.333333"
       steps="2"
       helper_size="0"
       apply_no_weight="true"
       apply_with_weight="true"
       only_selected="false" />
    <marker
       inkscape:stockid="Arrow1Mend"
       orient="auto"
       refY="0"
       refX="0"
       id="marker1690-36"
       style="overflow:visible"
       inkscape:isstock="true">
      <path
         inkscape:connector-curvature="0"
         id="path1688-10"
         d="M 0,0 5,-5 -12.5,0 5,5 Z"
         style="fill:#5d75cd;fill-opacity:1;fill-rule:evenodd;stroke:#5d75cd;stroke-width:1.00000003pt;stroke-opacity:1"
         transform="matrix(-0.4,0,0,-0.4,-4,0)" />
    </marker>
    <inkscape:path-effect
       effect="bspline"
       id="path-effect1686-6"
       is_visible="true"
       weight="33.333333"
       steps="2"
       helper_size="0"
       apply_no_weight="true"
       apply_with_weight="true"
       only_selected="false" />
    <marker
       inkscape:stockid="Arrow1Mend"
       orient="auto"
       refY="0"
       refX="0"
       id="marker1690-0"
       style="overflow:visible"
       inkscape:isstock="true">
      <path
         inkscape:connector-curvature="0"
         id="path1688-6"
         d="M 0,0 5,-5 -12.5,0 5,5 Z"
         style="fill:#5d75cd;fill-opacity:1;fill-rule:evenodd;stroke:#5d75cd;stroke-width:1.00000003pt;stroke-opacity:1"
         transform="matrix(-0.4,0,0,-0.4,-4,0)" />
    </marker>
    <inkscape:path-effect
       effect="bspline"
       id="path-effect1686-1"
       is_visible="true"
       weight="33.333333"
       steps="2"
       helper_size="0"
       apply_no_weight="true"
       apply_with_weight="true"
       only_selected="false" />
    <marker
       inkscape:stockid="Arrow1Mend"
       orient="auto"
       refY="0"
       refX="0"
       id="marker1690-5"
       style="overflow:visible"
       inkscape:isstock="true">
      <path
         inkscape:connector-curvature="0"
         id="path1688-47"
         d="M 0,0 5,-5 -12.5,0 5,5 Z"
         style="fill:#5d75cd;fill-opacity:1;fill-rule:evenodd;stroke:#5d75cd;stroke-width:1.00000003pt;stroke-opacity:1"
         transform="matrix(-0.4,0,0,-0.4,-4,0)" />
    </marker>
    <inkscape:path-effect
       effect="bspline"
       id="path-effect1686-65"
       is_visible="true"
       weight="33.333333"
       steps="2"
       helper_size="0"
       apply_no_weight="true"
       apply_with_weight="true"
       only_selected="false" />
    <g
       id="g1248-7">
      <symbol
         id="textext-e15ba935-0-4"
         overflow="visible"
         style="overflow:visible">
        <path
           id="path1242-5"
           d=""
           style="stroke:none"
           inkscape:connector-curvature="0" />
      </symbol>
      <symbol
         id="textext-e15ba935-1-2"
         overflow="visible"
         style="overflow:visible">
        <path
           id="path1245-5"
           d="M 3.734375,-6.03125 C 3.8125,-6.390625 3.84375,-6.5 4.78125,-6.5 c 0.296875,0 0.375,0 0.375,-0.1875 0,-0.125 -0.109375,-0.125 -0.15625,-0.125 -0.328125,0 -1.140625,0.03125 -1.46875,0.03125 -0.296875,0 -1.03125,-0.03125 -1.328125,-0.03125 -0.0625,0 -0.1875,0 -0.1875,0.203125 0,0.109375 0.09375,0.109375 0.28125,0.109375 0.015625,0 0.203125,0 0.375,0.015625 0.171875,0.03125 0.265625,0.03125 0.265625,0.171875 0,0.03125 0,0.0625 -0.03125,0.1875 L 1.5625,-0.78125 c -0.09375,0.390625 -0.109375,0.46875 -0.90625,0.46875 -0.171875,0 -0.265625,0 -0.265625,0.203125 C 0.390625,0 0.484375,0 0.65625,0 h 4.625 C 5.515625,0 5.515625,0 5.578125,-0.171875 L 6.375,-2.328125 c 0.03125,-0.109375 0.03125,-0.125 0.03125,-0.140625 0,-0.03125 -0.03125,-0.109375 -0.109375,-0.109375 -0.09375,0 -0.109375,0.0625 -0.171875,0.21875 -0.34375,0.90625 -0.78125,2.046875 -2.5,2.046875 H 2.6875 c -0.140625,0 -0.171875,0 -0.21875,0 -0.109375,-0.015625 -0.140625,-0.03125 -0.140625,-0.109375 0,-0.03125 0,-0.046875 0.046875,-0.21875 z m 0,0"
           style="stroke:none"
           inkscape:connector-curvature="0" />
      </symbol>
    </g>
    <marker
       inkscape:stockid="Arrow1Mend"
       orient="auto"
       refY="0"
       refX="0"
       id="marker1690-3-4"
       style="overflow:visible"
       inkscape:isstock="true">
      <path
         inkscape:connector-curvature="0"
         id="path1688-19-3"
         d="M 0,0 5,-5 -12.5,0 5,5 Z"
         style="fill:#5d75cd;fill-opacity:1;fill-rule:evenodd;stroke:#5d75cd;stroke-width:1.00000003pt;stroke-opacity:1"
         transform="matrix(-0.4,0,0,-0.4,-4,0)" />
    </marker>
    <inkscape:path-effect
       effect="bspline"
       id="path-effect1686-4-0"
       is_visible="true"
       weight="33.333333"
       steps="2"
       helper_size="0"
       apply_no_weight="true"
       apply_with_weight="true"
       only_selected="false" />
    <marker
       inkscape:stockid="Arrow1Mend"
       orient="auto"
       refY="0"
       refX="0"
       id="marker1690-3-8"
       style="overflow:visible"
       inkscape:isstock="true">
      <path
         inkscape:connector-curvature="0"
         id="path1688-19-6"
         d="M 0,0 5,-5 -12.5,0 5,5 Z"
         style="fill:#5d75cd;fill-opacity:1;fill-rule:evenodd;stroke:#5d75cd;stroke-width:1.00000003pt;stroke-opacity:1"
         transform="matrix(-0.4,0,0,-0.4,-4,0)" />
    </marker>
    <inkscape:path-effect
       effect="bspline"
       id="path-effect1686-4-8"
       is_visible="true"
       weight="33.333333"
       steps="2"
       helper_size="0"
       apply_no_weight="true"
       apply_with_weight="true"
       only_selected="false" />
    <marker
       inkscape:stockid="Arrow1Mend"
       orient="auto"
       refY="0"
       refX="0"
       id="marker1690-3-43"
       style="overflow:visible"
       inkscape:isstock="true">
      <path
         inkscape:connector-curvature="0"
         id="path1688-19-1"
         d="M 0,0 5,-5 -12.5,0 5,5 Z"
         style="fill:#5d75cd;fill-opacity:1;fill-rule:evenodd;stroke:#5d75cd;stroke-width:1.00000003pt;stroke-opacity:1"
         transform="matrix(-0.4,0,0,-0.4,-4,0)" />
    </marker>
    <inkscape:path-effect
       effect="bspline"
       id="path-effect1686-4-4"
       is_visible="true"
       weight="33.333333"
       steps="2"
       helper_size="0"
       apply_no_weight="true"
       apply_with_weight="true"
       only_selected="false" />
    <marker
       inkscape:stockid="Arrow1Mend"
       orient="auto"
       refY="0"
       refX="0"
       id="marker1690-3-2"
       style="overflow:visible"
       inkscape:isstock="true">
      <path
         inkscape:connector-curvature="0"
         id="path1688-19-0"
         d="M 0,0 5,-5 -12.5,0 5,5 Z"
         style="fill:#5d75cd;fill-opacity:1;fill-rule:evenodd;stroke:#5d75cd;stroke-width:1.00000003pt;stroke-opacity:1"
         transform="matrix(-0.4,0,0,-0.4,-4,0)" />
    </marker>
    <inkscape:path-effect
       effect="bspline"
       id="path-effect1686-4-6"
       is_visible="true"
       weight="33.333333"
       steps="2"
       helper_size="0"
       apply_no_weight="true"
       apply_with_weight="true"
       only_selected="false" />
    <g
       id="g1248-64">
      <symbol
         id="textext-e15ba935-0-9"
         overflow="visible"
         style="overflow:visible">
        <path
           id="path1242-50"
           d=""
           style="stroke:none"
           inkscape:connector-curvature="0" />
      </symbol>
      <symbol
         id="textext-e15ba935-1-4"
         overflow="visible"
         style="overflow:visible">
        <path
           id="path1245-8"
           d="M 3.734375,-6.03125 C 3.8125,-6.390625 3.84375,-6.5 4.78125,-6.5 c 0.296875,0 0.375,0 0.375,-0.1875 0,-0.125 -0.109375,-0.125 -0.15625,-0.125 -0.328125,0 -1.140625,0.03125 -1.46875,0.03125 -0.296875,0 -1.03125,-0.03125 -1.328125,-0.03125 -0.0625,0 -0.1875,0 -0.1875,0.203125 0,0.109375 0.09375,0.109375 0.28125,0.109375 0.015625,0 0.203125,0 0.375,0.015625 0.171875,0.03125 0.265625,0.03125 0.265625,0.171875 0,0.03125 0,0.0625 -0.03125,0.1875 L 1.5625,-0.78125 c -0.09375,0.390625 -0.109375,0.46875 -0.90625,0.46875 -0.171875,0 -0.265625,0 -0.265625,0.203125 C 0.390625,0 0.484375,0 0.65625,0 h 4.625 C 5.515625,0 5.515625,0 5.578125,-0.171875 L 6.375,-2.328125 c 0.03125,-0.109375 0.03125,-0.125 0.03125,-0.140625 0,-0.03125 -0.03125,-0.109375 -0.109375,-0.109375 -0.09375,0 -0.109375,0.0625 -0.171875,0.21875 -0.34375,0.90625 -0.78125,2.046875 -2.5,2.046875 H 2.6875 c -0.140625,0 -0.171875,0 -0.21875,0 -0.109375,-0.015625 -0.140625,-0.03125 -0.140625,-0.109375 0,-0.03125 0,-0.046875 0.046875,-0.21875 z m 0,0"
           style="stroke:none"
           inkscape:connector-curvature="0" />
      </symbol>
    </g>
  </defs>
  <metadata
     id="metadata7">
    <rdf:RDF>
      <cc:Work
         rdf:about="">
        <dc:format>image/svg+xml</dc:format>
        <dc:type
           rdf:resource="http://purl.org/dc/dcmitype/StillImage" />
        <dc:title></dc:title>
      </cc:Work>
    </rdf:RDF>
  </metadata>
  <g
     transform="translate(0,-860.80348)"
     id="layer1"
     inkscape:groupmode="layer"
     inkscape:label="Layer 1">
    <path
       style="fill:none;fill-rule:evenodd;stroke:#808080;stroke-width:1.22055483;stroke-linecap:butt;stroke-linejoin:miter;stroke-miterlimit:4;stroke-dasharray:none;stroke-opacity:1;marker-end:url(#marker1278);marker-start:url(#marker1342)"
       d="m 434.17072,975.95016 c 0,0 -460.586726,0 -460.586726,0 0,0 -2e-6,-92.11734 -2e-6,-92.11734"
       id="path1272"
       inkscape:connector-curvature="0"
       inkscape:path-effect="#path-effect1274"
       inkscape:original-d="M 434.17072,975.95016 H -26.416006 l -2e-6,-92.11734"
       sodipodi:nodetypes="ccc" />
    <g
       style="font-style:normal;font-variant:normal;font-weight:normal;font-stretch:normal;letter-spacing:normal;word-spacing:normal;text-anchor:start;fill:none;stroke:#000000;stroke-linecap:butt;stroke-linejoin:miter;stroke-miterlimit:10.43299961;stroke-dasharray:none;stroke-dashoffset:0;stroke-opacity:1"
       ns0:preamble="/home/shreyas/Grants/Career2013/draft/Figures/preamble.tex"
       ns0:text="$L = 2 \\pi \\alpha$"
       word-spacing="normal"
       letter-spacing="normal"
       font-size-adjust="none"
       font-stretch="normal"
       font-weight="normal"
       font-variant="normal"
       font-style="normal"
       stroke-miterlimit="10.433"
       xml:space="preserve"
       transform="matrix(1,0,0,-1,-205.22213,1332.5317)"
       id="content"><path
         style="fill:#000000;stroke-width:0"
         inkscape:connector-curvature="0"
         id="path2994"
         d="m 227.15,483.24 0.01,0.04 0.01,0.03 0.01,0.03 0.01,0.03 v 0.03 l 0.01,0.02 0.01,0.03 0.01,0.02 0.02,0.02 0.01,0.02 0.01,0.02 0.02,0.02 0.02,0.02 0.02,0.01 0.02,0.02 0.02,0.01 0.03,0.02 0.03,0.01 0.03,0.01 0.04,0.01 h 0.02 l 0.01,0.01 h 0.03 l 0.02,0.01 h 0.02 0.02 l 0.03,0.01 h 0.02 0.03 0.02 l 0.03,0.01 h 0.03 0.03 0.03 l 0.03,0.01 h 0.04 0.03 0.04 0.03 0.04 0.04 0.04 0.04 0.05 c 0.3,0 0.38,0 0.38,0.19 0,0.12 -0.11,0.12 -0.16,0.12 -0.33,0 -1.15,-0.03 -1.48,-0.03 -0.29,0 -1.02,0.03 -1.32,0.03 -0.07,0 -0.19,0 -0.19,-0.2 0,-0.11 0.09,-0.11 0.28,-0.11 0.02,0 0.21,0 0.38,-0.02 0.18,-0.02 0.27,-0.03 0.27,-0.16 0,-0.04 -0.01,-0.07 -0.04,-0.19 l -1.34,-5.33 c -0.09,-0.39 -0.11,-0.47 -0.9,-0.47 -0.17,0 -0.27,0 -0.27,-0.2 0,-0.11 0.09,-0.11 0.27,-0.11 h 4.61 c 0.23,0 0.24,0 0.3,0.17 l 0.79,2.15 c 0.04,0.11 0.04,0.13 0.04,0.14 0,0.04 -0.03,0.11 -0.12,0.11 -0.09,0 -0.1,-0.05 -0.17,-0.21 -0.34,-0.92 -0.78,-2.05 -2.5,-2.05 h -0.93 c -0.14,0 -0.16,0 -0.22,0.01 -0.1,0.01 -0.13,0.02 -0.13,0.1 0,0.03 0,0.05 0.05,0.23 z" /><path
         style="fill:#000000;stroke-width:0"
         inkscape:connector-curvature="0"
         id="path2996"
         d="m 239.82,480.48 h 0.02 0.03 0.03 l 0.02,0.01 h 0.01 0.02 0.01 0.01 0.02 l 0.01,0.01 h 0.01 0.02 l 0.01,0.01 h 0.01 l 0.01,0.01 h 0.01 l 0.02,0.01 0.01,0.01 v 0.01 l 0.01,0.01 0.01,0.01 v 0 l 0.01,0.01 v 0 0.01 l 0.01,0.01 v 0 0.01 0.01 h 0.01 v 0.01 0.01 0.01 0.01 0 0.01 0.01 c 0,0.2 -0.19,0.2 -0.33,0.2 h -5.95 c -0.14,0 -0.33,0 -0.33,-0.2 0,-0.2 0.19,-0.2 0.34,-0.2 z" /><path
         style="fill:#000000;stroke-width:0"
         inkscape:connector-curvature="0"
         id="path2998"
         d="m 239.82,478.56 h 0.02 0.01 0.03 0.03 0.01 0.01 0.02 0.01 0.02 l 0.01,0.01 h 0.01 0.02 l 0.01,0.01 h 0.01 l 0.01,0.01 h 0.01 l 0.02,0.01 h 0.01 l 0.01,0.01 v 0.01 l 0.01,0.01 h 0.01 v 0.01 0.01 h 0.01 v 0.01 0 l 0.01,0.01 v 0.01 0 0.01 l 0.01,0.01 v 0 0.01 0.01 0.01 0.01 0.01 0.01 c 0,0.19 -0.19,0.19 -0.33,0.19 h -5.94 c -0.15,0 -0.34,0 -0.34,-0.19 0,-0.2 0.19,-0.2 0.33,-0.2 z" /><path
         style="fill:#000000;stroke-width:0"
         inkscape:connector-curvature="0"
         id="path3000"
         d="m 244.76,478 1.06,1.02 c 1.55,1.37 2.15,1.91 2.15,2.9 0,1.14 -0.9,1.93 -2.11,1.93 -1.13,0 -1.86,-0.91 -1.86,-1.8 0,-0.55 0.49,-0.55 0.52,-0.55 0.17,0 0.52,0.12 0.52,0.52 0,0.26 -0.18,0.52 -0.53,0.52 -0.08,0 -0.1,0 -0.13,-0.01 0.23,0.64 0.77,1.01 1.35,1.01 0.9,0 1.33,-0.8 1.33,-1.62 0,-0.79 -0.5,-1.58 -1.04,-2.19 l -1.92,-2.13 c -0.1,-0.11 -0.1,-0.13 -0.1,-0.37 h 3.69 l 0.28,1.73 h -0.25 c -0.05,-0.29 -0.12,-0.73 -0.22,-0.88 C 247.43,478 246.77,478 246.55,478 Z" /><path
         style="fill:#000000;stroke-width:0"
         inkscape:connector-curvature="0"
         id="path3002"
         d="m 251.11,480.94 h 1.13 c -0.33,-1.47 -0.42,-1.9 -0.42,-2.56 0,-0.15 0,-0.42 0.08,-0.76 0.1,-0.44 0.21,-0.49 0.36,-0.49 0.2,0 0.41,0.17 0.41,0.37 0,0.06 0,0.08 -0.06,0.22 -0.29,0.72 -0.29,1.36 -0.29,1.64 0,0.53 0.07,1.06 0.18,1.58 h 1.13 c 0.13,0 0.49,0 0.49,0.34 0,0.24 -0.21,0.24 -0.4,0.24 h -3.33 c -0.22,0 -0.6,0 -1.04,-0.47 -0.35,-0.39 -0.6,-0.85 -0.6,-0.89 0,-0.01 0,-0.1 0.12,-0.1 0.08,0 0.09,0.04 0.15,0.11 0.49,0.77 1.07,0.77 1.27,0.77 h 0.56 c -0.31,-1.2 -0.85,-2.4 -1.27,-3.31 -0.08,-0.15 -0.08,-0.17 -0.08,-0.24 0,-0.19 0.16,-0.26 0.29,-0.26 0.3,0 0.38,0.27 0.5,0.64 0.14,0.46 0.14,0.48 0.27,0.97 z" /><path
         style="fill:#000000;stroke-width:0"
         inkscape:connector-curvature="0"
         id="path3004"
         d="m 259.26,479.58 v 0.07 0.07 l -0.01,0.07 v 0.07 l -0.01,0.13 -0.02,0.12 -0.02,0.12 -0.03,0.12 -0.03,0.1 -0.04,0.11 -0.03,0.09 -0.05,0.1 -0.04,0.08 -0.05,0.08 -0.05,0.08 -0.06,0.07 -0.06,0.07 -0.05,0.06 -0.07,0.05 -0.06,0.06 -0.07,0.05 -0.06,0.04 -0.07,0.04 -0.07,0.04 -0.07,0.03 -0.07,0.03 -0.07,0.02 -0.07,0.02 -0.08,0.02 -0.07,0.01 -0.07,0.01 -0.07,0.01 h -0.07 l -0.07,0.01 c -1.36,0 -2.68,-1.43 -2.68,-2.83 0,-0.92 0.6,-1.67 1.61,-1.67 l 0.02,0.21 c -0.59,0 -0.89,0.45 -0.89,1.09 0,0.48 0.26,1.56 0.58,2.06 0.46,0.73 1,0.92 1.35,0.92 0.98,0 0.98,-1.3 0.98,-2.08 0,-0.37 0,-0.94 0.02,-1.11 v 0 c -0.87,-0.77 -1.64,-0.88 -2.04,-0.88 l -0.02,-0.21 c 0.63,0 1.35,0.22 2.1,0.83 0.13,-0.53 0.46,-0.83 0.91,-0.83 0.53,0 0.83,0.54 0.83,0.7 0,0.07 -0.05,0.1 -0.11,0.1 -0.08,0 -0.11,-0.03 -0.13,-0.1 -0.18,-0.49 -0.54,-0.49 -0.56,-0.49 -0.31,0 -0.31,0.78 -0.31,1.02 0,0.21 0,0.23 0.1,0.34 0.94,1.18 1.14,2.33 1.14,2.34 0,0.02 -0.01,0.1 -0.12,0.1 -0.09,0 -0.09,-0.03 -0.15,-0.21 -0.17,-0.63 -0.5,-1.38 -0.97,-1.97 z" /></g>    <path
       style="fill:none;fill-rule:evenodd;stroke:#000000;stroke-width:2.30293358;stroke-linecap:butt;stroke-linejoin:miter;stroke-opacity:1;stroke-miterlimit:4;stroke-dasharray:none"
       d="m -26.416006,975.95016 c 138.177236,0 276.353246,0 414.528046,0"
       id="path820"
       inkscape:connector-curvature="0"
       inkscape:path-effect="#path-effect822"
       inkscape:original-d="m -26.416006,975.95016 c 138.177236,-10e-4 276.353246,-10e-4 414.528046,0" />
    <path
       style="fill:none;fill-rule:evenodd;stroke:#767676;stroke-width:0.69088007;stroke-linecap:butt;stroke-linejoin:miter;stroke-opacity:1;stroke-miterlimit:4;stroke-dasharray:none;marker-end:url(#Arrow1Mend);marker-start:url(#Arrow1Mstart)"
       d="m -26.416006,998.9795 c 138.177236,0 276.353246,0 414.528046,0"
       id="path824"
       inkscape:connector-curvature="0"
       inkscape:path-effect="#path-effect826"
       inkscape:original-d="m -26.416006,998.9795 c 138.177236,-10e-4 276.353246,-10e-4 414.528046,0" />
    <g
       id="g1257"
       style="font-style:normal;font-variant:normal;font-weight:normal;font-stretch:normal;letter-spacing:normal;word-spacing:normal;text-anchor:start;fill:none;stroke:#000000;stroke-linecap:butt;stroke-linejoin:miter;stroke-miterlimit:10.43299961;stroke-dasharray:none;stroke-dashoffset:0;stroke-opacity:1"
       transform="matrix(2,0,0,2,-257.23472,748.33836)"
       ns0:preamble=""
       ns0:text="$L$\n">
      <defs
         id="defs1250">
        <g
           id="g1248">
          <symbol
             id="textext-e15ba935-0"
             overflow="visible"
             style="overflow:visible">
            <path
               id="path1242"
               d=""
               style="stroke:none"
               inkscape:connector-curvature="0" />
          </symbol>
          <symbol
             id="textext-e15ba935-1"
             overflow="visible"
             style="overflow:visible">
            <path
               id="path1245"
               d="M 3.734375,-6.03125 C 3.8125,-6.390625 3.84375,-6.5 4.78125,-6.5 c 0.296875,0 0.375,0 0.375,-0.1875 0,-0.125 -0.109375,-0.125 -0.15625,-0.125 -0.328125,0 -1.140625,0.03125 -1.46875,0.03125 -0.296875,0 -1.03125,-0.03125 -1.328125,-0.03125 -0.0625,0 -0.1875,0 -0.1875,0.203125 0,0.109375 0.09375,0.109375 0.28125,0.109375 0.015625,0 0.203125,0 0.375,0.015625 0.171875,0.03125 0.265625,0.03125 0.265625,0.171875 0,0.03125 0,0.0625 -0.03125,0.1875 L 1.5625,-0.78125 c -0.09375,0.390625 -0.109375,0.46875 -0.90625,0.46875 -0.171875,0 -0.265625,0 -0.265625,0.203125 C 0.390625,0 0.484375,0 0.65625,0 h 4.625 C 5.515625,0 5.515625,0 5.578125,-0.171875 L 6.375,-2.328125 c 0.03125,-0.109375 0.03125,-0.125 0.03125,-0.140625 0,-0.03125 -0.03125,-0.109375 -0.109375,-0.109375 -0.09375,0 -0.109375,0.0625 -0.171875,0.21875 -0.34375,0.90625 -0.78125,2.046875 -2.5,2.046875 H 2.6875 c -0.140625,0 -0.171875,0 -0.21875,0 -0.109375,-0.015625 -0.140625,-0.03125 -0.140625,-0.109375 0,-0.03125 0,-0.046875 0.046875,-0.21875 z m 0,0"
               style="stroke:none"
               inkscape:connector-curvature="0" />
          </symbol>
        </g>
      </defs>
      <g
         id="textext-e15ba935-2">
        <g
           id="g1254"
           style="fill:#000000;fill-opacity:1">
          <use
             id="use1252"
             y="134.765"
             x="223.43201"
             xlink:href="#textext-e15ba935-1"
             width="100%"
             height="100%" />
        </g>
      </g>
    </g>
    <g
       id="g1584"
       style="font-style:normal;font-variant:normal;font-weight:normal;font-stretch:normal;letter-spacing:normal;word-spacing:normal;text-anchor:start;fill:none;stroke:#000000;stroke-linecap:butt;stroke-linejoin:miter;stroke-miterlimit:10.43299961;stroke-dasharray:none;stroke-dashoffset:0;stroke-opacity:1"
       transform="matrix(2,0,0,2,-24.796834,723.08547)"
       ns0:preamble="/home/shreyas/Teaching/Courses/2020/MA3D1/preamble.tex"
       ns0:text="$x$\n\n">
      <defs
         id="defs1577">
        <g
           id="g1575">
          <symbol
             id="textext-428a3d90-0"
             overflow="visible"
             style="overflow:visible">
            <path
               id="path1569"
               d=""
               style="stroke:none"
               inkscape:connector-curvature="0" />
          </symbol>
          <symbol
             id="textext-428a3d90-1"
             overflow="visible"
             style="overflow:visible">
            <path
               id="path1572"
               d="M 3.328125,-3.015625 C 3.390625,-3.265625 3.625,-4.1875 4.3125,-4.1875 c 0.046875,0 0.296875,0 0.5,0.125 C 4.53125,-4 4.34375,-3.765625 4.34375,-3.515625 c 0,0.15625 0.109375,0.34375 0.375,0.34375 0.21875,0 0.53125,-0.171875 0.53125,-0.578125 0,-0.515625 -0.578125,-0.65625 -0.921875,-0.65625 -0.578125,0 -0.921875,0.53125 -1.046875,0.75 -0.25,-0.65625 -0.78125,-0.75 -1.078125,-0.75 -1.03125,0 -1.609375,1.28125 -1.609375,1.53125 0,0.109375 0.109375,0.109375 0.125,0.109375 0.078125,0 0.109375,-0.03125 0.125,-0.109375 0.34375,-1.0625 1,-1.3125 1.34375,-1.3125 0.1875,0 0.53125,0.09375 0.53125,0.671875 0,0.3125 -0.171875,0.96875 -0.53125,2.375 -0.15625,0.609375 -0.515625,1.03125 -0.953125,1.03125 -0.0625,0 -0.28125,0 -0.5,-0.125 0.25,-0.0625 0.46875,-0.265625 0.46875,-0.546875 0,-0.265625 -0.21875,-0.34375 -0.359375,-0.34375 -0.3125,0 -0.546875,0.25 -0.546875,0.578125 0,0.453125 0.484375,0.65625 0.921875,0.65625 0.671875,0 1.03125,-0.703125 1.046875,-0.75 0.125,0.359375 0.484375,0.75 1.078125,0.75 1.03125,0 1.59375,-1.28125 1.59375,-1.53125 0,-0.109375 -0.078125,-0.109375 -0.109375,-0.109375 -0.09375,0 -0.109375,0.046875 -0.140625,0.109375 -0.328125,1.078125 -1,1.3125 -1.3125,1.3125 -0.390625,0 -0.546875,-0.3125 -0.546875,-0.65625 0,-0.21875 0.046875,-0.4375 0.15625,-0.875 z m 0,0"
               style="stroke:none"
               inkscape:connector-curvature="0" />
          </symbol>
        </g>
      </defs>
      <g
         id="textext-428a3d90-2">
        <g
           id="g1581"
           style="fill:#000000;fill-opacity:1">
          <use
             id="use1579"
             y="134.765"
             x="223.43201"
             xlink:href="#textext-428a3d90-1"
             width="100%"
             height="100%" />
        </g>
      </g>
    </g>
    <g
       id="g1669"
       style="font-style:normal;font-variant:normal;font-weight:normal;font-stretch:normal;letter-spacing:normal;word-spacing:normal;text-anchor:start;fill:none;stroke:#000000;stroke-linecap:butt;stroke-linejoin:miter;stroke-miterlimit:10.43299961;stroke-dasharray:none;stroke-dashoffset:0;stroke-opacity:1"
       transform="matrix(2,0,0,2,-468.99554,620.83492)"
       ns0:preamble="/home/shreyas/Teaching/Courses/2020/MA3D1/preamble.tex"
       ns0:text="$y$\n\n">
      <defs
         id="defs1662">
        <g
           id="g1660">
          <symbol
             id="textext-b06b175c-0"
             overflow="visible"
             style="overflow:visible">
            <path
               id="path1654"
               d=""
               style="stroke:none"
               inkscape:connector-curvature="0" />
          </symbol>
          <symbol
             id="textext-b06b175c-1"
             overflow="visible"
             style="overflow:visible">
            <path
               id="path1657"
               d="m 4.84375,-3.796875 c 0.046875,-0.140625 0.046875,-0.15625 0.046875,-0.234375 0,-0.171875 -0.140625,-0.265625 -0.296875,-0.265625 -0.09375,0 -0.25,0.0625 -0.34375,0.203125 -0.015625,0.0625 -0.109375,0.359375 -0.140625,0.546875 -0.078125,0.25 -0.140625,0.53125 -0.203125,0.796875 l -0.453125,1.796875 c -0.03125,0.140625 -0.46875,0.84375 -1.125,0.84375 -0.5,0 -0.609375,-0.4375 -0.609375,-0.8125 C 1.71875,-1.375 1.890625,-2 2.21875,-2.875 2.375,-3.28125 2.421875,-3.390625 2.421875,-3.59375 c 0,-0.4375 -0.3125,-0.8125 -0.8125,-0.8125 -0.953125,0 -1.3125,1.453125 -1.3125,1.53125 0,0.109375 0.09375,0.109375 0.109375,0.109375 0.109375,0 0.109375,-0.03125 0.15625,-0.1875 0.28125,-0.9375 0.671875,-1.234375 1.015625,-1.234375 0.078125,0 0.25,0 0.25,0.3125 0,0.25 -0.109375,0.515625 -0.171875,0.703125 -0.40625,1.0625 -0.578125,1.625 -0.578125,2.09375 0,0.890625 0.625,1.1875 1.21875,1.1875 0.390625,0 0.71875,-0.171875 1,-0.453125 -0.125,0.515625 -0.25,1.015625 -0.640625,1.546875 -0.265625,0.328125 -0.640625,0.625 -1.09375,0.625 -0.140625,0 -0.59375,-0.03125 -0.765625,-0.421875 0.15625,0 0.296875,0 0.421875,-0.125 C 1.328125,1.203125 1.421875,1.0625 1.421875,0.875 1.421875,0.5625 1.15625,0.53125 1.0625,0.53125 0.828125,0.53125 0.5,0.6875 0.5,1.171875 c 0,0.5 0.4375,0.875 1.0625,0.875 1.015625,0 2.046875,-0.90625 2.328125,-2.03125 z m 0,0"
               style="stroke:none"
               inkscape:connector-curvature="0" />
          </symbol>
        </g>
      </defs>
      <g
         id="textext-b06b175c-2">
        <g
           id="g1666"
           style="fill:#000000;fill-opacity:1">
          <use
             id="use1664"
             y="134.765"
             x="223.43201"
             xlink:href="#textext-b06b175c-1"
             width="100%"
             height="100%" />
        </g>
      </g>
    </g>
    <path
       style="fill:none;fill-rule:evenodd;stroke:#5d75cd;stroke-width:1.21863568px;stroke-linecap:butt;stroke-linejoin:miter;stroke-opacity:1;marker-end:url(#marker1690)"
       d="m -210.65069,975.95016 c 15.35411,0 30.707,0 46.05867,0"
       id="path1684"
       inkscape:connector-curvature="0"
       inkscape:path-effect="#path-effect1686"
       inkscape:original-d="m -210.65069,975.95016 c 15.35411,-10e-4 30.707,-10e-4 46.05867,0" />
    <path
       transform="translate(-2.7030833e-7,-23.029336)"
       style="fill:none;fill-rule:evenodd;stroke:#5d75cd;stroke-width:1.21863568px;stroke-linecap:butt;stroke-linejoin:miter;stroke-opacity:1;marker-end:url(#marker1690-7)"
       d="m -210.65069,975.95016 c 15.35411,0 30.707,0 46.05867,0"
       id="path1684-2"
       inkscape:connector-curvature="0"
       inkscape:path-effect="#path-effect1686-9"
       inkscape:original-d="m -210.65069,975.95016 c 15.35411,-10e-4 30.707,-10e-4 46.05867,0" />
    <path
       transform="translate(-2.7030833e-7,-46.058671)"
       style="fill:none;fill-rule:evenodd;stroke:#5d75cd;stroke-width:1.21863568px;stroke-linecap:butt;stroke-linejoin:miter;stroke-opacity:1;marker-end:url(#marker1690-2)"
       d="m -210.65069,975.95016 c 15.35411,0 30.707,0 46.05867,0"
       id="path1684-3"
       inkscape:connector-curvature="0"
       inkscape:path-effect="#path-effect1686-97"
       inkscape:original-d="m -210.65069,975.95016 c 15.35411,-10e-4 30.707,-10e-4 46.05867,0" />
    <path
       transform="translate(-2.7030833e-7,-69.088007)"
       style="fill:none;fill-rule:evenodd;stroke:#5d75cd;stroke-width:1.21863568px;stroke-linecap:butt;stroke-linejoin:miter;stroke-opacity:1;marker-end:url(#marker1690-6)"
       d="m -210.65069,975.95016 c 15.35411,0 30.707,0 46.05867,0"
       id="path1684-9"
       inkscape:connector-curvature="0"
       inkscape:path-effect="#path-effect1686-2"
       inkscape:original-d="m -210.65069,975.95016 c 15.35411,-10e-4 30.707,-10e-4 46.05867,0" />
    <path
       transform="translate(-2.7030833e-7,-92.117343)"
       style="fill:none;fill-rule:evenodd;stroke:#5d75cd;stroke-width:1.21863568px;stroke-linecap:butt;stroke-linejoin:miter;stroke-opacity:1;marker-end:url(#marker1690-3)"
       d="m -210.65069,975.95016 c 15.35411,0 30.707,0 46.05867,0"
       id="path1684-7"
       inkscape:connector-curvature="0"
       inkscape:path-effect="#path-effect1686-4"
       inkscape:original-d="m -210.65069,975.95016 c 15.35411,-10e-4 30.707,-10e-4 46.05867,0" />
    <path
       transform="translate(-2.7030833e-7,23.029336)"
       style="fill:none;fill-rule:evenodd;stroke:#5d75cd;stroke-width:1.21863568px;stroke-linecap:butt;stroke-linejoin:miter;stroke-opacity:1;marker-end:url(#marker1690-8)"
       d="m -210.65069,975.95016 c 15.35411,0 30.707,0 46.05867,0"
       id="path1684-0"
       inkscape:connector-curvature="0"
       inkscape:path-effect="#path-effect1686-5"
       inkscape:original-d="m -210.65069,975.95016 c 15.35411,-10e-4 30.707,-10e-4 46.05867,0" />
    <path
       transform="translate(-2.7030833e-7,46.058672)"
       style="fill:none;fill-rule:evenodd;stroke:#5d75cd;stroke-width:1.21863568px;stroke-linecap:butt;stroke-linejoin:miter;stroke-opacity:1;marker-end:url(#marker1690-36)"
       d="m -210.65069,975.95016 c 15.35411,0 30.707,0 46.05867,0"
       id="path1684-32"
       inkscape:connector-curvature="0"
       inkscape:path-effect="#path-effect1686-6"
       inkscape:original-d="m -210.65069,975.95016 c 15.35411,-10e-4 30.707,-10e-4 46.05867,0" />
    <path
       transform="translate(-2.7030833e-7,69.088008)"
       style="fill:none;fill-rule:evenodd;stroke:#5d75cd;stroke-width:1.21863568px;stroke-linecap:butt;stroke-linejoin:miter;stroke-opacity:1;marker-end:url(#marker1690-0)"
       d="m -210.65069,975.95016 c 15.35411,0 30.707,0 46.05867,0"
       id="path1684-5"
       inkscape:connector-curvature="0"
       inkscape:path-effect="#path-effect1686-1"
       inkscape:original-d="m -210.65069,975.95016 c 15.35411,-10e-4 30.707,-10e-4 46.05867,0" />
    <path
       transform="translate(-2.7030833e-7,92.117344)"
       style="fill:none;fill-rule:evenodd;stroke:#5d75cd;stroke-width:1.21863568px;stroke-linecap:butt;stroke-linejoin:miter;stroke-opacity:1;marker-end:url(#marker1690-5)"
       d="m -210.65069,975.95016 c 15.35411,0 30.707,0 46.05867,0"
       id="path1684-6"
       inkscape:connector-curvature="0"
       inkscape:path-effect="#path-effect1686-65"
       inkscape:original-d="m -210.65069,975.95016 c 15.35411,-10e-4 30.707,-10e-4 46.05867,0" />
    <path
       style="fill:none;fill-rule:evenodd;stroke:#c6c6c6;stroke-width:1.21863568px;stroke-linecap:butt;stroke-linejoin:miter;stroke-opacity:1"
       d="m -26.416006,975.95016 c 15.354358,-7.67718 30.7072463,-15.35362 53.735108,-23.02951 23.027861,-7.67589 53.736564,-15.35307 95.955718,-23.02926 42.21916,-7.67618 95.95679,-15.35299 142.01495,-20.72642 46.05816,-5.37342 84.44136,-8.44408 122.82227,-11.51455"
       id="path2978"
       inkscape:connector-curvature="0"
       inkscape:path-effect="#path-effect2980"
       inkscape:original-d="m -26.416006,975.95016 c 15.354116,-7.67766 30.7069999,-15.35411 46.058678,-23.02933 30.704075,-7.67694 61.41278,-15.35411 92.117338,-23.02934 53.73382,-7.6773 107.47145,-15.35411 161.20535,-23.02934 38.38248,-3.07171 76.76568,-6.14237 115.14668,-9.21173" />
    <text
       id="text2984"
       y="966.59662"
       x="43.644497"
       style="font-style:normal;font-variant:normal;font-weight:normal;font-stretch:normal;line-height:0%;font-family:cmr10;-inkscape-font-specification:Sans;text-align:start;letter-spacing:0px;word-spacing:0px;writing-mode:lr-tb;text-anchor:start;fill:#000000;fill-opacity:1;stroke:none;stroke-width:1.21863568px;stroke-linecap:butt;stroke-linejoin:miter;stroke-opacity:1"
       xml:space="preserve"><tspan
         style="font-size:16.24847603px;line-height:1.25;stroke-width:1.21863568px"
         y="966.59662"
         x="43.644497"
         id="tspan2982"
         sodipodi:role="line">boundary layer</tspan></text>
    <path
       style="fill:none;fill-rule:evenodd;stroke:#808080;stroke-width:0.46058673;stroke-linecap:butt;stroke-linejoin:miter;stroke-miterlimit:4;stroke-dasharray:none;stroke-opacity:1;marker-start:url(#marker3105);marker-end:url(#marker2999)"
       d="m 226.9067,973.67086 c 0,-19.45346 0,-38.90571 0,-58.35674"
       id="path2986"
       inkscape:connector-curvature="0"
       inkscape:path-effect="#path-effect2988"
       inkscape:original-d="m 226.9067,973.67086 c 0.001,-19.45346 0.001,-38.90571 0,-58.35674"
       sodipodi:nodetypes="cc" />
    <g
       id="g4253"
       style="font-style:normal;font-variant:normal;font-weight:normal;font-stretch:normal;letter-spacing:normal;word-spacing:normal;text-anchor:start;fill:none;stroke:#000000;stroke-linecap:butt;stroke-linejoin:miter;stroke-miterlimit:10.43299961;stroke-dasharray:none;stroke-dashoffset:0;stroke-opacity:1"
       transform="matrix(2,0,0,2,-231.90462,679.11833)"
       ns0:preamble="/home/shreyas/Teaching/Courses/2020/MA3D1/preamble.tex"
       ns0:text="$\\delta$\n\n\n\n">
      <defs
         id="defs4246">
        <g
           id="g4244">
          <symbol
             id="textext-3329d9e5-0"
             overflow="visible"
             style="overflow:visible">
            <path
               id="path4238"
               d=""
               style="stroke:none"
               inkscape:connector-curvature="0" />
          </symbol>
          <symbol
             id="textext-3329d9e5-1"
             overflow="visible"
             style="overflow:visible">
            <path
               id="path4241"
               d="M 2.625,-4.359375 C 1.390625,-4.0625 0.421875,-2.765625 0.421875,-1.5625 0.421875,-0.59375 1.0625,0.125 2,0.125 c 1.15625,0 1.984375,-1.578125 1.984375,-2.953125 0,-0.90625 -0.390625,-1.40625 -0.734375,-1.84375 C 2.890625,-5.125 2.296875,-5.875 2.296875,-6.3125 c 0,-0.21875 0.203125,-0.453125 0.546875,-0.453125 0.3125,0 0.5,0.125 0.71875,0.265625 0.203125,0.125 0.390625,0.25 0.546875,0.25 C 4.359375,-6.25 4.5,-6.484375 4.5,-6.65625 4.5,-6.875 4.34375,-6.890625 3.984375,-6.984375 3.46875,-7.09375 3.328125,-7.09375 3.171875,-7.09375 c -0.78125,0 -1.140625,0.4375 -1.140625,1.03125 0,0.546875 0.296875,1.09375 0.59375,1.703125 z m 0.125,0.21875 c 0.25,0.46875 0.546875,1 0.546875,1.71875 0,0.65625 -0.375,2.328125 -1.296875,2.328125 -0.546875,0 -0.96875,-0.421875 -0.96875,-1.1875 0,-0.625 0.375,-2.5 1.71875,-2.859375 z m 0,0"
               style="stroke:none"
               inkscape:connector-curvature="0" />
          </symbol>
        </g>
      </defs>
      <g
         id="textext-3329d9e5-2">
        <g
           id="g4250"
           style="fill:#000000;fill-opacity:1">
          <use
             id="use4248"
             y="134.765"
             x="223.43201"
             xlink:href="#textext-3329d9e5-1"
             width="100%"
             height="100%" />
        </g>
      </g>
    </g>
    <path
       style="fill:none;fill-rule:evenodd;stroke:#000000;stroke-width:1.21863568px;stroke-linecap:butt;stroke-linejoin:miter;stroke-opacity:1"
       d="m 272.96536,879.22695 c 0,32.23985 0,64.48092 0,96.72321"
       id="path4268"
       inkscape:connector-curvature="0"
       inkscape:path-effect="#path-effect4270"
       inkscape:original-d="m 272.96536,879.22695 c 0.001,32.23985 0.001,64.48092 0,96.72321" />
    <path
       style="fill:none;fill-rule:evenodd;stroke:#000000;stroke-width:1.21863568px;stroke-linecap:butt;stroke-linejoin:miter;stroke-opacity:1"
       d="m 295.9947,975.95016 c 7.67778,-6.14222 15.35422,-12.28338 23.02983,-20.72669 7.67561,-8.44332 15.35444,-19.19369 19.19164,-28.40407 3.8372,-9.21039 3.8372,-16.8891 3.8372,-24.56433 0,-7.67523 0,-15.35289 0,-23.02812"
       id="path4272"
       inkscape:connector-curvature="0"
       inkscape:path-effect="#path-effect4274"
       inkscape:original-d="m 295.9947,975.95016 c 7.67766,-6.14237 15.3541,-12.28353 23.02934,-18.42347 7.67633,-10.74637 15.35516,-21.49674 23.02933,-32.24107 0.001,-7.67661 0.001,-15.35532 0,-23.02933 0.001,-7.67645 0.001,-15.35411 0,-23.02934"
       transform="translate(-23.029342)"
       sodipodi:nodetypes="ccccc" />
    <path
       transform="translate(483.61605,-92.117342)"
       style="fill:none;fill-rule:evenodd;stroke:#5d75cd;stroke-width:1.21863568px;stroke-linecap:butt;stroke-linejoin:miter;stroke-opacity:1;marker-end:url(#marker1690-3-4)"
       d="m -210.65069,975.95016 c 14.3833,0 28.76538,0 43.14624,0"
       id="path1684-7-7"
       inkscape:connector-curvature="0"
       inkscape:path-effect="#path-effect1686-4-0"
       inkscape:original-d="m -210.65069,975.95016 c 14.3833,-0.001 28.76538,-0.001 43.14624,0"
       sodipodi:nodetypes="cc" />
    <path
       transform="translate(483.61605,-69.088006)"
       style="fill:none;fill-rule:evenodd;stroke:#5d75cd;stroke-width:1.21863568px;stroke-linecap:butt;stroke-linejoin:miter;stroke-opacity:1;marker-end:url(#marker1690-3-8)"
       d="m -210.65069,975.95016 c 14.34109,0 28.68096,0 43.01961,0"
       id="path1684-7-8"
       inkscape:connector-curvature="0"
       inkscape:path-effect="#path-effect1686-4-8"
       inkscape:original-d="m -210.65069,975.95016 c 14.34109,-0.001 28.68096,-0.001 43.01961,0"
       sodipodi:nodetypes="cc" />
    <path
       transform="translate(483.61605,-46.05867)"
       style="fill:none;fill-rule:evenodd;stroke:#5d75cd;stroke-width:1.21863568px;stroke-linecap:butt;stroke-linejoin:miter;stroke-opacity:1;marker-end:url(#marker1690-3-43)"
       d="m -210.65069,975.95016 c 12.48388,0 24.96655,0 37.44799,0"
       id="path1684-7-9"
       inkscape:connector-curvature="0"
       inkscape:path-effect="#path-effect1686-4-4"
       inkscape:original-d="m -210.65069,975.95016 c 12.48388,-0.001 24.96655,-0.001 37.44799,0"
       sodipodi:nodetypes="cc" />
    <path
       transform="translate(483.61605,-23.029334)"
       style="fill:none;fill-rule:evenodd;stroke:#5d75cd;stroke-width:1.21863568px;stroke-linecap:butt;stroke-linejoin:miter;stroke-opacity:1;marker-end:url(#marker1690-3-2)"
       d="m -210.65069,975.95016 c 7.20773,0 14.41425,0 21.61955,0"
       id="path1684-7-89"
       inkscape:connector-curvature="0"
       inkscape:path-effect="#path-effect1686-4-6"
       inkscape:original-d="m -210.65069,975.95016 c 7.20773,-0.001 14.41425,-0.001 21.61955,0"
       sodipodi:nodetypes="cc" />
    <g
       id="g6335"
       style="font-style:normal;font-variant:normal;font-weight:normal;font-stretch:normal;letter-spacing:normal;word-spacing:normal;text-anchor:start;fill:none;stroke:#000000;stroke-linecap:butt;stroke-linejoin:miter;stroke-miterlimit:10.43299961;stroke-dasharray:none;stroke-dashoffset:0;stroke-opacity:1"
       transform="matrix(2,0,0,2,-642.82809,679.74204)"
       ns0:preamble="/home/shreyas/Teaching/Courses/2020/MA3D1/preamble.tex"
       ns0:text="$U$\n\n">
      <defs
         id="defs6328">
        <g
           id="g6326">
          <symbol
             id="textext-0b478eb6-0"
             overflow="visible"
             style="overflow:visible">
            <path
               id="path6320"
               d=""
               style="stroke:none"
               inkscape:connector-curvature="0" />
          </symbol>
          <symbol
             id="textext-0b478eb6-1"
             overflow="visible"
             style="overflow:visible">
            <path
               id="path6323"
               d="M 6.328125,-5.765625 C 6.4375,-6.171875 6.609375,-6.46875 7.40625,-6.5 c 0.046875,0 0.171875,-0.015625 0.171875,-0.203125 0,0 0,-0.109375 -0.125,-0.109375 -0.328125,0 -0.6875,0.03125 -1.015625,0.03125 -0.34375,0 -0.71875,-0.03125 -1.046875,-0.03125 -0.0625,0 -0.171875,0 -0.171875,0.203125 C 5.21875,-6.5 5.3125,-6.5 5.390625,-6.5 c 0.578125,0.015625 0.6875,0.21875 0.6875,0.4375 0,0.03125 -0.03125,0.1875 -0.03125,0.203125 l -0.90625,3.5625 C 4.8125,-0.953125 3.65625,-0.09375 2.65625,-0.09375 c -0.671875,0 -1.203125,-0.4375 -1.203125,-1.296875 0,-0.015625 0,-0.328125 0.109375,-0.765625 L 2.515625,-6.046875 C 2.609375,-6.40625 2.625,-6.5 3.359375,-6.5 c 0.265625,0 0.34375,0 0.34375,-0.203125 0,-0.109375 -0.109375,-0.109375 -0.140625,-0.109375 -0.28125,0 -1,0.03125 -1.28125,0.03125 -0.28125,0 -1,-0.03125 -1.28125,-0.03125 -0.078125,0 -0.1875,0 -0.1875,0.203125 C 0.8125,-6.5 0.890625,-6.5 1.09375,-6.5 c 0.015625,0 0.203125,0 0.375,0.015625 0.171875,0.03125 0.265625,0.03125 0.265625,0.171875 0,0.046875 -0.109375,0.46875 -0.171875,0.703125 l -0.21875,0.875 C 1.25,-4.34375 0.78125,-2.46875 0.734375,-2.265625 0.671875,-2 0.671875,-1.84375 0.671875,-1.6875 c 0,1.203125 0.90625,1.90625 1.953125,1.90625 1.25,0 2.484375,-1.125 2.8125,-2.4375 z m 0,0"
               style="stroke:none"
               inkscape:connector-curvature="0" />
          </symbol>
        </g>
      </defs>
      <g
         id="textext-0b478eb6-2">
        <g
           id="g6332"
           style="fill:#000000;fill-opacity:1">
          <use
             id="use6330"
             y="134.765"
             x="223.43201"
             xlink:href="#textext-0b478eb6-1"
             width="100%"
             height="100%" />
        </g>
      </g>
    </g>
  </g>
</svg>
