<?xml version="1.0" encoding="UTF-8" standalone="no"?>
<svg
   sodipodi:docname="inst.svg"
   inkscape:version="1.1.1 (1:1.1+202109281949+c3084ef5ed)"
   inkscape:export-ydpi="420.009"
   inkscape:export-xdpi="420.009"
   inkscape:export-filename="/Users/thomasina/Documents/Warwick/teaching/Lectures/tvball_figures/inst.png"
   id="svg8"
   version="1.1"
   viewBox="0 0 130 50"
   height="50mm"
   width="130mm"
   xmlns:inkscape="http://www.inkscape.org/namespaces/inkscape"
   xmlns:sodipodi="http://sodipodi.sourceforge.net/DTD/sodipodi-0.dtd"
   xmlns:xlink="http://www.w3.org/1999/xlink"
   xmlns="http://www.w3.org/2000/svg"
   xmlns:svg="http://www.w3.org/2000/svg"
   xmlns:rdf="http://www.w3.org/1999/02/22-rdf-syntax-ns#"
   xmlns:cc="http://creativecommons.org/ns#"
   xmlns:dc="http://purl.org/dc/elements/1.1/">
  <defs
     id="defs2">
    <marker
       style="overflow:visible"
       id="Arrow2Lstart"
       refX="0"
       refY="0"
       orient="auto"
       inkscape:stockid="Arrow2Lstart"
       inkscape:isstock="true">
      <path
         transform="matrix(1.1,0,0,1.1,1.1,0)"
         d="M 8.7185878,4.0337352 -2.2072895,0.01601326 8.7185884,-4.0017078 c -1.7454984,2.3720609 -1.7354408,5.6174519 -6e-7,8.035443 z"
         style="fill:context-stroke;fill-rule:evenodd;stroke-width:0.625;stroke-linejoin:round"
         id="path1335" />
    </marker>
    <marker
       style="overflow:visible"
       id="marker1586"
       refX="0"
       refY="0"
       orient="auto"
       inkscape:stockid="Arrow1Lstart"
       inkscape:isstock="true">
      <path
         transform="matrix(0.8,0,0,0.8,10,0)"
         style="fill:context-stroke;fill-rule:evenodd;stroke:context-stroke;stroke-width:1pt"
         d="M 0,0 5,-5 -12.5,0 5,5 Z"
         id="path1317" />
    </marker>
    <marker
       style="overflow:visible"
       id="Arrow1Mstart"
       refX="0"
       refY="0"
       orient="auto"
       inkscape:stockid="Arrow1Mstart"
       inkscape:isstock="true">
      <path
         transform="matrix(0.4,0,0,0.4,4,0)"
         style="fill:context-stroke;fill-rule:evenodd;stroke:context-stroke;stroke-width:1pt"
         d="M 0,0 5,-5 -12.5,0 5,5 Z"
         id="path1323" />
    </marker>
    <marker
       style="overflow:visible"
       id="Arrow1Lstart"
       refX="0"
       refY="0"
       orient="auto"
       inkscape:stockid="Arrow1Lstart"
       inkscape:isstock="true">
      <path
         transform="matrix(0.8,0,0,0.8,10,0)"
         style="fill:context-stroke;fill-rule:evenodd;stroke:context-stroke;stroke-width:1pt"
         d="M 0,0 5,-5 -12.5,0 5,5 Z"
         id="path3883" />
    </marker>
    <rect
       x="484.93909"
       y="153.66043"
       width="25.237598"
       height="32.428608"
       id="rect4183" />
    <inkscape:path-effect
       effect="spiro"
       id="path-effect2877"
       is_visible="true"
       lpeversion="1" />
    <marker
       style="overflow:visible"
       id="Tail"
       refX="0"
       refY="0"
       orient="auto"
       inkscape:stockid="Tail"
       inkscape:isstock="true">
      <g
         transform="scale(-1.2)"
         id="g2477">
        <path
           style="fill:none;fill-rule:evenodd;stroke:context-stroke;stroke-width:0.8;stroke-linecap:round"
           d="M -3.8048674,-3.9585227 0.54352094,0"
           id="path2465" />
        <path
           style="fill:none;fill-rule:evenodd;stroke:context-stroke;stroke-width:0.8;stroke-linecap:round"
           d="M -1.2866832,-3.9585227 3.0617053,0"
           id="path2467" />
        <path
           style="fill:none;fill-rule:evenodd;stroke:context-stroke;stroke-width:0.8;stroke-linecap:round"
           d="M 1.3053582,-3.9585227 5.6537466,0"
           id="path2469" />
        <path
           style="fill:none;fill-rule:evenodd;stroke:context-stroke;stroke-width:0.8;stroke-linecap:round"
           d="M -3.8048674,4.1775838 0.54352094,0.21974226"
           id="path2471" />
        <path
           style="fill:none;fill-rule:evenodd;stroke:context-stroke;stroke-width:0.8;stroke-linecap:round"
           d="M -1.2866832,4.1775838 3.0617053,0.21974226"
           id="path2473" />
        <path
           style="fill:none;fill-rule:evenodd;stroke:context-stroke;stroke-width:0.8;stroke-linecap:round"
           d="M 1.3053582,4.1775838 5.6537466,0.21974226"
           id="path2475" />
      </g>
    </marker>
    <marker
       style="overflow:visible"
       id="Arrow2Mend"
       refX="0"
       refY="0"
       orient="auto"
       inkscape:stockid="Arrow2Mend"
       inkscape:isstock="true">
      <path
         transform="scale(-0.6)"
         d="M 8.7185878,4.0337352 -2.2072895,0.01601326 8.7185884,-4.0017078 c -1.7454984,2.3720609 -1.7354408,5.6174519 -6e-7,8.035443 z"
         style="fill:context-stroke;fill-rule:evenodd;stroke-width:0.625;stroke-linejoin:round"
         id="path2456" />
    </marker>
    <marker
       style="overflow:visible"
       id="Arrow2Lend"
       refX="0"
       refY="0"
       orient="auto"
       inkscape:stockid="Arrow2Lend"
       inkscape:isstock="true">
      <path
         transform="matrix(-1.1,0,0,-1.1,-1.1,0)"
         d="M 8.7185878,4.0337352 -2.2072895,0.01601326 8.7185884,-4.0017078 c -1.7454984,2.3720609 -1.7354408,5.6174519 -6e-7,8.035443 z"
         style="fill:context-stroke;fill-rule:evenodd;stroke-width:0.625;stroke-linejoin:round"
         id="path2450" />
    </marker>
    <marker
       style="overflow:visible"
       id="Arrow1Lend"
       refX="0"
       refY="0"
       orient="auto"
       inkscape:stockid="Arrow1Lend"
       inkscape:isstock="true">
      <path
         transform="matrix(-0.8,0,0,-0.8,-10,0)"
         style="fill:context-stroke;fill-rule:evenodd;stroke:context-stroke;stroke-width:1pt"
         d="M 0,0 5,-5 -12.5,0 5,5 Z"
         id="path2432" />
    </marker>
    <clipPath
       id="clipPath1438"
       clipPathUnits="userSpaceOnUse">
      <rect
         transform="scale(1,-1)"
         y="-1"
         x="-8.4886445e-09"
         height="0.87289816"
         width="0.47978312"
         id="rect1440"
         style="opacity:0.95;fill:#ffffff;fill-opacity:0;stroke:#000000;stroke-width:0.00300589;stroke-miterlimit:4;stroke-dasharray:none" />
    </clipPath>
    <g
       id="g4678">
      <symbol
         overflow="visible"
         id="glyph0-0">
        <path
           style="stroke:none"
           d=""
           id="path4657" />
      </symbol>
      <symbol
         overflow="visible"
         id="glyph0-1">
        <path
           style="stroke:none"
           d="m 26.421875,-21.875 c 0,-0.78125 0.04687,-0.828125 1.046875,-0.9375 0.859375,-0.109375 0.9375,-0.109375 1.9375,-0.109375 h 0.890625 v -1.671875 c -1.359375,0.109375 -3.40625,0.109375 -4.796875,0.109375 -1.515625,0 -3.375,0 -4.84375,-0.109375 v 1.671875 h 0.890625 c 0.65625,0 1.265625,0.04687 1.90625,0.109375 1.03125,0.109375 1.078125,0.15625 1.078125,0.9375 v 13.515625 c 0,5.3125 -3.90625,7.0625 -7.828125,7.0625 -6.265625,0 -6.34375,-4.6875 -6.34375,-6.703125 v -14.921875 h 3.875 v -1.671875 c -1.359375,0.109375 -4.875,0.109375 -6.421875,0.109375 -1.53125,0 -5.046875,0 -6.40625,-0.109375 v 1.671875 H 5.265625 V -8.28125 c 0,4.765625 3.875,8.671875 11.296875,8.671875 6.8125,0 9.859375,-4.1875 9.859375,-8.609375 z m 0,0"
           id="path4660" />
      </symbol>
      <symbol
         overflow="visible"
         id="glyph1-0">
        <path
           style="stroke:none"
           d=""
           id="path4663" />
      </symbol>
      <symbol
         overflow="visible"
         id="glyph1-1">
        <path
           style="stroke:none"
           d="M 11.875,8.609375 C 11.875,8.5 11.875,8.421875 11.265625,7.8125 6.78125,3.296875 5.625,-3.484375 5.625,-8.96875 c 0,-6.234375 1.375,-12.46875 5.78125,-16.953125 0.46875,-0.4375 0.46875,-0.5 0.46875,-0.609375 0,-0.25 -0.15625,-0.359375 -0.359375,-0.359375 -0.359375,0 -3.59375,2.4375 -5.703125,6.984375 -1.828125,3.953125 -2.265625,7.921875 -2.265625,10.9375 0,2.796875 0.390625,7.140625 2.375,11.1875 2.140625,4.421875 5.234375,6.75 5.59375,6.75 0.203125,0 0.359375,-0.109375 0.359375,-0.359375 z m 0,0"
           id="path4666" />
      </symbol>
      <symbol
         overflow="visible"
         id="glyph1-2">
        <path
           style="stroke:none"
           d="m 10.359375,-8.96875 c 0,-2.796875 -0.390625,-7.125 -2.359375,-11.1875 -2.15625,-4.40625 -5.234375,-6.734375 -5.59375,-6.734375 -0.21875,0 -0.359375,0.140625 -0.359375,0.359375 0,0.109375 0,0.171875 0.671875,0.8125 3.515625,3.5625 5.5625,9.265625 5.5625,16.75 0,6.140625 -1.328125,12.453125 -5.765625,16.96875 -0.46875,0.421875 -0.46875,0.5 -0.46875,0.609375 0,0.21875 0.140625,0.359375 0.359375,0.359375 0.359375,0 3.578125,-2.4375 5.703125,-7 1.828125,-3.9375 2.25,-7.921875 2.25,-10.9375 z m 0,0"
           id="path4669" />
      </symbol>
      <symbol
         overflow="visible"
         id="glyph2-0">
        <path
           style="stroke:none"
           d=""
           id="path4672" />
      </symbol>
      <symbol
         overflow="visible"
         id="glyph2-1">
        <path
           style="stroke:none"
           d="M 7.390625,-14.34375 H 10.75 c 0.71875,0 1.078125,0 1.078125,-0.71875 0,-0.390625 -0.359375,-0.390625 -1,-0.390625 h -3.15625 c 1.296875,-5.09375 1.46875,-5.8125 1.46875,-6.03125 0,-0.609375 -0.421875,-0.96875 -1.03125,-0.96875 C 8,-22.453125 7,-22.40625 6.671875,-21.15625 l -1.40625,5.703125 H 1.90625 c -0.71875,0 -1.078125,0 -1.078125,0.671875 0,0.4375 0.28125,0.4375 1,0.4375 h 3.15625 c -2.578125,10.1875 -2.71875,10.796875 -2.71875,11.4375 0,1.9375 1.359375,3.296875 3.296875,3.296875 3.65625,0 5.703125,-5.234375 5.703125,-5.515625 0,-0.359375 -0.296875,-0.359375 -0.4375,-0.359375 -0.328125,0 -0.359375,0.109375 -0.53125,0.5 C 8.75,-1.25 6.84375,-0.390625 5.625,-0.390625 c -0.75,0 -1.109375,-0.46875 -1.109375,-1.65625 0,-0.859375 0.078125,-1.109375 0.21875,-1.71875 z m 0,0"
           id="path4675" />
      </symbol>
    </g>
    <g
       id="g5091">
      <symbol
         overflow="visible"
         id="glyph0-0-0">
        <path
           style="stroke:none"
           d=""
           id="path5067" />
      </symbol>
      <symbol
         overflow="visible"
         id="glyph0-1-5">
        <path
           style="stroke:none"
           d="m 9.140625,-6.8125 c -3.15625,0 -3.15625,-2.40625 -3.15625,-4.015625 0,-1.609375 0,-4.015625 3.15625,-4.015625 3.15625,0 3.15625,2.40625 3.15625,4.015625 0,1.609375 0,4.015625 -3.15625,4.015625 z m -4.375,0.359375 c 1.65625,0.859375 3.484375,0.9375 4.375,0.9375 5.171875,0 7.140625,-2.796875 7.140625,-5.3125 0,-1.6875 -0.890625,-2.875 -1.4375,-3.4375 1.078125,-0.578125 1.828125,-0.65625 2.21875,-0.6875 -0.0625,0.171875 -0.140625,0.5 -0.140625,0.71875 0,0.890625 0.609375,1.546875 1.546875,1.546875 0.9375,0 1.546875,-0.6875 1.546875,-1.546875 0,-0.828125 -0.609375,-2.078125 -2.265625,-2.078125 -0.53125,0 -2.21875,0.109375 -3.796875,1.359375 -0.65625,-0.4375 -2.15625,-1.1875 -4.8125,-1.1875 -5.15625,0 -7.125,2.796875 -7.125,5.3125 0,1.46875 0.703125,2.9375 1.859375,3.765625 -1,1.25 -1.21875,2.4375 -1.21875,3.1875 0,0.546875 0.140625,2.296875 1.578125,3.4375 -0.46875,0.109375 -3.09375,0.875 -3.09375,3.125 0,1.828125 1.984375,4.515625 9.15625,4.515625 6.34375,0 9.140625,-2.109375 9.140625,-4.625 C 19.4375,1.5 19.15625,-0.75 16.75,-1.96875 c -2.015625,-1 -4.15625,-1 -7.609375,-1 -0.921875,0 -2.578125,0 -2.75,-0.046875 -1.578125,-0.25 -1.984375,-1.609375 -1.984375,-2.25 0,-0.359375 0.140625,-0.90625 0.359375,-1.1875 z M 7,0.46875 h 4.1875 c 1.109375,0 5.171875,0 5.171875,2.21875 0,1.296875 -1.40625,3.234375 -6.0625,3.234375 -4.3125,0 -6.0625,-1.65625 -6.0625,-3.296875 0,-2.15625 2.25,-2.15625 2.765625,-2.15625 z m 0,0"
           id="path5070" />
      </symbol>
      <symbol
         overflow="visible"
         id="glyph0-2">
        <path
           style="stroke:none"
           d="M 15.703125,-2.578125 V 0.21875 L 22.046875,0 v -1.6875 c -2.21875,0 -2.46875,0 -2.46875,-1.390625 v -13.0625 l -6.5625,0.296875 v 1.671875 c 2.21875,0 2.46875,0 2.46875,1.40625 v 6.84375 c 0,2.953125 -1.828125,4.84375 -4.4375,4.84375 -2.765625,0 -2.875,-0.890625 -2.875,-2.828125 v -12.234375 l -6.5625,0.296875 v 1.671875 c 2.234375,0 2.484375,0 2.484375,1.40625 v 8.359375 c 0,3.828125 2.90625,4.625 6.453125,4.625 0.921875,0 3.515625,0 5.15625,-2.796875 z m 0,0"
           id="path5073" />
      </symbol>
      <symbol
         overflow="visible"
         id="glyph1-0-2">
        <path
           style="stroke:none"
           d=""
           id="path5076" />
      </symbol>
      <symbol
         overflow="visible"
         id="glyph1-1-3">
        <path
           style="stroke:none"
           d="M 11.875,8.609375 C 11.875,8.5 11.875,8.421875 11.265625,7.8125 6.78125,3.296875 5.625,-3.484375 5.625,-8.96875 c 0,-6.234375 1.375,-12.46875 5.78125,-16.953125 0.46875,-0.4375 0.46875,-0.5 0.46875,-0.609375 0,-0.25 -0.15625,-0.359375 -0.359375,-0.359375 -0.359375,0 -3.59375,2.4375 -5.703125,6.984375 -1.828125,3.953125 -2.265625,7.921875 -2.265625,10.9375 0,2.796875 0.390625,7.140625 2.375,11.1875 2.140625,4.421875 5.234375,6.75 5.59375,6.75 0.203125,0 0.359375,-0.109375 0.359375,-0.359375 z m 0,0"
           id="path5079" />
      </symbol>
      <symbol
         overflow="visible"
         id="glyph1-2-8">
        <path
           style="stroke:none"
           d="m 10.359375,-8.96875 c 0,-2.796875 -0.390625,-7.125 -2.359375,-11.1875 -2.15625,-4.40625 -5.234375,-6.734375 -5.59375,-6.734375 -0.21875,0 -0.359375,0.140625 -0.359375,0.359375 0,0.109375 0,0.171875 0.671875,0.8125 3.515625,3.5625 5.5625,9.265625 5.5625,16.75 0,6.140625 -1.328125,12.453125 -5.765625,16.96875 -0.46875,0.421875 -0.46875,0.5 -0.46875,0.609375 0,0.21875 0.140625,0.359375 0.359375,0.359375 0.359375,0 3.578125,-2.4375 5.703125,-7 1.828125,-3.9375 2.25,-7.921875 2.25,-10.9375 z m 0,0"
           id="path5082" />
      </symbol>
      <symbol
         overflow="visible"
         id="glyph2-0-7">
        <path
           style="stroke:none"
           d=""
           id="path5085" />
      </symbol>
      <symbol
         overflow="visible"
         id="glyph2-1-8">
        <path
           style="stroke:none"
           d="M 7.390625,-14.34375 H 10.75 c 0.71875,0 1.078125,0 1.078125,-0.71875 0,-0.390625 -0.359375,-0.390625 -1,-0.390625 h -3.15625 c 1.296875,-5.09375 1.46875,-5.8125 1.46875,-6.03125 0,-0.609375 -0.421875,-0.96875 -1.03125,-0.96875 C 8,-22.453125 7,-22.40625 6.671875,-21.15625 l -1.40625,5.703125 H 1.90625 c -0.71875,0 -1.078125,0 -1.078125,0.671875 0,0.4375 0.28125,0.4375 1,0.4375 h 3.15625 c -2.578125,10.1875 -2.71875,10.796875 -2.71875,11.4375 0,1.9375 1.359375,3.296875 3.296875,3.296875 3.65625,0 5.703125,-5.234375 5.703125,-5.515625 0,-0.359375 -0.296875,-0.359375 -0.4375,-0.359375 -0.328125,0 -0.359375,0.109375 -0.53125,0.5 C 8.75,-1.25 6.84375,-0.390625 5.625,-0.390625 c -0.75,0 -1.109375,-0.46875 -1.109375,-1.65625 0,-0.859375 0.078125,-1.109375 0.21875,-1.71875 z m 0,0"
           id="path5088" />
      </symbol>
    </g>
    <g
       id="g7048">
      <symbol
         overflow="visible"
         id="glyph0-0-09">
        <path
           style="stroke:none"
           d=""
           id="path6994" />
      </symbol>
      <symbol
         overflow="visible"
         id="glyph0-1-57">
        <path
           style="stroke:none"
           d="m 14.015625,-2.828125 v 3.21875 L 19.1875,0 v -1.109375 c -2.515625,0 -2.796875,-0.25 -2.796875,-2.015625 v -12.71875 l -5.28125,0.390625 v 1.109375 c 2.515625,0 2.796875,0.25 2.796875,2.015625 v 6.375 c 0,3.125 -1.71875,5.5625 -4.328125,5.5625 -3.015625,0 -3.15625,-1.6875 -3.15625,-3.546875 v -11.90625 l -5.28125,0.390625 v 1.109375 c 2.796875,0 2.796875,0.109375 2.796875,3.296875 v 5.375 c 0,2.796875 0,6.0625 5.453125,6.0625 2.015625,0 3.59375,-1 4.625,-3.21875 z m 0,0"
           id="path6997" />
      </symbol>
      <symbol
         overflow="visible"
         id="glyph0-2-2">
        <path
           style="stroke:none"
           d="M 6.171875,-13.484375 V -15.84375 L 1,-15.453125 v 1.109375 c 2.546875,0 2.796875,0.21875 2.796875,1.796875 V 4.234375 C 3.796875,5.84375 3.40625,5.84375 1,5.84375 V 6.953125 C 2.21875,6.921875 4.09375,6.84375 5.015625,6.84375 c 0.96875,0 2.796875,0.078125 4.0625,0.109375 V 5.84375 c -2.40625,0 -2.796875,0 -2.796875,-1.609375 v -6.34375 c 0.171875,0.5625 1.671875,2.5 4.40625,2.5 4.265625,0 8,-3.515625 8,-8.140625 0,-4.546875 -3.484375,-8.09375 -7.5,-8.09375 -2.796875,0 -4.296875,1.578125 -5.015625,2.359375 z M 6.28125,-4.09375 v -7.984375 c 1.03125,-1.828125 2.796875,-2.875 4.625,-2.875 2.609375,0 4.796875,3.15625 4.796875,7.203125 0,4.34375 -2.5,7.359375 -5.15625,7.359375 -1.4375,0 -2.796875,-0.71875 -3.765625,-2.1875 -0.5,-0.75 -0.5,-0.796875 -0.5,-1.515625 z m 0,0"
           id="path7000" />
      </symbol>
      <symbol
         overflow="visible"
         id="glyph0-3">
        <path
           style="stroke:none"
           d="M 13.625,-1.96875 V 0.390625 L 18.890625,0 v -1.109375 c -2.5,0 -2.796875,-0.25 -2.796875,-2.015625 v -21.765625 l -5.15625,0.40625 V -23.375 c 2.515625,0 2.796875,0.25 2.796875,2 v 7.75 c -1.046875,-1.296875 -2.578125,-2.21875 -4.515625,-2.21875 -4.234375,0 -8,3.515625 -8,8.140625 0,4.546875 3.515625,8.09375 7.609375,8.09375 2.28125,0 3.90625,-1.21875 4.796875,-2.359375 z m 0,-9.609375 v 7.34375 c 0,0.65625 0,0.71875 -0.390625,1.328125 C 12.15625,-1.1875 10.546875,-0.390625 9,-0.390625 c -1.609375,0 -2.90625,-0.9375 -3.765625,-2.296875 -0.9375,-1.46875 -1.03125,-3.515625 -1.03125,-4.984375 0,-1.328125 0.0625,-3.484375 1.109375,-5.09375 0.75,-1.109375 2.109375,-2.296875 4.046875,-2.296875 1.25,0 2.765625,0.546875 3.875,2.15625 0.390625,0.609375 0.390625,0.671875 0.390625,1.328125 z m 0,0"
           id="path7003" />
      </symbol>
      <symbol
         overflow="visible"
         id="glyph0-4">
        <path
           style="stroke:none"
           d="m 16.890625,-7.671875 c 0,-4.59375 -3.59375,-8.390625 -7.921875,-8.390625 C 4.484375,-16.0625 1,-12.15625 1,-7.671875 c 0,4.625 3.734375,8.0625 7.921875,8.0625 4.34375,0 7.96875,-3.515625 7.96875,-8.0625 z M 8.96875,-0.5 C 7.421875,-0.5 5.84375,-1.25 4.875,-2.90625 3.984375,-4.484375 3.984375,-6.671875 3.984375,-7.953125 c 0,-1.40625 0,-3.34375 0.859375,-4.921875 0.96875,-1.640625 2.65625,-2.40625 4.078125,-2.40625 1.578125,0 3.125,0.796875 4.0625,2.34375 0.921875,1.53125 0.921875,3.609375 0.921875,4.984375 0,1.28125 0,3.21875 -0.78125,4.796875 C 12.328125,-1.546875 10.75,-0.5 8.96875,-0.5 Z m 0,0"
           id="path7006" />
      </symbol>
      <symbol
         overflow="visible"
         id="glyph0-5">
        <path
           style="stroke:none"
           d="m 22.203125,-12.046875 c 0.640625,-1.796875 1.75,-2.265625 3,-2.296875 v -1.109375 c -0.78125,0.0625 -1.828125,0.109375 -2.609375,0.109375 -1.046875,0 -2.65625,-0.07813 -3.34375,-0.109375 v 1.109375 c 1.296875,0.03125 2.09375,0.6875 2.09375,1.71875 0,0.21875 0,0.296875 -0.1875,0.75 l -3.265625,9.1875 -3.546875,-10 c -0.140625,-0.4375 -0.171875,-0.515625 -0.171875,-0.6875 0,-0.96875 1.390625,-0.96875 2.109375,-0.96875 v -1.109375 c -1.046875,0.03125 -2.875,0.109375 -3.734375,0.109375 -1.078125,0 -2.109375,-0.04687 -3.1875,-0.109375 v 1.109375 c 1.328125,0 1.90625,0.07813 2.265625,0.53125 0.171875,0.21875 0.5625,1.296875 0.8125,1.984375 l -3.078125,8.671875 -3.40625,-9.578125 c -0.1875,-0.421875 -0.1875,-0.5 -0.1875,-0.640625 0,-0.96875 1.40625,-0.96875 2.125,-0.96875 v -1.109375 c -1.078125,0.03125 -3.078125,0.109375 -3.90625,0.109375 -0.140625,0 -2.046875,-0.04687 -3.34375,-0.109375 v 1.109375 c 1.796875,0 2.234375,0.109375 2.65625,1.25 L 7.8125,-0.390625 c 0.1875,0.5 0.296875,0.78125 0.765625,0.78125 0.453125,0 0.53125,-0.21875 0.703125,-0.71875 l 3.625,-10.140625 3.65625,10.1875 c 0.140625,0.390625 0.25,0.671875 0.71875,0.671875 0.46875,0 0.578125,-0.3125 0.71875,-0.671875 z m 0,0"
           id="path7009" />
      </symbol>
      <symbol
         overflow="visible"
         id="glyph0-6">
        <path
           style="stroke:none"
           d="m 3.9375,-12.328125 v 9.609375 c 0,1.609375 -0.390625,1.609375 -2.796875,1.609375 V 0 C 2.40625,-0.03125 4.234375,-0.109375 5.203125,-0.109375 6.125,-0.109375 8,-0.03125 9.21875,0 v -1.109375 c -2.40625,0 -2.796875,0 -2.796875,-1.609375 v -6.609375 c 0,-3.71875 2.546875,-5.734375 4.84375,-5.734375 2.25,0 2.640625,1.9375 2.640625,3.984375 v 8.359375 c 0,1.609375 -0.390625,1.609375 -2.796875,1.609375 V 0 c 1.265625,-0.03125 3.09375,-0.109375 4.0625,-0.109375 0.921875,0 2.796875,0.078125 4.015625,0.109375 v -1.109375 c -1.875,0 -2.765625,0 -2.796875,-1.078125 v -6.84375 c 0,-3.09375 0,-4.203125 -1.109375,-5.484375 -0.5,-0.609375 -1.6875,-1.328125 -3.765625,-1.328125 -2.625,0 -4.3125,1.53125 -5.3125,3.765625 v -3.765625 l -5.0625,0.390625 v 1.109375 c 2.515625,0 2.796875,0.25 2.796875,2.015625 z m 0,0"
           id="path7012" />
      </symbol>
      <symbol
         overflow="visible"
         id="glyph0-7">
        <path
           style="stroke:none"
           d="M 7.453125,-6.953125 C 8.25,-6.8125 11.1875,-6.234375 11.1875,-3.65625 c 0,1.828125 -1.25,3.265625 -4.046875,3.265625 -3.015625,0 -4.3125,-2.046875 -4.984375,-5.09375 -0.109375,-0.46875 -0.140625,-0.609375 -0.5,-0.609375 -0.46875,0 -0.46875,0.25 -0.46875,0.890625 v 4.734375 c 0,0.609375 0,0.859375 0.390625,0.859375 0.171875,0 0.21875,-0.03125 0.890625,-0.71875 0.078125,-0.0625 0.078125,-0.140625 0.71875,-0.8125 1.578125,1.5 3.203125,1.53125 3.953125,1.53125 4.125,0 5.765625,-2.40625 5.765625,-4.984375 0,-1.890625 -1.078125,-2.96875 -1.5,-3.40625 -1.1875,-1.140625 -2.578125,-1.4375 -4.09375,-1.71875 -2,-0.390625 -4.40625,-0.859375 -4.40625,-2.9375 0,-1.25 0.9375,-2.734375 4.015625,-2.734375 3.9375,0 4.125,3.234375 4.1875,4.34375 0.04687,0.328125 0.359375,0.328125 0.4375,0.328125 0.46875,0 0.46875,-0.1875 0.46875,-0.859375 v -3.625 c 0,-0.609375 0,-0.859375 -0.390625,-0.859375 -0.1875,0 -0.25,0 -0.71875,0.421875 -0.109375,0.15625 -0.46875,0.46875 -0.609375,0.578125 -1.375,-1 -2.84375,-1 -3.375,-1 -4.375,0 -5.734375,2.40625 -5.734375,4.40625 0,1.25 0.5625,2.265625 1.53125,3.046875 1.15625,0.9375 2.15625,1.15625 4.734375,1.65625 z m 0,0"
           id="path7015" />
      </symbol>
      <symbol
         overflow="visible"
         id="glyph0-8">
        <path
           style="stroke:none"
           d="m 14.875,-12.046875 c 0.9375,-2.265625 2.765625,-2.296875 3.34375,-2.296875 v -1.109375 c -0.828125,0.0625 -1.859375,0.109375 -2.6875,0.109375 -0.65625,0 -2.328125,-0.07813 -3.125,-0.109375 v 1.109375 c 1.109375,0.03125 1.6875,0.640625 1.6875,1.546875 0,0.359375 -0.03125,0.421875 -0.21875,0.859375 L 10.25,-3.125 6.28125,-12.765625 C 6.125,-13.125 6.0625,-13.265625 6.0625,-13.40625 c 0,-0.9375 1.328125,-0.9375 2,-0.9375 v -1.109375 c -0.921875,0.03125 -3.296875,0.109375 -3.90625,0.109375 -0.96875,0 -2.40625,-0.04687 -3.46875,-0.109375 v 1.109375 c 1.71875,0 2.390625,0 2.890625,1.25 L 8.96875,0 C 8.78125,0.46875 8.28125,1.65625 8.0625,2.109375 7.28125,4.09375 6.28125,6.5625 3.984375,6.5625 c -0.1875,0 -1.015625,0 -1.6875,-0.640625 C 3.40625,5.765625 3.6875,4.984375 3.6875,4.40625 c 0,-0.921875 -0.671875,-1.5 -1.5,-1.5 -0.71875,0 -1.5,0.46875 -1.5,1.546875 0,1.609375 1.5,2.890625 3.296875,2.890625 2.25,0 3.71875,-2.03125 4.59375,-4.078125 z m 0,0"
           id="path7018" />
      </symbol>
      <symbol
         overflow="visible"
         id="glyph0-9">
        <path
           style="stroke:none"
           d="m 3.9375,-12.328125 v 9.609375 c 0,1.609375 -0.390625,1.609375 -2.796875,1.609375 V 0 C 2.40625,-0.03125 4.234375,-0.109375 5.203125,-0.109375 6.125,-0.109375 8,-0.03125 9.21875,0 v -1.109375 c -2.40625,0 -2.796875,0 -2.796875,-1.609375 v -6.609375 c 0,-3.71875 2.546875,-5.734375 4.84375,-5.734375 2.25,0 2.640625,1.9375 2.640625,3.984375 v 8.359375 c 0,1.609375 -0.390625,1.609375 -2.796875,1.609375 V 0 c 1.265625,-0.03125 3.09375,-0.109375 4.0625,-0.109375 0.921875,0 2.796875,0.078125 4.015625,0.109375 v -1.109375 c -2.40625,0 -2.796875,0 -2.796875,-1.609375 v -6.609375 c 0,-3.71875 2.546875,-5.734375 4.84375,-5.734375 2.25,0 2.640625,1.9375 2.640625,3.984375 v 8.359375 c 0,1.609375 -0.390625,1.609375 -2.796875,1.609375 V 0 c 1.265625,-0.03125 3.09375,-0.109375 4.0625,-0.109375 0.921875,0 2.796875,0.078125 4.015625,0.109375 v -1.109375 c -1.875,0 -2.765625,0 -2.796875,-1.078125 v -6.84375 c 0,-3.09375 0,-4.203125 -1.109375,-5.484375 -0.5,-0.609375 -1.6875,-1.328125 -3.765625,-1.328125 -3.015625,0 -4.59375,2.140625 -5.203125,3.515625 -0.5,-3.125 -3.15625,-3.515625 -4.765625,-3.515625 -2.625,0 -4.3125,1.53125 -5.3125,3.765625 v -3.765625 l -5.0625,0.390625 v 1.109375 c 2.515625,0 2.796875,0.25 2.796875,2.015625 z m 0,0"
           id="path7021" />
      </symbol>
      <symbol
         overflow="visible"
         id="glyph0-10">
        <path
           style="stroke:none"
           d="m 4.015625,-9.03125 c 0.21875,-5.34375 3.234375,-6.25 4.453125,-6.25 3.6875,0 4.046875,4.84375 4.046875,6.25 z m -0.03125,0.75 h 10 c 0.796875,0 0.890625,0 0.890625,-0.75 0,-3.5625 -1.9375,-7.03125 -6.40625,-7.03125 C 4.296875,-16.0625 1,-12.375 1,-7.890625 c 0,4.8125 3.765625,8.28125 7.890625,8.28125 4.375,0 5.984375,-3.96875 5.984375,-4.65625 0,-0.359375 -0.28125,-0.4375 -0.453125,-0.4375 -0.328125,0 -0.40625,0.21875 -0.46875,0.5 C 12.6875,-0.5 9.46875,-0.5 9.109375,-0.5 7.3125,-0.5 5.875,-1.578125 5.0625,-2.90625 3.984375,-4.625 3.984375,-7 3.984375,-8.28125 Z m 0,0"
           id="path7024" />
      </symbol>
      <symbol
         overflow="visible"
         id="glyph0-11">
        <path
           style="stroke:none"
           d="m 6.203125,-14.34375 h 5.125 v -1.109375 h -5.125 v -6.59375 H 5.3125 c -0.046875,2.9375 -1.109375,6.765625 -4.625,6.921875 v 0.78125 h 3.046875 v 9.890625 c 0,4.421875 3.328125,4.84375 4.625,4.84375 2.546875,0 3.546875,-2.546875 3.546875,-4.84375 v -2.03125 h -0.890625 v 1.96875 c 0,2.65625 -1.078125,4.015625 -2.40625,4.015625 -2.40625,0 -2.40625,-3.265625 -2.40625,-3.875 z m 0,0"
           id="path7027" />
      </symbol>
      <symbol
         overflow="visible"
         id="glyph0-12">
        <path
           style="stroke:none"
           d="m 5.984375,-11.90625 v -3.9375 L 1,-15.453125 v 1.109375 c 2.515625,0 2.796875,0.25 2.796875,2.015625 V -2.71875 C 3.796875,-1.109375 3.40625,-1.109375 1,-1.109375 V 0 c 1.40625,-0.03125 3.09375,-0.109375 4.09375,-0.109375 1.4375,0 3.125,0 4.546875,0.109375 v -1.109375 h -0.75 c -2.65625,0 -2.71875,-0.390625 -2.71875,-1.6875 V -8.3125 c 0,-3.5625 1.5,-6.75 4.234375,-6.75 0.25,0 0.3125,0 0.390625,0.03125 -0.109375,0.04687 -0.828125,0.46875 -0.828125,1.40625 0,1 0.75,1.546875 1.546875,1.546875 0.640625,0 1.53125,-0.4375 1.53125,-1.578125 0,-1.15625 -1.109375,-2.1875 -2.640625,-2.1875 -2.625,0 -3.921875,2.390625 -4.421875,3.9375 z m 0,0"
           id="path7030" />
      </symbol>
      <symbol
         overflow="visible"
         id="glyph0-13">
        <path
           style="stroke:none"
           d="m 14.921875,-11.9375 c 0.3125,-0.828125 0.921875,-2.375 3.296875,-2.40625 v -1.109375 c -0.828125,0.0625 -1.859375,0.109375 -2.6875,0.109375 -0.859375,0 -2.515625,-0.07813 -3.125,-0.109375 v 1.109375 c 1.328125,0.03125 1.71875,0.859375 1.71875,1.546875 0,0.3125 -0.0625,0.46875 -0.21875,0.859375 l -3.65625,9.140625 -4.015625,-10 C 6.03125,-13.265625 6.03125,-13.34375 6.03125,-13.40625 c 0,-0.9375 1.390625,-0.9375 2.03125,-0.9375 v -1.109375 C 7,-15.421875 4.984375,-15.34375 4.15625,-15.34375 c -0.96875,0 -2.40625,-0.04687 -3.46875,-0.109375 v 1.109375 c 2.25,0 2.390625,0.21875 2.859375,1.328125 L 8.71875,-0.28125 c 0.203125,0.5 0.28125,0.671875 0.75,0.671875 0.46875,0 0.609375,-0.3125 0.75,-0.671875 z m 0,0"
           id="path7033" />
      </symbol>
      <symbol
         overflow="visible"
         id="glyph1-0-9">
        <path
           style="stroke:none"
           d=""
           id="path7036" />
      </symbol>
      <symbol
         overflow="visible"
         id="glyph1-1-7">
        <path
           style="stroke:none"
           d="m 15.75,-25.53125 c 0.171875,-0.46875 0.171875,-0.609375 0.171875,-0.640625 0,-0.40625 -0.328125,-0.71875 -0.71875,-0.71875 -0.25,0 -0.5,0.109375 -0.609375,0.3125 L 2.15625,7.609375 C 1.96875,8.0625 1.96875,8.21875 1.96875,8.25 c 0,0.390625 0.328125,0.71875 0.71875,0.71875 0.46875,0 0.578125,-0.25 0.796875,-0.859375 z m 0,0"
           id="path7039" />
      </symbol>
      <symbol
         overflow="visible"
         id="glyph2-0-6">
        <path
           style="stroke:none"
           d=""
           id="path7042" />
      </symbol>
      <symbol
         overflow="visible"
         id="glyph2-1-82">
        <path
           style="stroke:none"
           d="m 9.140625,-6.8125 c -3.15625,0 -3.15625,-2.40625 -3.15625,-4.015625 0,-1.609375 0,-4.015625 3.15625,-4.015625 3.15625,0 3.15625,2.40625 3.15625,4.015625 0,1.609375 0,4.015625 -3.15625,4.015625 z m -4.375,0.359375 c 1.65625,0.859375 3.484375,0.9375 4.375,0.9375 5.171875,0 7.140625,-2.796875 7.140625,-5.3125 0,-1.6875 -0.890625,-2.875 -1.4375,-3.4375 1.078125,-0.578125 1.828125,-0.65625 2.21875,-0.6875 -0.0625,0.171875 -0.140625,0.5 -0.140625,0.71875 0,0.890625 0.609375,1.546875 1.546875,1.546875 0.9375,0 1.546875,-0.6875 1.546875,-1.546875 0,-0.828125 -0.609375,-2.078125 -2.265625,-2.078125 -0.53125,0 -2.21875,0.109375 -3.796875,1.359375 -0.65625,-0.4375 -2.15625,-1.1875 -4.8125,-1.1875 -5.15625,0 -7.125,2.796875 -7.125,5.3125 0,1.46875 0.703125,2.9375 1.859375,3.765625 -1,1.25 -1.21875,2.4375 -1.21875,3.1875 0,0.546875 0.140625,2.296875 1.578125,3.4375 -0.46875,0.109375 -3.09375,0.875 -3.09375,3.125 0,1.828125 1.984375,4.515625 9.15625,4.515625 6.34375,0 9.140625,-2.109375 9.140625,-4.625 C 19.4375,1.5 19.15625,-0.75 16.75,-1.96875 c -2.015625,-1 -4.15625,-1 -7.609375,-1 -0.921875,0 -2.578125,0 -2.75,-0.046875 -1.578125,-0.25 -1.984375,-1.609375 -1.984375,-2.25 0,-0.359375 0.140625,-0.90625 0.359375,-1.1875 z M 7,0.46875 h 4.1875 c 1.109375,0 5.171875,0 5.171875,2.21875 0,1.296875 -1.40625,3.234375 -6.0625,3.234375 -4.3125,0 -6.0625,-1.65625 -6.0625,-3.296875 0,-2.15625 2.25,-2.15625 2.765625,-2.15625 z m 0,0"
           id="path7045" />
      </symbol>
    </g>
    <g
       id="g11310">
      <symbol
         overflow="visible"
         id="glyph0-0-1">
        <path
           style="stroke:none"
           d=""
           id="path11289" />
      </symbol>
      <symbol
         overflow="visible"
         id="glyph0-1-9">
        <path
           style="stroke:none"
           d="M 11.875,8.609375 C 11.875,8.5 11.875,8.421875 11.265625,7.8125 6.78125,3.296875 5.625,-3.484375 5.625,-8.96875 c 0,-6.234375 1.375,-12.46875 5.78125,-16.953125 0.46875,-0.4375 0.46875,-0.5 0.46875,-0.609375 0,-0.25 -0.15625,-0.359375 -0.359375,-0.359375 -0.359375,0 -3.59375,2.4375 -5.703125,6.984375 -1.828125,3.953125 -2.265625,7.921875 -2.265625,10.9375 0,2.796875 0.390625,7.140625 2.375,11.1875 2.140625,4.421875 5.234375,6.75 5.59375,6.75 0.203125,0 0.359375,-0.109375 0.359375,-0.359375 z m 0,0"
           id="path11292" />
      </symbol>
      <symbol
         overflow="visible"
         id="glyph0-2-0">
        <path
           style="stroke:none"
           d="m 10.359375,-8.96875 c 0,-2.796875 -0.390625,-7.125 -2.359375,-11.1875 -2.15625,-4.40625 -5.234375,-6.734375 -5.59375,-6.734375 -0.21875,0 -0.359375,0.140625 -0.359375,0.359375 0,0.109375 0,0.171875 0.671875,0.8125 3.515625,3.5625 5.5625,9.265625 5.5625,16.75 0,6.140625 -1.328125,12.453125 -5.765625,16.96875 -0.46875,0.421875 -0.46875,0.5 -0.46875,0.609375 0,0.21875 0.140625,0.359375 0.359375,0.359375 0.359375,0 3.578125,-2.4375 5.703125,-7 1.828125,-3.9375 2.25,-7.921875 2.25,-10.9375 z m 0,0"
           id="path11295" />
      </symbol>
      <symbol
         overflow="visible"
         id="glyph1-0-6">
        <path
           style="stroke:none"
           d=""
           id="path11298" />
      </symbol>
      <symbol
         overflow="visible"
         id="glyph1-1-1">
        <path
           style="stroke:none"
           d="m 13.375,-13.5625 c -0.640625,-1.3125 -1.6875,-2.28125 -3.296875,-2.28125 -4.203125,0 -8.640625,5.265625 -8.640625,10.5 0,3.375 1.96875,5.734375 4.765625,5.734375 0.71875,0 2.515625,-0.140625 4.65625,-2.6875 0.296875,1.515625 1.546875,2.6875 3.265625,2.6875 1.265625,0 2.078125,-0.828125 2.65625,-1.96875 C 17.390625,-2.875 17.859375,-5.0625 17.859375,-5.125 c 0,-0.359375 -0.328125,-0.359375 -0.4375,-0.359375 -0.359375,0 -0.390625,0.140625 -0.5,0.640625 -0.609375,2.328125 -1.25,4.453125 -2.71875,4.453125 -0.96875,0 -1.078125,-0.9375 -1.078125,-1.65625 0,-0.78125 0.07813,-1.078125 0.46875,-2.65625 0.390625,-1.5 0.46875,-1.859375 0.78125,-3.21875 l 1.296875,-5.015625 c 0.25,-1.015625 0.25,-1.078125 0.25,-1.234375 0,-0.609375 -0.4375,-0.953125 -1.046875,-0.953125 -0.859375,0 -1.390625,0.78125 -1.5,1.5625 z m -2.328125,9.296875 c -0.1875,0.640625 -0.1875,0.71875 -0.71875,1.328125 C 8.75,-0.96875 7.28125,-0.390625 6.28125,-0.390625 c -1.796875,0 -2.296875,-1.96875 -2.296875,-3.375 0,-1.796875 1.140625,-6.203125 1.96875,-7.859375 1.109375,-2.109375 2.71875,-3.4375 4.15625,-3.4375 2.328125,0 2.828125,2.9375 2.828125,3.15625 0,0.21875 -0.0625,0.4375 -0.09375,0.609375 z m 0,0"
           id="path11301" />
      </symbol>
      <symbol
         overflow="visible"
         id="glyph1-2-7">
        <path
           style="stroke:none"
           d="m 8.578125,-24.484375 c 0,-0.04687 0,-0.40625 -0.46875,-0.40625 -0.828125,0 -3.453125,0.296875 -4.375,0.359375 -0.296875,0.04687 -0.6875,0.07813 -0.6875,0.71875 0,0.4375 0.328125,0.4375 0.859375,0.4375 1.71875,0 1.796875,0.25 1.796875,0.609375 0,0.25 -0.328125,1.46875 -0.5,2.21875 l -2.9375,11.6875 c -0.4375,1.796875 -0.578125,2.375 -0.578125,3.625 0,3.40625 1.890625,5.625 4.546875,5.625 4.234375,0 8.640625,-5.34375 8.640625,-10.5 0,-3.265625 -1.890625,-5.734375 -4.765625,-5.734375 -1.640625,0 -3.109375,1.03125 -4.1875,2.140625 z m -3.375,13.546875 c 0.21875,-0.78125 0.21875,-0.859375 0.53125,-1.25 1.765625,-2.328125 3.375,-2.875 4.3125,-2.875 1.28125,0 2.25,1.078125 2.25,3.375 0,2.109375 -1.1875,6.234375 -1.828125,7.59375 -1.1875,2.40625 -2.828125,3.703125 -4.234375,3.703125 -1.21875,0 -2.390625,-0.96875 -2.390625,-3.625 0,-0.6875 0,-1.359375 0.5625,-3.625 z m 0,0"
           id="path11304" />
      </symbol>
      <symbol
         overflow="visible"
         id="glyph1-3">
        <path
           style="stroke:none"
           d="m 14.203125,-13.625 c -0.578125,0 -1.078125,0 -1.578125,0.5 -0.578125,0.53125 -0.640625,1.140625 -0.640625,1.40625 0,0.859375 0.640625,1.25 1.3125,1.25 1.046875,0 2.015625,-0.859375 2.015625,-2.296875 0,-1.75 -1.6875,-3.078125 -4.234375,-3.078125 -4.84375,0 -9.609375,5.125 -9.609375,10.171875 0,3.234375 2.078125,6.0625 5.8125,6.0625 5.125,0 8.140625,-3.796875 8.140625,-4.234375 0,-0.203125 -0.21875,-0.453125 -0.4375,-0.453125 -0.171875,0 -0.25,0.0625 -0.46875,0.359375 -2.828125,3.546875 -6.734375,3.546875 -7.171875,3.546875 -2.25,0 -3.21875,-1.765625 -3.21875,-3.90625 0,-1.46875 0.71875,-4.953125 1.9375,-7.171875 1.109375,-2.046875 3.078125,-3.59375 5.046875,-3.59375 1.21875,0 2.59375,0.46875 3.09375,1.4375 z m 0,0"
           id="path11307" />
      </symbol>
    </g>
    <g
       id="g3477">
      <symbol
         overflow="visible"
         id="glyph0-0-10">
        <path
           style="stroke:none"
           d=""
           id="path3468" />
      </symbol>
      <symbol
         overflow="visible"
         id="glyph0-1-2">
        <path
           style="stroke:none"
           d="M 27.359375,-21.734375 C 27.6875,-23.015625 27.75,-23.375 30.375,-23.375 c 0.9375,0 1.21875,0 1.21875,-0.71875 0,-0.390625 -0.390625,-0.390625 -0.5,-0.390625 -1,0 -3.59375,0.09375 -4.59375,0.09375 -1.046875,0 -3.578125,-0.09375 -4.625,-0.09375 -0.28125,0 -0.6875,0 -0.6875,0.703125 0,0.40625 0.328125,0.40625 1.015625,0.40625 0.0625,0 0.75,0 1.359375,0.0625 0.640625,0.07813 0.96875,0.109375 0.96875,0.578125 0,0.140625 -0.04687,0.21875 -0.140625,0.6875 l -2.15625,8.75 h -10.9375 l 2.109375,-8.4375 c 0.328125,-1.28125 0.4375,-1.640625 3.015625,-1.640625 0.9375,0 1.21875,0 1.21875,-0.71875 0,-0.390625 -0.390625,-0.390625 -0.5,-0.390625 -1,0 -3.578125,0.09375 -4.59375,0.09375 -1.03125,0 -3.578125,-0.09375 -4.625,-0.09375 -0.28125,0 -0.671875,0 -0.671875,0.703125 0,0.40625 0.3125,0.40625 1,0.40625 0.0625,0 0.75,0 1.359375,0.0625 0.640625,0.07813 0.96875,0.109375 0.96875,0.578125 0,0.140625 -0.03125,0.25 -0.140625,0.6875 l -4.8125,19.25 c -0.359375,1.390625 -0.421875,1.6875 -3.265625,1.6875 -0.640625,0 -0.953125,0 -0.953125,0.71875 C 1.40625,0 1.828125,0 1.90625,0 c 1,0 3.546875,-0.109375 4.546875,-0.109375 0.75,0 1.546875,0.03125 2.296875,0.03125 0.78125,0 1.578125,0.078125 2.328125,0.078125 0.296875,0 0.71875,0 0.71875,-0.71875 0,-0.390625 -0.328125,-0.390625 -1,-0.390625 -1.328125,0 -2.328125,0 -2.328125,-0.640625 0,-0.21875 0.0625,-0.40625 0.109375,-0.609375 l 2.4375,-9.828125 h 10.9375 c -1.515625,5.953125 -2.34375,9.359375 -2.484375,9.890625 -0.359375,1.15625 -1.03125,1.1875 -3.265625,1.1875 -0.53125,0 -0.859375,0 -0.859375,0.71875 C 15.34375,0 15.78125,0 15.84375,0 c 1.015625,0 3.5625,-0.109375 4.5625,-0.109375 0.75,0 1.546875,0.03125 2.296875,0.03125 C 23.484375,-0.078125 24.28125,0 25.03125,0 25.3125,0 25.75,0 25.75,-0.71875 c 0,-0.390625 -0.328125,-0.390625 -1,-0.390625 -1.328125,0 -2.34375,0 -2.34375,-0.640625 0,-0.21875 0.07813,-0.40625 0.109375,-0.609375 z m 0,0"
           id="path3471" />
      </symbol>
      <symbol
         overflow="visible"
         id="glyph0-2-4">
        <path
           style="stroke:none"
           d="m 13.40625,-21.6875 c 0.328125,-1.296875 0.4375,-1.6875 3.8125,-1.6875 1.0625,0 1.359375,0 1.359375,-0.6875 0,-0.421875 -0.390625,-0.421875 -0.578125,-0.421875 -1.1875,0 -4.125,0.09375 -5.3125,0.09375 -1.0625,0 -3.6875,-0.09375 -4.765625,-0.09375 -0.25,0 -0.671875,0 -0.671875,0.703125 0,0.40625 0.3125,0.40625 1,0.40625 0.0625,0 0.75,0 1.359375,0.0625 0.640625,0.07813 0.96875,0.109375 0.96875,0.578125 0,0.140625 -0.03125,0.25 -0.140625,0.6875 l -4.8125,19.25 c -0.359375,1.390625 -0.421875,1.6875 -3.265625,1.6875 -0.609375,0 -0.953125,0 -0.953125,0.71875 C 1.40625,0 1.71875,0 2.359375,0 H 18.96875 c 0.859375,0 0.890625,0 1.109375,-0.609375 l 2.84375,-7.75 C 23.0625,-8.75 23.0625,-8.828125 23.0625,-8.859375 23.0625,-9 22.953125,-9.25 22.625,-9.25 c -0.328125,0 -0.359375,0.171875 -0.609375,0.75 -1.21875,3.296875 -2.796875,7.390625 -9,7.390625 h -3.375 c -0.5,0 -0.5625,0 -0.78125,-0.03125 C 8.5,-1.1875 8.390625,-1.21875 8.390625,-1.5 c 0,-0.109375 0,-0.1875 0.1875,-0.828125 z m 0,0"
           id="path3474" />
      </symbol>
    </g>
    <g
       id="g4730">
      <symbol
         overflow="visible"
         id="glyph0-0-2">
        <path
           style="stroke:none"
           d=""
           id="path4679" />
      </symbol>
      <symbol
         overflow="visible"
         id="glyph0-1-7">
        <path
           style="stroke:none"
           d="m 11.984375,-10.828125 c 0.203125,-0.9375 1.03125,-4.234375 3.546875,-4.234375 0.171875,0 1.03125,0 1.78125,0.46875 -1,0.171875 -1.71875,1.078125 -1.71875,1.9375 0,0.578125 0.40625,1.25 1.375,1.25 0.78125,0 1.921875,-0.640625 1.921875,-2.078125 0,-1.859375 -2.109375,-2.359375 -3.328125,-2.359375 -2.078125,0 -3.328125,1.890625 -3.765625,2.71875 -0.890625,-2.359375 -2.828125,-2.71875 -3.875,-2.71875 -3.71875,0 -5.765625,4.625 -5.765625,5.515625 0,0.359375 0.359375,0.359375 0.421875,0.359375 0.296875,0 0.390625,-0.078125 0.46875,-0.390625 1.21875,-3.8125 3.59375,-4.703125 4.8125,-4.703125 0.671875,0 1.9375,0.328125 1.9375,2.40625 0,1.109375 -0.609375,3.515625 -1.9375,8.53125 -0.578125,2.21875 -1.828125,3.734375 -3.40625,3.734375 -0.21875,0 -1.046875,0 -1.796875,-0.46875 0.890625,-0.1875 1.6875,-0.9375 1.6875,-1.9375 0,-0.96875 -0.796875,-1.25 -1.328125,-1.25 -1.078125,0 -1.96875,0.921875 -1.96875,2.078125 0,1.640625 1.78125,2.359375 3.359375,2.359375 2.375,0 3.65625,-2.5 3.765625,-2.71875 0.4375,1.328125 1.71875,2.71875 3.875,2.71875 3.703125,0 5.734375,-4.625 5.734375,-5.515625 0,-0.359375 -0.3125,-0.359375 -0.421875,-0.359375 -0.328125,0 -0.390625,0.140625 -0.46875,0.390625 -1.1875,3.84375 -3.625,4.703125 -4.765625,4.703125 -1.40625,0 -1.984375,-1.15625 -1.984375,-2.375 0,-0.78125 0.21875,-1.578125 0.609375,-3.15625 z m 0,0"
           id="path4682" />
      </symbol>
      <symbol
         overflow="visible"
         id="glyph0-2-9">
        <path
           style="stroke:none"
           d="m 13.40625,-21.6875 c 0.328125,-1.296875 0.4375,-1.6875 3.8125,-1.6875 1.0625,0 1.359375,0 1.359375,-0.6875 0,-0.421875 -0.390625,-0.421875 -0.578125,-0.421875 -1.1875,0 -4.125,0.09375 -5.3125,0.09375 -1.0625,0 -3.6875,-0.09375 -4.765625,-0.09375 -0.25,0 -0.671875,0 -0.671875,0.703125 0,0.40625 0.3125,0.40625 1,0.40625 0.0625,0 0.75,0 1.359375,0.0625 0.640625,0.07813 0.96875,0.109375 0.96875,0.578125 0,0.140625 -0.03125,0.25 -0.140625,0.6875 l -4.8125,19.25 c -0.359375,1.390625 -0.421875,1.6875 -3.265625,1.6875 -0.609375,0 -0.953125,0 -0.953125,0.71875 C 1.40625,0 1.71875,0 2.359375,0 H 18.96875 c 0.859375,0 0.890625,0 1.109375,-0.609375 l 2.84375,-7.75 C 23.0625,-8.75 23.0625,-8.828125 23.0625,-8.859375 23.0625,-9 22.953125,-9.25 22.625,-9.25 c -0.328125,0 -0.359375,0.171875 -0.609375,0.75 -1.21875,3.296875 -2.796875,7.390625 -9,7.390625 h -3.375 c -0.5,0 -0.5625,0 -0.78125,-0.03125 C 8.5,-1.1875 8.390625,-1.21875 8.390625,-1.5 c 0,-0.109375 0,-0.1875 0.1875,-0.828125 z m 0,0"
           id="path4685" />
      </symbol>
      <symbol
         overflow="visible"
         id="glyph0-3-3">
        <path
           style="stroke:none"
           d="M 27.359375,-21.734375 C 27.6875,-23.015625 27.75,-23.375 30.375,-23.375 c 0.9375,0 1.21875,0 1.21875,-0.71875 0,-0.390625 -0.390625,-0.390625 -0.5,-0.390625 -1,0 -3.59375,0.09375 -4.59375,0.09375 -1.046875,0 -3.578125,-0.09375 -4.625,-0.09375 -0.28125,0 -0.6875,0 -0.6875,0.703125 0,0.40625 0.328125,0.40625 1.015625,0.40625 0.0625,0 0.75,0 1.359375,0.0625 0.640625,0.07813 0.96875,0.109375 0.96875,0.578125 0,0.140625 -0.04687,0.21875 -0.140625,0.6875 l -2.15625,8.75 h -10.9375 l 2.109375,-8.4375 c 0.328125,-1.28125 0.4375,-1.640625 3.015625,-1.640625 0.9375,0 1.21875,0 1.21875,-0.71875 0,-0.390625 -0.390625,-0.390625 -0.5,-0.390625 -1,0 -3.578125,0.09375 -4.59375,0.09375 -1.03125,0 -3.578125,-0.09375 -4.625,-0.09375 -0.28125,0 -0.671875,0 -0.671875,0.703125 0,0.40625 0.3125,0.40625 1,0.40625 0.0625,0 0.75,0 1.359375,0.0625 0.640625,0.07813 0.96875,0.109375 0.96875,0.578125 0,0.140625 -0.03125,0.25 -0.140625,0.6875 l -4.8125,19.25 c -0.359375,1.390625 -0.421875,1.6875 -3.265625,1.6875 -0.640625,0 -0.953125,0 -0.953125,0.71875 C 1.40625,0 1.828125,0 1.90625,0 c 1,0 3.546875,-0.109375 4.546875,-0.109375 0.75,0 1.546875,0.03125 2.296875,0.03125 0.78125,0 1.578125,0.078125 2.328125,0.078125 0.296875,0 0.71875,0 0.71875,-0.71875 0,-0.390625 -0.328125,-0.390625 -1,-0.390625 -1.328125,0 -2.328125,0 -2.328125,-0.640625 0,-0.21875 0.0625,-0.40625 0.109375,-0.609375 l 2.4375,-9.828125 h 10.9375 c -1.515625,5.953125 -2.34375,9.359375 -2.484375,9.890625 -0.359375,1.15625 -1.03125,1.1875 -3.265625,1.1875 -0.53125,0 -0.859375,0 -0.859375,0.71875 C 15.34375,0 15.78125,0 15.84375,0 c 1.015625,0 3.5625,-0.109375 4.5625,-0.109375 0.75,0 1.546875,0.03125 2.296875,0.03125 C 23.484375,-0.078125 24.28125,0 25.03125,0 25.3125,0 25.75,0 25.75,-0.71875 c 0,-0.390625 -0.328125,-0.390625 -1,-0.390625 -1.328125,0 -2.34375,0 -2.34375,-0.640625 0,-0.21875 0.07813,-0.40625 0.109375,-0.609375 z m 0,0"
           id="path4688" />
      </symbol>
      <symbol
         overflow="visible"
         id="glyph0-4-0">
        <path
           style="stroke:none"
           d="m 10.296875,-24.484375 c 0,-0.04687 0,-0.40625 -0.46875,-0.40625 -0.828125,0 -3.4375,0.296875 -4.375,0.359375 -0.296875,0.04687 -0.6875,0.07813 -0.6875,0.71875 0,0.4375 0.328125,0.4375 0.859375,0.4375 1.71875,0 1.796875,0.25 1.796875,0.609375 L 7.3125,-22.046875 2.109375,-1.40625 C 1.96875,-0.890625 1.96875,-0.828125 1.96875,-0.609375 c 0,0.828125 0.71875,1 1.046875,1 0.5625,0 1.140625,-0.421875 1.328125,-0.921875 L 5.015625,-3.265625 5.8125,-6.484375 C 6.03125,-7.28125 6.234375,-8.0625 6.421875,-8.890625 6.484375,-9.109375 6.78125,-10.296875 6.8125,-10.5 c 0.109375,-0.328125 1.21875,-2.34375 2.4375,-3.3125 0.796875,-0.5625 1.90625,-1.25 3.4375,-1.25 1.546875,0 1.9375,1.21875 1.9375,2.515625 0,1.9375 -1.359375,5.84375 -2.21875,8.03125 -0.28125,0.828125 -0.46875,1.25 -0.46875,1.96875 0,1.6875 1.265625,2.9375 2.9375,2.9375 3.375,0 4.703125,-5.234375 4.703125,-5.515625 0,-0.359375 -0.328125,-0.359375 -0.421875,-0.359375 -0.359375,0 -0.359375,0.109375 -0.546875,0.640625 -0.53125,1.90625 -1.6875,4.453125 -3.65625,4.453125 -0.609375,0 -0.859375,-0.359375 -0.859375,-1.1875 0,-0.890625 0.328125,-1.75 0.640625,-2.546875 0.578125,-1.546875 2.1875,-5.8125 2.1875,-7.890625 0,-2.328125 -1.4375,-3.828125 -4.125,-3.828125 -2.25,0 -3.96875,1.109375 -5.296875,2.75 z m 0,0"
           id="path4691" />
      </symbol>
      <symbol
         overflow="visible"
         id="glyph0-5-9">
        <path
           style="stroke:none"
           d="m 12.546875,-2.015625 c 0.390625,1.484375 1.65625,2.40625 3.203125,2.40625 1.25,0 2.078125,-0.828125 2.640625,-1.96875 C 19,-2.875 19.46875,-5.0625 19.46875,-5.125 c 0,-0.359375 -0.3125,-0.359375 -0.421875,-0.359375 -0.359375,0 -0.40625,0.140625 -0.5,0.640625 -0.515625,2.015625 -1.1875,4.453125 -2.703125,4.453125 -0.75,0 -1.109375,-0.46875 -1.109375,-1.65625 0,-0.78125 0.4375,-2.46875 0.71875,-3.71875 l 1,-3.875 c 0.109375,-0.546875 0.46875,-1.90625 0.609375,-2.4375 0.1875,-0.828125 0.546875,-2.1875 0.546875,-2.40625 0,-0.640625 -0.5,-0.96875 -1.046875,-0.96875 -0.171875,0 -1.109375,0.03125 -1.390625,1.25 -0.6875,2.625 -2.265625,8.890625 -2.6875,10.796875 -0.04687,0.140625 -1.46875,3.015625 -4.09375,3.015625 -1.859375,0 -2.21875,-1.625 -2.21875,-2.9375 0,-2.015625 1,-4.84375 1.9375,-7.328125 0.421875,-1.0625 0.609375,-1.578125 0.609375,-2.25 0,-1.609375 -1.15625,-2.9375 -2.953125,-2.9375 -3.40625,0 -4.71875,5.1875 -4.71875,5.515625 0,0.359375 0.359375,0.359375 0.421875,0.359375 0.359375,0 0.390625,-0.078125 0.578125,-0.640625 0.890625,-3.125 2.25,-4.453125 3.625,-4.453125 0.3125,0 0.890625,0.03125 0.890625,1.1875 0,0.859375 -0.390625,1.890625 -0.609375,2.4375 C 4.625,-7.890625 3.875,-5.671875 3.875,-3.90625 c 0,3.40625 2.46875,4.296875 4.40625,4.296875 2.375,0 3.65625,-1.609375 4.265625,-2.40625 z m 0,0"
           id="path4694" />
      </symbol>
      <symbol
         overflow="visible"
         id="glyph0-6-0">
        <path
           style="stroke:none"
           d="m 22.765625,-20.734375 c 0.359375,-1.46875 1.015625,-2.53125 3.875,-2.640625 0.1875,0 0.609375,-0.04687 0.609375,-0.71875 0,-0.04687 0,-0.390625 -0.46875,-0.390625 -1.171875,0 -2.4375,0.09375 -3.65625,0.09375 -1.21875,0 -2.546875,-0.09375 -3.71875,-0.09375 -0.21875,0 -0.65625,0 -0.65625,0.703125 0,0.40625 0.359375,0.40625 0.65625,0.40625 2.03125,0.03125 2.4375,0.78125 2.4375,1.578125 0,0.109375 -0.07813,0.640625 -0.109375,0.75 L 18.5,-8.25 c -1.21875,4.8125 -5.34375,7.921875 -8.921875,7.921875 -2.4375,0 -4.375,-1.578125 -4.375,-4.65625 0,-0.078125 0,-1.21875 0.390625,-2.796875 l 3.484375,-13.953125 c 0.3125,-1.28125 0.390625,-1.640625 3,-1.640625 0.9375,0 1.21875,0 1.21875,-0.71875 0,-0.390625 -0.390625,-0.390625 -0.5,-0.390625 -1,0 -3.578125,0.09375 -4.578125,0.09375 -1.046875,0 -3.59375,-0.09375 -4.640625,-0.09375 -0.28125,0 -0.671875,0 -0.671875,0.703125 0,0.40625 0.328125,0.40625 1,0.40625 0.078125,0 0.75,0 1.359375,0.0625 0.65625,0.07813 0.96875,0.109375 0.96875,0.578125 0,0.21875 -0.390625,1.71875 -0.609375,2.546875 l -0.78125,3.15625 c -0.328125,1.390625 -2.046875,8.171875 -2.1875,8.859375 -0.25,1 -0.25,1.53125 -0.25,2.078125 0,4.375 3.265625,6.875 7.03125,6.875 4.515625,0 8.953125,-4.046875 10.140625,-8.78125 z m 0,0"
           id="path4697" />
      </symbol>
      <symbol
         overflow="visible"
         id="glyph1-0-1">
        <path
           style="stroke:none"
           d=""
           id="path4700" />
      </symbol>
      <symbol
         overflow="visible"
         id="glyph1-1-5">
        <path
           style="stroke:none"
           d="m 24.640625,-11.71875 c 0.53125,0 1.21875,0 1.21875,-0.71875 0,-0.71875 -0.6875,-0.71875 -1.1875,-0.71875 H 3.1875 c -0.5,0 -1.171875,0 -1.171875,0.71875 0,0.71875 0.671875,0.71875 1.21875,0.71875 z m 0.03125,6.953125 c 0.5,0 1.1875,0 1.1875,-0.71875 0,-0.71875 -0.6875,-0.71875 -1.21875,-0.71875 H 3.234375 c -0.546875,0 -1.21875,0 -1.21875,0.71875 0,0.71875 0.671875,0.71875 1.171875,0.71875 z m 0,0"
           id="path4703" />
      </symbol>
      <symbol
         overflow="visible"
         id="glyph1-2-82">
        <path
           style="stroke:none"
           d="m 16.5,-11.46875 c 0,-2.875 -0.1875,-5.75 -1.4375,-8.390625 C 13.40625,-23.3125 10.46875,-23.875 8.96875,-23.875 c -2.15625,0 -4.765625,0.921875 -6.25,4.265625 -1.140625,2.46875 -1.3125,5.265625 -1.3125,8.140625 0,2.6875 0.140625,5.90625 1.609375,8.640625 1.53125,2.90625 4.15625,3.609375 5.90625,3.609375 1.9375,0 4.671875,-0.75 6.25,-4.15625 C 16.3125,-5.84375 16.5,-8.640625 16.5,-11.46875 Z M 8.921875,0 C 7.53125,0 5.421875,-0.890625 4.765625,-4.34375 4.375,-6.484375 4.375,-9.796875 4.375,-11.90625 c 0,-2.296875 0,-4.65625 0.28125,-6.59375 0.6875,-4.265625 3.375,-4.59375 4.265625,-4.59375 1.1875,0 3.5625,0.640625 4.234375,4.203125 0.359375,2 0.359375,4.71875 0.359375,6.984375 0,2.6875 0,5.125 -0.390625,7.421875 C 12.59375,-1.078125 10.546875,0 8.921875,0 Z m 0,0"
           id="path4706" />
      </symbol>
      <symbol
         overflow="visible"
         id="glyph1-3-5">
        <path
           style="stroke:none"
           d="M 11.875,8.609375 C 11.875,8.5 11.875,8.421875 11.265625,7.8125 6.78125,3.296875 5.625,-3.484375 5.625,-8.96875 c 0,-6.234375 1.375,-12.46875 5.78125,-16.953125 0.46875,-0.4375 0.46875,-0.5 0.46875,-0.609375 0,-0.25 -0.15625,-0.359375 -0.359375,-0.359375 -0.359375,0 -3.59375,2.4375 -5.703125,6.984375 -1.828125,3.953125 -2.265625,7.921875 -2.265625,10.9375 0,2.796875 0.390625,7.140625 2.375,11.1875 2.140625,4.421875 5.234375,6.75 5.59375,6.75 0.203125,0 0.359375,-0.109375 0.359375,-0.359375 z m 0,0"
           id="path4709" />
      </symbol>
      <symbol
         overflow="visible"
         id="glyph1-4">
        <path
           style="stroke:none"
           d="m 10.359375,-8.96875 c 0,-2.796875 -0.390625,-7.125 -2.359375,-11.1875 -2.15625,-4.40625 -5.234375,-6.734375 -5.59375,-6.734375 -0.21875,0 -0.359375,0.140625 -0.359375,0.359375 0,0.109375 0,0.171875 0.671875,0.8125 3.515625,3.5625 5.5625,9.265625 5.5625,16.75 0,6.140625 -1.328125,12.453125 -5.765625,16.96875 -0.46875,0.421875 -0.46875,0.5 -0.46875,0.609375 0,0.21875 0.140625,0.359375 0.359375,0.359375 0.359375,0 3.578125,-2.4375 5.703125,-7 1.828125,-3.9375 2.25,-7.921875 2.25,-10.9375 z m 0,0"
           id="path4712" />
      </symbol>
      <symbol
         overflow="visible"
         id="glyph2-0-0">
        <path
           style="stroke:none"
           d=""
           id="path4715" />
      </symbol>
      <symbol
         overflow="visible"
         id="glyph2-1-2">
        <path
           style="stroke:none"
           d="m 8.40625,-15.96875 c 0,-0.671875 -0.046875,-0.703125 -0.75,-0.703125 -1.609375,1.578125 -3.890625,1.609375 -4.921875,1.609375 v 0.90625 c 0.609375,0 2.265625,0 3.640625,-0.703125 V -2.0625 c 0,0.828125 0,1.15625 -2.515625,1.15625 H 2.90625 V 0 c 0.453125,-0.03125 3.546875,-0.09375 4.46875,-0.09375 0.78125,0 3.953125,0.0625 4.5,0.09375 v -0.90625 h -0.953125 c -2.515625,0 -2.515625,-0.328125 -2.515625,-1.15625 z m 0,0"
           id="path4718" />
      </symbol>
      <symbol
         overflow="visible"
         id="glyph2-2">
        <path
           style="stroke:none"
           d="M 12.6875,-4.5625 H 11.828125 C 11.75,-4.015625 11.5,-2.53125 11.171875,-2.28125 10.96875,-2.140625 9.046875,-2.140625 8.6875,-2.140625 h -4.625 c 2.640625,-2.328125 3.515625,-3.03125 5.03125,-4.21875 1.859375,-1.46875 3.59375,-3.03125 3.59375,-5.421875 0,-3.03125 -2.671875,-4.890625 -5.890625,-4.890625 -3.109375,0 -5.21875,2.1875 -5.21875,4.5 0,1.28125 1.078125,1.40625 1.328125,1.40625 0.609375,0 1.34375,-0.4375 1.34375,-1.34375 0,-0.4375 -0.1875,-1.328125 -1.484375,-1.328125 0.78125,-1.78125 2.484375,-2.328125 3.65625,-2.328125 2.515625,0 3.828125,1.953125 3.828125,3.984375 0,2.1875 -1.5625,3.921875 -2.359375,4.828125 l -6.0625,5.96875 c -0.25,0.234375 -0.25,0.28125 -0.25,0.984375 h 10.34375 z m 0,0"
           id="path4721" />
      </symbol>
      <symbol
         overflow="visible"
         id="glyph3-0">
        <path
           style="stroke:none"
           d=""
           id="path4724" />
      </symbol>
      <symbol
         overflow="visible"
         id="glyph3-1">
        <path
           style="stroke:none"
           d="m 23.625,-8.25 c 0.609375,0 1.265625,0 1.265625,-0.71875 0,-0.71875 -0.65625,-0.71875 -1.265625,-0.71875 H 4.234375 c -0.609375,0 -1.265625,0 -1.265625,0.71875 0,0.71875 0.65625,0.71875 1.265625,0.71875 z m 0,0"
           id="path4727" />
      </symbol>
    </g>
    <g
       id="g1627">
      <symbol
         overflow="visible"
         id="glyph0-0-8">
        <path
           style="stroke:none"
           d=""
           id="path1618" />
      </symbol>
      <symbol
         overflow="visible"
         id="glyph0-1-4">
        <path
           style="stroke:none"
           d="m 11.984375,-10.828125 c 0.203125,-0.9375 1.03125,-4.234375 3.546875,-4.234375 0.171875,0 1.03125,0 1.78125,0.46875 -1,0.171875 -1.71875,1.078125 -1.71875,1.9375 0,0.578125 0.40625,1.25 1.375,1.25 0.78125,0 1.921875,-0.640625 1.921875,-2.078125 0,-1.859375 -2.109375,-2.359375 -3.328125,-2.359375 -2.078125,0 -3.328125,1.890625 -3.765625,2.71875 -0.890625,-2.359375 -2.828125,-2.71875 -3.875,-2.71875 -3.71875,0 -5.765625,4.625 -5.765625,5.515625 0,0.359375 0.359375,0.359375 0.421875,0.359375 0.296875,0 0.390625,-0.078125 0.46875,-0.390625 1.21875,-3.8125 3.59375,-4.703125 4.8125,-4.703125 0.671875,0 1.9375,0.328125 1.9375,2.40625 0,1.109375 -0.609375,3.515625 -1.9375,8.53125 -0.578125,2.21875 -1.828125,3.734375 -3.40625,3.734375 -0.21875,0 -1.046875,0 -1.796875,-0.46875 0.890625,-0.1875 1.6875,-0.9375 1.6875,-1.9375 0,-0.96875 -0.796875,-1.25 -1.328125,-1.25 -1.078125,0 -1.96875,0.921875 -1.96875,2.078125 0,1.640625 1.78125,2.359375 3.359375,2.359375 2.375,0 3.65625,-2.5 3.765625,-2.71875 0.4375,1.328125 1.71875,2.71875 3.875,2.71875 3.703125,0 5.734375,-4.625 5.734375,-5.515625 0,-0.359375 -0.3125,-0.359375 -0.421875,-0.359375 -0.328125,0 -0.390625,0.140625 -0.46875,0.390625 -1.1875,3.84375 -3.625,4.703125 -4.765625,4.703125 -1.40625,0 -1.984375,-1.15625 -1.984375,-2.375 0,-0.78125 0.21875,-1.578125 0.609375,-3.15625 z m 0,0"
           id="path1621" />
      </symbol>
      <symbol
         overflow="visible"
         id="glyph0-2-1">
        <path
           style="stroke:none"
           d="m 17.421875,-13.65625 c 0.15625,-0.515625 0.15625,-0.578125 0.15625,-0.828125 0,-0.640625 -0.515625,-0.96875 -1.046875,-0.96875 -0.359375,0 -0.9375,0.21875 -1.25,0.75 -0.07813,0.1875 -0.359375,1.296875 -0.5,1.9375 -0.265625,0.9375 -0.515625,1.90625 -0.71875,2.875 l -1.625,6.453125 c -0.140625,0.53125 -1.6875,3.046875 -4.046875,3.046875 -1.828125,0 -2.21875,-1.578125 -2.21875,-2.90625 0,-1.65625 0.609375,-3.875 1.828125,-7.03125 0.578125,-1.46875 0.71875,-1.859375 0.71875,-2.578125 0,-1.609375 -1.15625,-2.9375 -2.953125,-2.9375 -3.40625,0 -4.71875,5.1875 -4.71875,5.515625 0,0.359375 0.359375,0.359375 0.421875,0.359375 0.359375,0 0.390625,-0.078125 0.578125,-0.640625 0.96875,-3.375 2.40625,-4.453125 3.625,-4.453125 0.28125,0 0.890625,0 0.890625,1.15625 0,0.890625 -0.359375,1.828125 -0.609375,2.5 C 4.515625,-7.609375 3.875,-5.5625 3.875,-3.875 c 0,3.1875 2.25,4.265625 4.375,4.265625 1.390625,0 2.609375,-0.609375 3.625,-1.609375 -0.46875,1.859375 -0.90625,3.625 -2.34375,5.515625 C 8.609375,5.515625 7.25,6.5625 5.59375,6.5625 c -0.5,0 -2.109375,-0.109375 -2.71875,-1.5 0.5625,0 1.03125,0 1.53125,-0.4375 C 4.765625,4.296875 5.125,3.84375 5.125,3.15625 c 0,-1.109375 -0.96875,-1.25 -1.328125,-1.25 -0.828125,0 -2,0.5625 -2,2.328125 0,1.796875 1.578125,3.109375 3.796875,3.109375 3.6875,0 7.390625,-3.25 8.390625,-7.3125 z m 0,0"
           id="path1624" />
      </symbol>
    </g>
    <g
       id="g3429">
      <symbol
         overflow="visible"
         id="glyph0-0-12">
        <path
           style="stroke:none"
           d=""
           id="path3387" />
      </symbol>
      <symbol
         overflow="visible"
         id="glyph0-1-6">
        <path
           style="stroke:none"
           d="m 22.765625,-20.734375 c 0.359375,-1.46875 1.015625,-2.53125 3.875,-2.640625 0.1875,0 0.609375,-0.04687 0.609375,-0.71875 0,-0.04687 0,-0.390625 -0.46875,-0.390625 -1.171875,0 -2.4375,0.09375 -3.65625,0.09375 -1.21875,0 -2.546875,-0.09375 -3.71875,-0.09375 -0.21875,0 -0.65625,0 -0.65625,0.703125 0,0.40625 0.359375,0.40625 0.65625,0.40625 2.03125,0.03125 2.4375,0.78125 2.4375,1.578125 0,0.109375 -0.07813,0.640625 -0.109375,0.75 L 18.5,-8.25 c -1.21875,4.8125 -5.34375,7.921875 -8.921875,7.921875 -2.4375,0 -4.375,-1.578125 -4.375,-4.65625 0,-0.078125 0,-1.21875 0.390625,-2.796875 l 3.484375,-13.953125 c 0.3125,-1.28125 0.390625,-1.640625 3,-1.640625 0.9375,0 1.21875,0 1.21875,-0.71875 0,-0.390625 -0.390625,-0.390625 -0.5,-0.390625 -1,0 -3.578125,0.09375 -4.578125,0.09375 -1.046875,0 -3.59375,-0.09375 -4.640625,-0.09375 -0.28125,0 -0.671875,0 -0.671875,0.703125 0,0.40625 0.328125,0.40625 1,0.40625 0.078125,0 0.75,0 1.359375,0.0625 0.65625,0.07813 0.96875,0.109375 0.96875,0.578125 0,0.21875 -0.390625,1.71875 -0.609375,2.546875 l -0.78125,3.15625 c -0.328125,1.390625 -2.046875,8.171875 -2.1875,8.859375 -0.25,1 -0.25,1.53125 -0.25,2.078125 0,4.375 3.265625,6.875 7.03125,6.875 4.515625,0 8.953125,-4.046875 10.140625,-8.78125 z m 0,0"
           id="path3390" />
      </symbol>
      <symbol
         overflow="visible"
         id="glyph0-2-6">
        <path
           style="stroke:none"
           d="m 17.421875,-13.65625 c 0.15625,-0.515625 0.15625,-0.578125 0.15625,-0.828125 0,-0.640625 -0.515625,-0.96875 -1.046875,-0.96875 -0.359375,0 -0.9375,0.21875 -1.25,0.75 -0.07813,0.1875 -0.359375,1.296875 -0.5,1.9375 -0.265625,0.9375 -0.515625,1.90625 -0.71875,2.875 l -1.625,6.453125 c -0.140625,0.53125 -1.6875,3.046875 -4.046875,3.046875 -1.828125,0 -2.21875,-1.578125 -2.21875,-2.90625 0,-1.65625 0.609375,-3.875 1.828125,-7.03125 0.578125,-1.46875 0.71875,-1.859375 0.71875,-2.578125 0,-1.609375 -1.15625,-2.9375 -2.953125,-2.9375 -3.40625,0 -4.71875,5.1875 -4.71875,5.515625 0,0.359375 0.359375,0.359375 0.421875,0.359375 0.359375,0 0.390625,-0.078125 0.578125,-0.640625 0.96875,-3.375 2.40625,-4.453125 3.625,-4.453125 0.28125,0 0.890625,0 0.890625,1.15625 0,0.890625 -0.359375,1.828125 -0.609375,2.5 C 4.515625,-7.609375 3.875,-5.5625 3.875,-3.875 c 0,3.1875 2.25,4.265625 4.375,4.265625 1.390625,0 2.609375,-0.609375 3.625,-1.609375 -0.46875,1.859375 -0.90625,3.625 -2.34375,5.515625 C 8.609375,5.515625 7.25,6.5625 5.59375,6.5625 c -0.5,0 -2.109375,-0.109375 -2.71875,-1.5 0.5625,0 1.03125,0 1.53125,-0.4375 C 4.765625,4.296875 5.125,3.84375 5.125,3.15625 c 0,-1.109375 -0.96875,-1.25 -1.328125,-1.25 -0.828125,0 -2,0.5625 -2,2.328125 0,1.796875 1.578125,3.109375 3.796875,3.109375 3.6875,0 7.390625,-3.25 8.390625,-7.3125 z m 0,0"
           id="path3393" />
      </symbol>
      <symbol
         overflow="visible"
         id="glyph0-3-5">
        <path
           style="stroke:none"
           d="m 17.5,-9.9375 c 0.171875,-0.640625 0.28125,-1.109375 0.28125,-2.078125 0,-2.328125 -1.421875,-3.828125 -4.125,-3.828125 -2.828125,0 -4.6875,1.859375 -5.546875,3.109375 -0.1875,-2.046875 -1.6875,-3.109375 -3.296875,-3.109375 -1.65625,0 -2.34375,1.390625 -2.65625,2.03125 -0.65625,1.21875 -1.109375,3.375 -1.109375,3.484375 0,0.359375 0.359375,0.359375 0.421875,0.359375 0.359375,0 0.390625,-0.03125 0.609375,-0.828125 0.609375,-2.546875 1.328125,-4.265625 2.625,-4.265625 0.609375,0 1.109375,0.28125 1.109375,1.65625 0,0.75 -0.109375,1.140625 -0.578125,3 L 3.15625,-2.109375 c -0.109375,0.53125 -0.328125,1.359375 -0.328125,1.53125 0,0.65625 0.5,0.96875 1.046875,0.96875 0.421875,0 1.078125,-0.28125 1.328125,-1 0.03125,-0.078125 0.46875,-1.75 0.671875,-2.65625 l 0.796875,-3.21875 C 6.890625,-7.28125 7.09375,-8.0625 7.28125,-8.890625 c 0.0625,-0.21875 0.359375,-1.40625 0.390625,-1.609375 0.109375,-0.328125 1.21875,-2.34375 2.4375,-3.3125 0.796875,-0.5625 1.90625,-1.25 3.453125,-1.25 1.53125,0 1.921875,1.21875 1.921875,2.515625 0,0.171875 0,0.828125 -0.359375,2.25 l -4.078125,16.5 c -0.109375,0.4375 -0.109375,0.5 -0.109375,0.578125 0,0.53125 0.390625,0.96875 1,0.96875 1.109375,0 1.359375,-1.046875 1.46875,-1.4375 z m 0,0"
           id="path3396" />
      </symbol>
      <symbol
         overflow="visible"
         id="glyph0-4-4">
        <path
           style="stroke:none"
           d="m 11.984375,-10.828125 c 0.203125,-0.9375 1.03125,-4.234375 3.546875,-4.234375 0.171875,0 1.03125,0 1.78125,0.46875 -1,0.171875 -1.71875,1.078125 -1.71875,1.9375 0,0.578125 0.40625,1.25 1.375,1.25 0.78125,0 1.921875,-0.640625 1.921875,-2.078125 0,-1.859375 -2.109375,-2.359375 -3.328125,-2.359375 -2.078125,0 -3.328125,1.890625 -3.765625,2.71875 -0.890625,-2.359375 -2.828125,-2.71875 -3.875,-2.71875 -3.71875,0 -5.765625,4.625 -5.765625,5.515625 0,0.359375 0.359375,0.359375 0.421875,0.359375 0.296875,0 0.390625,-0.078125 0.46875,-0.390625 1.21875,-3.8125 3.59375,-4.703125 4.8125,-4.703125 0.671875,0 1.9375,0.328125 1.9375,2.40625 0,1.109375 -0.609375,3.515625 -1.9375,8.53125 -0.578125,2.21875 -1.828125,3.734375 -3.40625,3.734375 -0.21875,0 -1.046875,0 -1.796875,-0.46875 0.890625,-0.1875 1.6875,-0.9375 1.6875,-1.9375 0,-0.96875 -0.796875,-1.25 -1.328125,-1.25 -1.078125,0 -1.96875,0.921875 -1.96875,2.078125 0,1.640625 1.78125,2.359375 3.359375,2.359375 2.375,0 3.65625,-2.5 3.765625,-2.71875 0.4375,1.328125 1.71875,2.71875 3.875,2.71875 3.703125,0 5.734375,-4.625 5.734375,-5.515625 0,-0.359375 -0.3125,-0.359375 -0.421875,-0.359375 -0.328125,0 -0.390625,0.140625 -0.46875,0.390625 -1.1875,3.84375 -3.625,4.703125 -4.765625,4.703125 -1.40625,0 -1.984375,-1.15625 -1.984375,-2.375 0,-0.78125 0.21875,-1.578125 0.609375,-3.15625 z m 0,0"
           id="path3399" />
      </symbol>
      <symbol
         overflow="visible"
         id="glyph0-5-1">
        <path
           style="stroke:none"
           d="m 7.28125,-0.03125 c 0,-2.375 -0.890625,-3.765625 -2.296875,-3.765625 -1.1875,0 -1.90625,0.890625 -1.90625,1.890625 0,0.96875 0.71875,1.90625 1.90625,1.90625 0.4375,0 0.890625,-0.140625 1.25,-0.46875 0.109375,-0.0625 0.15625,-0.109375 0.1875,-0.109375 0.03125,0 0.0625,0.046875 0.0625,0.546875 0,2.65625 -1.25,4.796875 -2.4375,5.984375 C 3.65625,6.34375 3.65625,6.421875 3.65625,6.53125 c 0,0.25 0.1875,0.390625 0.359375,0.390625 0.390625,0 3.265625,-2.765625 3.265625,-6.953125 z m 0,0"
           id="path3402" />
      </symbol>
      <symbol
         overflow="visible"
         id="glyph0-6-7">
        <path
           style="stroke:none"
           d="M 7.390625,-14.34375 H 10.75 c 0.71875,0 1.078125,0 1.078125,-0.71875 0,-0.390625 -0.359375,-0.390625 -1,-0.390625 h -3.15625 c 1.296875,-5.09375 1.46875,-5.8125 1.46875,-6.03125 0,-0.609375 -0.421875,-0.96875 -1.03125,-0.96875 C 8,-22.453125 7,-22.40625 6.671875,-21.15625 l -1.40625,5.703125 H 1.90625 c -0.71875,0 -1.078125,0 -1.078125,0.671875 0,0.4375 0.28125,0.4375 1,0.4375 h 3.15625 c -2.578125,10.1875 -2.71875,10.796875 -2.71875,11.4375 0,1.9375 1.359375,3.296875 3.296875,3.296875 3.65625,0 5.703125,-5.234375 5.703125,-5.515625 0,-0.359375 -0.296875,-0.359375 -0.4375,-0.359375 -0.328125,0 -0.359375,0.109375 -0.53125,0.5 C 8.75,-1.25 6.84375,-0.390625 5.625,-0.390625 c -0.75,0 -1.109375,-0.46875 -1.109375,-1.65625 0,-0.859375 0.078125,-1.109375 0.21875,-1.71875 z m 0,0"
           id="path3405" />
      </symbol>
      <symbol
         overflow="visible"
         id="glyph1-0-13">
        <path
           style="stroke:none"
           d=""
           id="path3408" />
      </symbol>
      <symbol
         overflow="visible"
         id="glyph1-1-4">
        <path
           style="stroke:none"
           d="m 8.40625,-15.96875 c 0,-0.671875 -0.046875,-0.703125 -0.75,-0.703125 -1.609375,1.578125 -3.890625,1.609375 -4.921875,1.609375 v 0.90625 c 0.609375,0 2.265625,0 3.640625,-0.703125 V -2.0625 c 0,0.828125 0,1.15625 -2.515625,1.15625 H 2.90625 V 0 c 0.453125,-0.03125 3.546875,-0.09375 4.46875,-0.09375 0.78125,0 3.953125,0.0625 4.5,0.09375 v -0.90625 h -0.953125 c -2.515625,0 -2.515625,-0.328125 -2.515625,-1.15625 z m 0,0"
           id="path3411" />
      </symbol>
      <symbol
         overflow="visible"
         id="glyph1-2-86">
        <path
           style="stroke:none"
           d="M 12.6875,-4.5625 H 11.828125 C 11.75,-4.015625 11.5,-2.53125 11.171875,-2.28125 10.96875,-2.140625 9.046875,-2.140625 8.6875,-2.140625 h -4.625 c 2.640625,-2.328125 3.515625,-3.03125 5.03125,-4.21875 1.859375,-1.46875 3.59375,-3.03125 3.59375,-5.421875 0,-3.03125 -2.671875,-4.890625 -5.890625,-4.890625 -3.109375,0 -5.21875,2.1875 -5.21875,4.5 0,1.28125 1.078125,1.40625 1.328125,1.40625 0.609375,0 1.34375,-0.4375 1.34375,-1.34375 0,-0.4375 -0.1875,-1.328125 -1.484375,-1.328125 0.78125,-1.78125 2.484375,-2.328125 3.65625,-2.328125 2.515625,0 3.828125,1.953125 3.828125,3.984375 0,2.1875 -1.5625,3.921875 -2.359375,4.828125 l -6.0625,5.96875 c -0.25,0.234375 -0.25,0.28125 -0.25,0.984375 h 10.34375 z m 0,0"
           id="path3414" />
      </symbol>
      <symbol
         overflow="visible"
         id="glyph2-0-1">
        <path
           style="stroke:none"
           d=""
           id="path3417" />
      </symbol>
      <symbol
         overflow="visible"
         id="glyph2-1-5">
        <path
           style="stroke:none"
           d="m 24.640625,-11.71875 c 0.53125,0 1.21875,0 1.21875,-0.71875 0,-0.71875 -0.6875,-0.71875 -1.1875,-0.71875 H 3.1875 c -0.5,0 -1.171875,0 -1.171875,0.71875 0,0.71875 0.671875,0.71875 1.21875,0.71875 z m 0.03125,6.953125 c 0.5,0 1.1875,0 1.1875,-0.71875 0,-0.71875 -0.6875,-0.71875 -1.21875,-0.71875 H 3.234375 c -0.546875,0 -1.21875,0 -1.21875,0.71875 0,0.71875 0.671875,0.71875 1.171875,0.71875 z m 0,0"
           id="path3420" />
      </symbol>
      <symbol
         overflow="visible"
         id="glyph2-2-0">
        <path
           style="stroke:none"
           d="M 11.875,8.609375 C 11.875,8.5 11.875,8.421875 11.265625,7.8125 6.78125,3.296875 5.625,-3.484375 5.625,-8.96875 c 0,-6.234375 1.375,-12.46875 5.78125,-16.953125 0.46875,-0.4375 0.46875,-0.5 0.46875,-0.609375 0,-0.25 -0.15625,-0.359375 -0.359375,-0.359375 -0.359375,0 -3.59375,2.4375 -5.703125,6.984375 -1.828125,3.953125 -2.265625,7.921875 -2.265625,10.9375 0,2.796875 0.390625,7.140625 2.375,11.1875 2.140625,4.421875 5.234375,6.75 5.59375,6.75 0.203125,0 0.359375,-0.109375 0.359375,-0.359375 z m 0,0"
           id="path3423" />
      </symbol>
      <symbol
         overflow="visible"
         id="glyph2-3">
        <path
           style="stroke:none"
           d="m 10.359375,-8.96875 c 0,-2.796875 -0.390625,-7.125 -2.359375,-11.1875 -2.15625,-4.40625 -5.234375,-6.734375 -5.59375,-6.734375 -0.21875,0 -0.359375,0.140625 -0.359375,0.359375 0,0.109375 0,0.171875 0.671875,0.8125 3.515625,3.5625 5.5625,9.265625 5.5625,16.75 0,6.140625 -1.328125,12.453125 -5.765625,16.96875 -0.46875,0.421875 -0.46875,0.5 -0.46875,0.609375 0,0.21875 0.140625,0.359375 0.359375,0.359375 0.359375,0 3.578125,-2.4375 5.703125,-7 1.828125,-3.9375 2.25,-7.921875 2.25,-10.9375 z m 0,0"
           id="path3426" />
      </symbol>
    </g>
    <clipPath
       id="clip1">
      <path
         d="m 89,159 h 9 v 36.60156 h -9 z m 0,0"
         id="path3431" />
    </clipPath>
    <clipPath
       id="clip2">
      <path
         d="m 151,159 h 9 v 36.60156 h -9 z m 0,0"
         id="path3434" />
    </clipPath>
  </defs>
  <sodipodi:namedview
     inkscape:window-maximized="1"
     inkscape:window-y="27"
     inkscape:window-x="0"
     inkscape:window-height="1016"
     inkscape:window-width="1920"
     showgrid="false"
     inkscape:document-rotation="0"
     inkscape:current-layer="layer1"
     inkscape:document-units="mm"
     inkscape:cy="410.81206"
     inkscape:cx="348.94004"
     inkscape:zoom="1.0990427"
     inkscape:pageshadow="2"
     inkscape:pageopacity="0.0"
     borderopacity="1.0"
     bordercolor="#666666"
     pagecolor="#ffffff"
     id="base"
     inkscape:pagecheckerboard="0"
     inkscape:lockguides="true" />
  <metadata
     id="metadata5">
    <rdf:RDF>
      <cc:Work
         rdf:about="">
        <dc:format>image/svg+xml</dc:format>
        <dc:type
           rdf:resource="http://purl.org/dc/dcmitype/StillImage" />
      </cc:Work>
    </rdf:RDF>
  </metadata>
  <g
     id="layer1"
     inkscape:groupmode="layer"
     inkscape:label="Layer 1">
    <g
       id="g301"
       transform="translate(-45.807526,-69.133065)">
      <path
         style="fill:none;stroke:#000000;stroke-width:0.265;stroke-linecap:butt;stroke-linejoin:miter;stroke-miterlimit:4;stroke-dasharray:0.795, 0.795;stroke-dashoffset:0;stroke-opacity:1"
         d="m 154.11437,94.221764 c -8.72867,-12.823054 -17.69649,-12.823059 -26.90345,0"
         id="path3730"
         sodipodi:nodetypes="cc" />
      <path
         style="fill:none;stroke:#000000;stroke-width:0.265;stroke-linecap:butt;stroke-linejoin:miter;stroke-miterlimit:4;stroke-dasharray:0.795, 0.795;stroke-dashoffset:0;stroke-opacity:1"
         d="m 127.30599,94.174846 c -8.72868,12.823054 -17.69649,12.823054 -26.90346,0"
         id="path4244"
         sodipodi:nodetypes="cc" />
      <path
         style="fill:none;stroke:#000000;stroke-width:0.265;stroke-linecap:butt;stroke-linejoin:miter;stroke-miterlimit:4;stroke-dasharray:0.795, 0.795;stroke-dashoffset:0;stroke-opacity:1"
         d="m 100.49761,94.221764 c -8.728717,-12.823054 -17.696588,-12.823059 -26.903603,0"
         id="path4492"
         sodipodi:nodetypes="cc" />
      <path
         style="fill:none;stroke:#000000;stroke-width:0.265;stroke-linecap:butt;stroke-linejoin:miter;stroke-miterlimit:4;stroke-dasharray:0.795, 0.795;stroke-dashoffset:0;stroke-opacity:1"
         d="m 73.689086,94.174846 c -8.728726,12.823054 -17.696597,12.823054 -26.903613,0"
         id="path4494"
         sodipodi:nodetypes="cc" />
      <text
         y="63.284725"
         x="89.260651"
         id="text943"
         style="font-variant:normal;font-weight:normal;font-size:3.84849px;font-family:CMSY10;-inkscape-font-specification:CMSY10;writing-mode:lr-tb;fill:#000000;fill-opacity:1;fill-rule:nonzero;stroke:none;stroke-width:0.352778"><tspan
           style="stroke-width:0.352778"
           id="tspan941"
           y="63.284725"
           x="89.260651" /></text>
      <text
         xml:space="preserve"
         transform="scale(0.26458333)"
         id="text4181"
         style="font-size:14.6667px;line-height:1.25;font-family:sans-serif;word-spacing:0px;white-space:pre;shape-inside:url(#rect4183)" />
      <path
         style="fill:none;stroke:#000000;stroke-width:0.265;stroke-linecap:butt;stroke-linejoin:miter;stroke-miterlimit:4;stroke-dasharray:none;stroke-opacity:1"
         d="M 46.857859,94.092394 H 154.55086"
         id="path1389" />
      <path
         style="fill:none;stroke:#000000;stroke-width:0.265;stroke-linecap:butt;stroke-linejoin:miter;stroke-miterlimit:4;stroke-dasharray:none;stroke-opacity:1;marker-start:url(#Arrow2Lstart);marker-end:url(#Arrow2Lend)"
         d="M 156.63088,80.524083 V 94.05927 h 13.53562"
         id="path1235" />
      <use
         xlink:href="#glyph0-1-4"
         x="-0.87840003"
         y="16.4482"
         id="use1631"
         width="100%"
         height="100%"
         transform="matrix(0.16588712,0,0,0.16588712,171.85783,92.509085)"
         style="fill:#000000;fill-opacity:1" />
      <path
         style="fill:none;stroke:#000000;stroke-width:0.264583px;stroke-linecap:butt;stroke-linejoin:miter;stroke-opacity:1"
         d="m 92.444299,72.1 v 44.29613"
         id="path2545" />
      <path
         style="fill:none;stroke:#000000;stroke-width:0.271169px;stroke-linecap:butt;stroke-linejoin:miter;stroke-opacity:1"
         d="m 115.55511,71.87 v 22"
         id="path2886" />
      <path
         style="fill:none;stroke:#000000;stroke-width:0.271169px;stroke-linecap:butt;stroke-linejoin:miter;stroke-opacity:1"
         d="M 110.26341,94.095014 V 116.0951"
         id="path2970" />
      <path
         style="fill:none;stroke:#000000;stroke-width:0.264583px;stroke-linecap:butt;stroke-linejoin:miter;stroke-opacity:1;marker-end:url(#Arrow2Lend)"
         d="M 96.295926,90.325119 H 112.66623"
         id="path3085" />
      <path
         style="fill:none;stroke:#000000;stroke-width:0.264583px;stroke-linecap:butt;stroke-linejoin:miter;stroke-opacity:1;marker-end:url(#Arrow2Lend)"
         d="M 96.295926,85.033449 H 112.66623"
         id="path3167" />
      <path
         style="fill:none;stroke:#000000;stroke-width:0.264583px;stroke-linecap:butt;stroke-linejoin:miter;stroke-opacity:1;marker-end:url(#Arrow2Lend)"
         d="M 96.295926,79.741779 H 112.66623"
         id="path3169" />
      <path
         style="fill:none;stroke:#000000;stroke-width:0.264583px;stroke-linecap:butt;stroke-linejoin:miter;stroke-opacity:1;marker-end:url(#Arrow2Lend)"
         d="M 96.295926,74.450109 H 112.66623"
         id="path3171" />
      <path
         style="fill:none;stroke:#000000;stroke-width:0.265;stroke-linecap:butt;stroke-linejoin:miter;stroke-miterlimit:4;stroke-dasharray:none;stroke-opacity:1;marker-end:url(#Arrow2Lend)"
         d="M 96.295926,114.30726 H 107.99571"
         id="path3173" />
      <path
         style="fill:none;stroke:#000000;stroke-width:0.265;stroke-linecap:butt;stroke-linejoin:miter;stroke-miterlimit:4;stroke-dasharray:none;stroke-opacity:1;marker-end:url(#Arrow2Lend)"
         d="M 96.295926,108.90208 H 107.99571"
         id="path3175" />
      <path
         style="fill:none;stroke:#000000;stroke-width:0.265;stroke-linecap:butt;stroke-linejoin:miter;stroke-miterlimit:4;stroke-dasharray:none;stroke-opacity:1;marker-end:url(#Arrow2Lend)"
         d="M 96.295926,103.49689 H 107.99571"
         id="path3177" />
      <path
         style="fill:none;stroke:#000000;stroke-width:0.265;stroke-linecap:butt;stroke-linejoin:miter;stroke-miterlimit:4;stroke-dasharray:none;stroke-opacity:1;marker-end:url(#Arrow2Lend)"
         d="M 96.295926,98.091708 H 107.99571"
         id="path3179" />
      <g
         id="g3670"
         transform="translate(69.334186,-29.412136)">
        <g
           style="fill:#000000;fill-opacity:1"
           id="g3441"
           transform="matrix(0.1758162,0,0,0.1758162,26.450774,107.19658)">
          <use
             xlink:href="#glyph0-1-6"
             x="122.3516"
             y="25.2512"
             id="use3439"
             width="100%"
             height="100%" />
        </g>
        <g
           style="fill:#000000;fill-opacity:1"
           id="g3445"
           transform="matrix(0.1758162,0,0,0.1758162,26.450774,107.19658)">
          <use
             xlink:href="#glyph1-1-4"
             x="146.83881"
             y="30.6332"
             id="use3443"
             width="100%"
             height="100%" />
        </g>
      </g>
      <g
         id="g3676"
         transform="translate(63.725918,-10.580187)">
        <g
           style="fill:#000000;fill-opacity:1"
           id="g3449"
           transform="matrix(0.1758162,0,0,0.1758162,26.450774,107.19658)">
          <use
             xlink:href="#glyph0-1-6"
             x="122.3516"
             y="79.049599"
             id="use3447"
             width="100%"
             height="100%" />
        </g>
        <g
           style="fill:#000000;fill-opacity:1"
           id="g3453"
           transform="matrix(0.1758162,0,0,0.1758162,26.450774,107.19658)">
          <use
             xlink:href="#glyph1-2-86"
             x="146.83881"
             y="84.431602"
             id="use3451"
             width="100%"
             height="100%" />
        </g>
      </g>
      <g
         style="fill:#000000;fill-opacity:1"
         id="g3457"
         transform="matrix(0.1758162,0,0,0.1758162,133.38694,56.641218)">
        <use
           xlink:href="#glyph0-2-6"
           x="144.0596"
           y="132.84801"
           id="use3455"
           width="100%"
           height="100%" />
      </g>
      <g
         id="g3695"
         transform="translate(17.905515,-19.116123)">
        <g
           style="fill:#000000;fill-opacity:1"
           id="g3461"
           transform="matrix(0.1758162,0,0,0.1758162,31.98779,71.567087)">
          <use
             xlink:href="#glyph0-2-6"
             x="-0.142"
             y="186.64639"
             id="use3459"
             width="100%"
             height="100%" />
        </g>
        <g
           style="fill:#000000;fill-opacity:1"
           id="g3465"
           transform="matrix(0.1758162,0,0,0.1758162,31.98779,71.567087)">
          <use
             xlink:href="#glyph2-1-5"
             x="28.690399"
             y="186.64639"
             id="use3463"
             width="100%"
             height="100%" />
        </g>
        <g
           style="fill:#000000;fill-opacity:1"
           id="g3469"
           transform="matrix(0.1758162,0,0,0.1758162,31.98779,71.567087)">
          <use
             xlink:href="#glyph0-3-5"
             x="66.547997"
             y="186.64639"
             id="use3467"
             width="100%"
             height="100%" />
        </g>
        <g
           clip-path="url(#clip1)"
           clip-rule="nonzero"
           id="g3475"
           transform="matrix(0.1758162,0,0,0.1758162,31.98779,71.567087)">
          <g
             style="fill:#000000;fill-opacity:1"
             id="g3473">
            <use
               xlink:href="#glyph2-2-0"
               x="85.646004"
               y="186.64639"
               id="use3471"
               width="100%"
               height="100%" />
          </g>
        </g>
        <g
           style="fill:#000000;fill-opacity:1"
           id="g3481"
           transform="matrix(0.1758162,0,0,0.1758162,31.98779,71.567087)">
          <use
             xlink:href="#glyph0-4-4"
             x="99.5924"
             y="186.64639"
             id="use3477"
             width="100%"
             height="100%" />
          <use
             xlink:href="#glyph0-5-1"
             x="120.08945"
             y="186.64639"
             id="use3479"
             width="100%"
             height="100%" />
        </g>
        <g
           style="fill:#000000;fill-opacity:1"
           id="g3485"
           transform="matrix(0.1758162,0,0,0.1758162,31.98779,71.567087)">
          <use
             xlink:href="#glyph0-6-7"
             x="136.0316"
             y="186.64639"
             id="use3483"
             width="100%"
             height="100%" />
        </g>
        <g
           clip-path="url(#clip2)"
           clip-rule="nonzero"
           id="g3491"
           transform="matrix(0.1758162,0,0,0.1758162,31.98779,71.567087)">
          <g
             style="fill:#000000;fill-opacity:1"
             id="g3489">
            <use
               xlink:href="#glyph2-3"
               x="148.9808"
               y="186.64639"
               id="use3487"
               width="100%"
               height="100%" />
          </g>
        </g>
      </g>
    </g>
  </g>
</svg>
