<?xml version="1.0" encoding="UTF-8" standalone="no"?>
<svg
   sodipodi:docname="sphere_wall.svg"
   inkscape:version="1.1.1 (1:1.1+202109281949+c3084ef5ed)"
   inkscape:export-ydpi="420.009"
   inkscape:export-xdpi="420.009"
   inkscape:export-filename="/Users/thomasina/Documents/Warwick/Lectures/sphere_wall.png"
   id="svg8"
   version="1.1"
   viewBox="0 0 175 55"
   height="55mm"
   width="175mm"
   xmlns:inkscape="http://www.inkscape.org/namespaces/inkscape"
   xmlns:sodipodi="http://sodipodi.sourceforge.net/DTD/sodipodi-0.dtd"
   xmlns:xlink="http://www.w3.org/1999/xlink"
   xmlns="http://www.w3.org/2000/svg"
   xmlns:svg="http://www.w3.org/2000/svg"
   xmlns:rdf="http://www.w3.org/1999/02/22-rdf-syntax-ns#"
   xmlns:cc="http://creativecommons.org/ns#"
   xmlns:dc="http://purl.org/dc/elements/1.1/">
  <defs
     id="defs2">
    <marker
       style="overflow:visible"
       id="Arrow1Lstart"
       refX="0"
       refY="0"
       orient="auto"
       inkscape:stockid="Arrow1Lstart"
       inkscape:isstock="true">
      <path
         transform="matrix(0.8,0,0,0.8,10,0)"
         style="fill:context-stroke;fill-rule:evenodd;stroke:context-stroke;stroke-width:1pt"
         d="M 0,0 5,-5 -12.5,0 5,5 Z"
         id="path3883" />
    </marker>
    <rect
       x="484.93909"
       y="153.66043"
       width="25.237598"
       height="32.428608"
       id="rect4183" />
    <inkscape:path-effect
       effect="spiro"
       id="path-effect2877"
       is_visible="true"
       lpeversion="1" />
    <marker
       style="overflow:visible"
       id="Tail"
       refX="0"
       refY="0"
       orient="auto"
       inkscape:stockid="Tail"
       inkscape:isstock="true">
      <g
         transform="scale(-1.2)"
         id="g2477">
        <path
           style="fill:none;fill-rule:evenodd;stroke:context-stroke;stroke-width:0.8;stroke-linecap:round"
           d="M -3.8048674,-3.9585227 0.54352094,0"
           id="path2465" />
        <path
           style="fill:none;fill-rule:evenodd;stroke:context-stroke;stroke-width:0.8;stroke-linecap:round"
           d="M -1.2866832,-3.9585227 3.0617053,0"
           id="path2467" />
        <path
           style="fill:none;fill-rule:evenodd;stroke:context-stroke;stroke-width:0.8;stroke-linecap:round"
           d="M 1.3053582,-3.9585227 5.6537466,0"
           id="path2469" />
        <path
           style="fill:none;fill-rule:evenodd;stroke:context-stroke;stroke-width:0.8;stroke-linecap:round"
           d="M -3.8048674,4.1775838 0.54352094,0.21974226"
           id="path2471" />
        <path
           style="fill:none;fill-rule:evenodd;stroke:context-stroke;stroke-width:0.8;stroke-linecap:round"
           d="M -1.2866832,4.1775838 3.0617053,0.21974226"
           id="path2473" />
        <path
           style="fill:none;fill-rule:evenodd;stroke:context-stroke;stroke-width:0.8;stroke-linecap:round"
           d="M 1.3053582,4.1775838 5.6537466,0.21974226"
           id="path2475" />
      </g>
    </marker>
    <marker
       style="overflow:visible"
       id="Arrow2Mend"
       refX="0"
       refY="0"
       orient="auto"
       inkscape:stockid="Arrow2Mend"
       inkscape:isstock="true">
      <path
         transform="scale(-0.6)"
         d="M 8.7185878,4.0337352 -2.2072895,0.01601326 8.7185884,-4.0017078 c -1.7454984,2.3720609 -1.7354408,5.6174519 -6e-7,8.035443 z"
         style="fill:context-stroke;fill-rule:evenodd;stroke-width:0.625;stroke-linejoin:round"
         id="path2456" />
    </marker>
    <marker
       style="overflow:visible"
       id="Arrow2Lend"
       refX="0"
       refY="0"
       orient="auto"
       inkscape:stockid="Arrow2Lend"
       inkscape:isstock="true">
      <path
         transform="matrix(-1.1,0,0,-1.1,-1.1,0)"
         d="M 8.7185878,4.0337352 -2.2072895,0.01601326 8.7185884,-4.0017078 c -1.7454984,2.3720609 -1.7354408,5.6174519 -6e-7,8.035443 z"
         style="fill:context-stroke;fill-rule:evenodd;stroke-width:0.625;stroke-linejoin:round"
         id="path2450" />
    </marker>
    <marker
       style="overflow:visible"
       id="Arrow1Lend"
       refX="0"
       refY="0"
       orient="auto"
       inkscape:stockid="Arrow1Lend"
       inkscape:isstock="true">
      <path
         transform="matrix(-0.8,0,0,-0.8,-10,0)"
         style="fill:context-stroke;fill-rule:evenodd;stroke:context-stroke;stroke-width:1pt"
         d="M 0,0 5,-5 -12.5,0 5,5 Z"
         id="path2432" />
    </marker>
    <clipPath
       id="clipPath1438"
       clipPathUnits="userSpaceOnUse">
      <rect
         transform="scale(1,-1)"
         y="-1"
         x="-8.4886445e-09"
         height="0.87289816"
         width="0.47978312"
         id="rect1440"
         style="opacity:0.95;fill:#ffffff;fill-opacity:0;stroke:#000000;stroke-width:0.00300589;stroke-miterlimit:4;stroke-dasharray:none" />
    </clipPath>
    <g
       id="g4678">
      <symbol
         overflow="visible"
         id="glyph0-0">
        <path
           style="stroke:none"
           d=""
           id="path4657" />
      </symbol>
      <symbol
         overflow="visible"
         id="glyph0-1">
        <path
           style="stroke:none"
           d="m 26.421875,-21.875 c 0,-0.78125 0.04687,-0.828125 1.046875,-0.9375 0.859375,-0.109375 0.9375,-0.109375 1.9375,-0.109375 h 0.890625 v -1.671875 c -1.359375,0.109375 -3.40625,0.109375 -4.796875,0.109375 -1.515625,0 -3.375,0 -4.84375,-0.109375 v 1.671875 h 0.890625 c 0.65625,0 1.265625,0.04687 1.90625,0.109375 1.03125,0.109375 1.078125,0.15625 1.078125,0.9375 v 13.515625 c 0,5.3125 -3.90625,7.0625 -7.828125,7.0625 -6.265625,0 -6.34375,-4.6875 -6.34375,-6.703125 v -14.921875 h 3.875 v -1.671875 c -1.359375,0.109375 -4.875,0.109375 -6.421875,0.109375 -1.53125,0 -5.046875,0 -6.40625,-0.109375 v 1.671875 H 5.265625 V -8.28125 c 0,4.765625 3.875,8.671875 11.296875,8.671875 6.8125,0 9.859375,-4.1875 9.859375,-8.609375 z m 0,0"
           id="path4660" />
      </symbol>
      <symbol
         overflow="visible"
         id="glyph1-0">
        <path
           style="stroke:none"
           d=""
           id="path4663" />
      </symbol>
      <symbol
         overflow="visible"
         id="glyph1-1">
        <path
           style="stroke:none"
           d="M 11.875,8.609375 C 11.875,8.5 11.875,8.421875 11.265625,7.8125 6.78125,3.296875 5.625,-3.484375 5.625,-8.96875 c 0,-6.234375 1.375,-12.46875 5.78125,-16.953125 0.46875,-0.4375 0.46875,-0.5 0.46875,-0.609375 0,-0.25 -0.15625,-0.359375 -0.359375,-0.359375 -0.359375,0 -3.59375,2.4375 -5.703125,6.984375 -1.828125,3.953125 -2.265625,7.921875 -2.265625,10.9375 0,2.796875 0.390625,7.140625 2.375,11.1875 2.140625,4.421875 5.234375,6.75 5.59375,6.75 0.203125,0 0.359375,-0.109375 0.359375,-0.359375 z m 0,0"
           id="path4666" />
      </symbol>
      <symbol
         overflow="visible"
         id="glyph1-2">
        <path
           style="stroke:none"
           d="m 10.359375,-8.96875 c 0,-2.796875 -0.390625,-7.125 -2.359375,-11.1875 -2.15625,-4.40625 -5.234375,-6.734375 -5.59375,-6.734375 -0.21875,0 -0.359375,0.140625 -0.359375,0.359375 0,0.109375 0,0.171875 0.671875,0.8125 3.515625,3.5625 5.5625,9.265625 5.5625,16.75 0,6.140625 -1.328125,12.453125 -5.765625,16.96875 -0.46875,0.421875 -0.46875,0.5 -0.46875,0.609375 0,0.21875 0.140625,0.359375 0.359375,0.359375 0.359375,0 3.578125,-2.4375 5.703125,-7 1.828125,-3.9375 2.25,-7.921875 2.25,-10.9375 z m 0,0"
           id="path4669" />
      </symbol>
      <symbol
         overflow="visible"
         id="glyph2-0">
        <path
           style="stroke:none"
           d=""
           id="path4672" />
      </symbol>
      <symbol
         overflow="visible"
         id="glyph2-1">
        <path
           style="stroke:none"
           d="M 7.390625,-14.34375 H 10.75 c 0.71875,0 1.078125,0 1.078125,-0.71875 0,-0.390625 -0.359375,-0.390625 -1,-0.390625 h -3.15625 c 1.296875,-5.09375 1.46875,-5.8125 1.46875,-6.03125 0,-0.609375 -0.421875,-0.96875 -1.03125,-0.96875 C 8,-22.453125 7,-22.40625 6.671875,-21.15625 l -1.40625,5.703125 H 1.90625 c -0.71875,0 -1.078125,0 -1.078125,0.671875 0,0.4375 0.28125,0.4375 1,0.4375 h 3.15625 c -2.578125,10.1875 -2.71875,10.796875 -2.71875,11.4375 0,1.9375 1.359375,3.296875 3.296875,3.296875 3.65625,0 5.703125,-5.234375 5.703125,-5.515625 0,-0.359375 -0.296875,-0.359375 -0.4375,-0.359375 -0.328125,0 -0.359375,0.109375 -0.53125,0.5 C 8.75,-1.25 6.84375,-0.390625 5.625,-0.390625 c -0.75,0 -1.109375,-0.46875 -1.109375,-1.65625 0,-0.859375 0.078125,-1.109375 0.21875,-1.71875 z m 0,0"
           id="path4675" />
      </symbol>
    </g>
    <g
       id="g5091">
      <symbol
         overflow="visible"
         id="glyph0-0-0">
        <path
           style="stroke:none"
           d=""
           id="path5067" />
      </symbol>
      <symbol
         overflow="visible"
         id="glyph0-1-5">
        <path
           style="stroke:none"
           d="m 9.140625,-6.8125 c -3.15625,0 -3.15625,-2.40625 -3.15625,-4.015625 0,-1.609375 0,-4.015625 3.15625,-4.015625 3.15625,0 3.15625,2.40625 3.15625,4.015625 0,1.609375 0,4.015625 -3.15625,4.015625 z m -4.375,0.359375 c 1.65625,0.859375 3.484375,0.9375 4.375,0.9375 5.171875,0 7.140625,-2.796875 7.140625,-5.3125 0,-1.6875 -0.890625,-2.875 -1.4375,-3.4375 1.078125,-0.578125 1.828125,-0.65625 2.21875,-0.6875 -0.0625,0.171875 -0.140625,0.5 -0.140625,0.71875 0,0.890625 0.609375,1.546875 1.546875,1.546875 0.9375,0 1.546875,-0.6875 1.546875,-1.546875 0,-0.828125 -0.609375,-2.078125 -2.265625,-2.078125 -0.53125,0 -2.21875,0.109375 -3.796875,1.359375 -0.65625,-0.4375 -2.15625,-1.1875 -4.8125,-1.1875 -5.15625,0 -7.125,2.796875 -7.125,5.3125 0,1.46875 0.703125,2.9375 1.859375,3.765625 -1,1.25 -1.21875,2.4375 -1.21875,3.1875 0,0.546875 0.140625,2.296875 1.578125,3.4375 -0.46875,0.109375 -3.09375,0.875 -3.09375,3.125 0,1.828125 1.984375,4.515625 9.15625,4.515625 6.34375,0 9.140625,-2.109375 9.140625,-4.625 C 19.4375,1.5 19.15625,-0.75 16.75,-1.96875 c -2.015625,-1 -4.15625,-1 -7.609375,-1 -0.921875,0 -2.578125,0 -2.75,-0.046875 -1.578125,-0.25 -1.984375,-1.609375 -1.984375,-2.25 0,-0.359375 0.140625,-0.90625 0.359375,-1.1875 z M 7,0.46875 h 4.1875 c 1.109375,0 5.171875,0 5.171875,2.21875 0,1.296875 -1.40625,3.234375 -6.0625,3.234375 -4.3125,0 -6.0625,-1.65625 -6.0625,-3.296875 0,-2.15625 2.25,-2.15625 2.765625,-2.15625 z m 0,0"
           id="path5070" />
      </symbol>
      <symbol
         overflow="visible"
         id="glyph0-2">
        <path
           style="stroke:none"
           d="M 15.703125,-2.578125 V 0.21875 L 22.046875,0 v -1.6875 c -2.21875,0 -2.46875,0 -2.46875,-1.390625 v -13.0625 l -6.5625,0.296875 v 1.671875 c 2.21875,0 2.46875,0 2.46875,1.40625 v 6.84375 c 0,2.953125 -1.828125,4.84375 -4.4375,4.84375 -2.765625,0 -2.875,-0.890625 -2.875,-2.828125 v -12.234375 l -6.5625,0.296875 v 1.671875 c 2.234375,0 2.484375,0 2.484375,1.40625 v 8.359375 c 0,3.828125 2.90625,4.625 6.453125,4.625 0.921875,0 3.515625,0 5.15625,-2.796875 z m 0,0"
           id="path5073" />
      </symbol>
      <symbol
         overflow="visible"
         id="glyph1-0-2">
        <path
           style="stroke:none"
           d=""
           id="path5076" />
      </symbol>
      <symbol
         overflow="visible"
         id="glyph1-1-3">
        <path
           style="stroke:none"
           d="M 11.875,8.609375 C 11.875,8.5 11.875,8.421875 11.265625,7.8125 6.78125,3.296875 5.625,-3.484375 5.625,-8.96875 c 0,-6.234375 1.375,-12.46875 5.78125,-16.953125 0.46875,-0.4375 0.46875,-0.5 0.46875,-0.609375 0,-0.25 -0.15625,-0.359375 -0.359375,-0.359375 -0.359375,0 -3.59375,2.4375 -5.703125,6.984375 -1.828125,3.953125 -2.265625,7.921875 -2.265625,10.9375 0,2.796875 0.390625,7.140625 2.375,11.1875 2.140625,4.421875 5.234375,6.75 5.59375,6.75 0.203125,0 0.359375,-0.109375 0.359375,-0.359375 z m 0,0"
           id="path5079" />
      </symbol>
      <symbol
         overflow="visible"
         id="glyph1-2-8">
        <path
           style="stroke:none"
           d="m 10.359375,-8.96875 c 0,-2.796875 -0.390625,-7.125 -2.359375,-11.1875 -2.15625,-4.40625 -5.234375,-6.734375 -5.59375,-6.734375 -0.21875,0 -0.359375,0.140625 -0.359375,0.359375 0,0.109375 0,0.171875 0.671875,0.8125 3.515625,3.5625 5.5625,9.265625 5.5625,16.75 0,6.140625 -1.328125,12.453125 -5.765625,16.96875 -0.46875,0.421875 -0.46875,0.5 -0.46875,0.609375 0,0.21875 0.140625,0.359375 0.359375,0.359375 0.359375,0 3.578125,-2.4375 5.703125,-7 1.828125,-3.9375 2.25,-7.921875 2.25,-10.9375 z m 0,0"
           id="path5082" />
      </symbol>
      <symbol
         overflow="visible"
         id="glyph2-0-7">
        <path
           style="stroke:none"
           d=""
           id="path5085" />
      </symbol>
      <symbol
         overflow="visible"
         id="glyph2-1-8">
        <path
           style="stroke:none"
           d="M 7.390625,-14.34375 H 10.75 c 0.71875,0 1.078125,0 1.078125,-0.71875 0,-0.390625 -0.359375,-0.390625 -1,-0.390625 h -3.15625 c 1.296875,-5.09375 1.46875,-5.8125 1.46875,-6.03125 0,-0.609375 -0.421875,-0.96875 -1.03125,-0.96875 C 8,-22.453125 7,-22.40625 6.671875,-21.15625 l -1.40625,5.703125 H 1.90625 c -0.71875,0 -1.078125,0 -1.078125,0.671875 0,0.4375 0.28125,0.4375 1,0.4375 h 3.15625 c -2.578125,10.1875 -2.71875,10.796875 -2.71875,11.4375 0,1.9375 1.359375,3.296875 3.296875,3.296875 3.65625,0 5.703125,-5.234375 5.703125,-5.515625 0,-0.359375 -0.296875,-0.359375 -0.4375,-0.359375 -0.328125,0 -0.359375,0.109375 -0.53125,0.5 C 8.75,-1.25 6.84375,-0.390625 5.625,-0.390625 c -0.75,0 -1.109375,-0.46875 -1.109375,-1.65625 0,-0.859375 0.078125,-1.109375 0.21875,-1.71875 z m 0,0"
           id="path5088" />
      </symbol>
    </g>
    <g
       id="g7048">
      <symbol
         overflow="visible"
         id="glyph0-0-09">
        <path
           style="stroke:none"
           d=""
           id="path6994" />
      </symbol>
      <symbol
         overflow="visible"
         id="glyph0-1-57">
        <path
           style="stroke:none"
           d="m 14.015625,-2.828125 v 3.21875 L 19.1875,0 v -1.109375 c -2.515625,0 -2.796875,-0.25 -2.796875,-2.015625 v -12.71875 l -5.28125,0.390625 v 1.109375 c 2.515625,0 2.796875,0.25 2.796875,2.015625 v 6.375 c 0,3.125 -1.71875,5.5625 -4.328125,5.5625 -3.015625,0 -3.15625,-1.6875 -3.15625,-3.546875 v -11.90625 l -5.28125,0.390625 v 1.109375 c 2.796875,0 2.796875,0.109375 2.796875,3.296875 v 5.375 c 0,2.796875 0,6.0625 5.453125,6.0625 2.015625,0 3.59375,-1 4.625,-3.21875 z m 0,0"
           id="path6997" />
      </symbol>
      <symbol
         overflow="visible"
         id="glyph0-2-2">
        <path
           style="stroke:none"
           d="M 6.171875,-13.484375 V -15.84375 L 1,-15.453125 v 1.109375 c 2.546875,0 2.796875,0.21875 2.796875,1.796875 V 4.234375 C 3.796875,5.84375 3.40625,5.84375 1,5.84375 V 6.953125 C 2.21875,6.921875 4.09375,6.84375 5.015625,6.84375 c 0.96875,0 2.796875,0.078125 4.0625,0.109375 V 5.84375 c -2.40625,0 -2.796875,0 -2.796875,-1.609375 v -6.34375 c 0.171875,0.5625 1.671875,2.5 4.40625,2.5 4.265625,0 8,-3.515625 8,-8.140625 0,-4.546875 -3.484375,-8.09375 -7.5,-8.09375 -2.796875,0 -4.296875,1.578125 -5.015625,2.359375 z M 6.28125,-4.09375 v -7.984375 c 1.03125,-1.828125 2.796875,-2.875 4.625,-2.875 2.609375,0 4.796875,3.15625 4.796875,7.203125 0,4.34375 -2.5,7.359375 -5.15625,7.359375 -1.4375,0 -2.796875,-0.71875 -3.765625,-2.1875 -0.5,-0.75 -0.5,-0.796875 -0.5,-1.515625 z m 0,0"
           id="path7000" />
      </symbol>
      <symbol
         overflow="visible"
         id="glyph0-3">
        <path
           style="stroke:none"
           d="M 13.625,-1.96875 V 0.390625 L 18.890625,0 v -1.109375 c -2.5,0 -2.796875,-0.25 -2.796875,-2.015625 v -21.765625 l -5.15625,0.40625 V -23.375 c 2.515625,0 2.796875,0.25 2.796875,2 v 7.75 c -1.046875,-1.296875 -2.578125,-2.21875 -4.515625,-2.21875 -4.234375,0 -8,3.515625 -8,8.140625 0,4.546875 3.515625,8.09375 7.609375,8.09375 2.28125,0 3.90625,-1.21875 4.796875,-2.359375 z m 0,-9.609375 v 7.34375 c 0,0.65625 0,0.71875 -0.390625,1.328125 C 12.15625,-1.1875 10.546875,-0.390625 9,-0.390625 c -1.609375,0 -2.90625,-0.9375 -3.765625,-2.296875 -0.9375,-1.46875 -1.03125,-3.515625 -1.03125,-4.984375 0,-1.328125 0.0625,-3.484375 1.109375,-5.09375 0.75,-1.109375 2.109375,-2.296875 4.046875,-2.296875 1.25,0 2.765625,0.546875 3.875,2.15625 0.390625,0.609375 0.390625,0.671875 0.390625,1.328125 z m 0,0"
           id="path7003" />
      </symbol>
      <symbol
         overflow="visible"
         id="glyph0-4">
        <path
           style="stroke:none"
           d="m 16.890625,-7.671875 c 0,-4.59375 -3.59375,-8.390625 -7.921875,-8.390625 C 4.484375,-16.0625 1,-12.15625 1,-7.671875 c 0,4.625 3.734375,8.0625 7.921875,8.0625 4.34375,0 7.96875,-3.515625 7.96875,-8.0625 z M 8.96875,-0.5 C 7.421875,-0.5 5.84375,-1.25 4.875,-2.90625 3.984375,-4.484375 3.984375,-6.671875 3.984375,-7.953125 c 0,-1.40625 0,-3.34375 0.859375,-4.921875 0.96875,-1.640625 2.65625,-2.40625 4.078125,-2.40625 1.578125,0 3.125,0.796875 4.0625,2.34375 0.921875,1.53125 0.921875,3.609375 0.921875,4.984375 0,1.28125 0,3.21875 -0.78125,4.796875 C 12.328125,-1.546875 10.75,-0.5 8.96875,-0.5 Z m 0,0"
           id="path7006" />
      </symbol>
      <symbol
         overflow="visible"
         id="glyph0-5">
        <path
           style="stroke:none"
           d="m 22.203125,-12.046875 c 0.640625,-1.796875 1.75,-2.265625 3,-2.296875 v -1.109375 c -0.78125,0.0625 -1.828125,0.109375 -2.609375,0.109375 -1.046875,0 -2.65625,-0.07813 -3.34375,-0.109375 v 1.109375 c 1.296875,0.03125 2.09375,0.6875 2.09375,1.71875 0,0.21875 0,0.296875 -0.1875,0.75 l -3.265625,9.1875 -3.546875,-10 c -0.140625,-0.4375 -0.171875,-0.515625 -0.171875,-0.6875 0,-0.96875 1.390625,-0.96875 2.109375,-0.96875 v -1.109375 c -1.046875,0.03125 -2.875,0.109375 -3.734375,0.109375 -1.078125,0 -2.109375,-0.04687 -3.1875,-0.109375 v 1.109375 c 1.328125,0 1.90625,0.07813 2.265625,0.53125 0.171875,0.21875 0.5625,1.296875 0.8125,1.984375 l -3.078125,8.671875 -3.40625,-9.578125 c -0.1875,-0.421875 -0.1875,-0.5 -0.1875,-0.640625 0,-0.96875 1.40625,-0.96875 2.125,-0.96875 v -1.109375 c -1.078125,0.03125 -3.078125,0.109375 -3.90625,0.109375 -0.140625,0 -2.046875,-0.04687 -3.34375,-0.109375 v 1.109375 c 1.796875,0 2.234375,0.109375 2.65625,1.25 L 7.8125,-0.390625 c 0.1875,0.5 0.296875,0.78125 0.765625,0.78125 0.453125,0 0.53125,-0.21875 0.703125,-0.71875 l 3.625,-10.140625 3.65625,10.1875 c 0.140625,0.390625 0.25,0.671875 0.71875,0.671875 0.46875,0 0.578125,-0.3125 0.71875,-0.671875 z m 0,0"
           id="path7009" />
      </symbol>
      <symbol
         overflow="visible"
         id="glyph0-6">
        <path
           style="stroke:none"
           d="m 3.9375,-12.328125 v 9.609375 c 0,1.609375 -0.390625,1.609375 -2.796875,1.609375 V 0 C 2.40625,-0.03125 4.234375,-0.109375 5.203125,-0.109375 6.125,-0.109375 8,-0.03125 9.21875,0 v -1.109375 c -2.40625,0 -2.796875,0 -2.796875,-1.609375 v -6.609375 c 0,-3.71875 2.546875,-5.734375 4.84375,-5.734375 2.25,0 2.640625,1.9375 2.640625,3.984375 v 8.359375 c 0,1.609375 -0.390625,1.609375 -2.796875,1.609375 V 0 c 1.265625,-0.03125 3.09375,-0.109375 4.0625,-0.109375 0.921875,0 2.796875,0.078125 4.015625,0.109375 v -1.109375 c -1.875,0 -2.765625,0 -2.796875,-1.078125 v -6.84375 c 0,-3.09375 0,-4.203125 -1.109375,-5.484375 -0.5,-0.609375 -1.6875,-1.328125 -3.765625,-1.328125 -2.625,0 -4.3125,1.53125 -5.3125,3.765625 v -3.765625 l -5.0625,0.390625 v 1.109375 c 2.515625,0 2.796875,0.25 2.796875,2.015625 z m 0,0"
           id="path7012" />
      </symbol>
      <symbol
         overflow="visible"
         id="glyph0-7">
        <path
           style="stroke:none"
           d="M 7.453125,-6.953125 C 8.25,-6.8125 11.1875,-6.234375 11.1875,-3.65625 c 0,1.828125 -1.25,3.265625 -4.046875,3.265625 -3.015625,0 -4.3125,-2.046875 -4.984375,-5.09375 -0.109375,-0.46875 -0.140625,-0.609375 -0.5,-0.609375 -0.46875,0 -0.46875,0.25 -0.46875,0.890625 v 4.734375 c 0,0.609375 0,0.859375 0.390625,0.859375 0.171875,0 0.21875,-0.03125 0.890625,-0.71875 0.078125,-0.0625 0.078125,-0.140625 0.71875,-0.8125 1.578125,1.5 3.203125,1.53125 3.953125,1.53125 4.125,0 5.765625,-2.40625 5.765625,-4.984375 0,-1.890625 -1.078125,-2.96875 -1.5,-3.40625 -1.1875,-1.140625 -2.578125,-1.4375 -4.09375,-1.71875 -2,-0.390625 -4.40625,-0.859375 -4.40625,-2.9375 0,-1.25 0.9375,-2.734375 4.015625,-2.734375 3.9375,0 4.125,3.234375 4.1875,4.34375 0.04687,0.328125 0.359375,0.328125 0.4375,0.328125 0.46875,0 0.46875,-0.1875 0.46875,-0.859375 v -3.625 c 0,-0.609375 0,-0.859375 -0.390625,-0.859375 -0.1875,0 -0.25,0 -0.71875,0.421875 -0.109375,0.15625 -0.46875,0.46875 -0.609375,0.578125 -1.375,-1 -2.84375,-1 -3.375,-1 -4.375,0 -5.734375,2.40625 -5.734375,4.40625 0,1.25 0.5625,2.265625 1.53125,3.046875 1.15625,0.9375 2.15625,1.15625 4.734375,1.65625 z m 0,0"
           id="path7015" />
      </symbol>
      <symbol
         overflow="visible"
         id="glyph0-8">
        <path
           style="stroke:none"
           d="m 14.875,-12.046875 c 0.9375,-2.265625 2.765625,-2.296875 3.34375,-2.296875 v -1.109375 c -0.828125,0.0625 -1.859375,0.109375 -2.6875,0.109375 -0.65625,0 -2.328125,-0.07813 -3.125,-0.109375 v 1.109375 c 1.109375,0.03125 1.6875,0.640625 1.6875,1.546875 0,0.359375 -0.03125,0.421875 -0.21875,0.859375 L 10.25,-3.125 6.28125,-12.765625 C 6.125,-13.125 6.0625,-13.265625 6.0625,-13.40625 c 0,-0.9375 1.328125,-0.9375 2,-0.9375 v -1.109375 c -0.921875,0.03125 -3.296875,0.109375 -3.90625,0.109375 -0.96875,0 -2.40625,-0.04687 -3.46875,-0.109375 v 1.109375 c 1.71875,0 2.390625,0 2.890625,1.25 L 8.96875,0 C 8.78125,0.46875 8.28125,1.65625 8.0625,2.109375 7.28125,4.09375 6.28125,6.5625 3.984375,6.5625 c -0.1875,0 -1.015625,0 -1.6875,-0.640625 C 3.40625,5.765625 3.6875,4.984375 3.6875,4.40625 c 0,-0.921875 -0.671875,-1.5 -1.5,-1.5 -0.71875,0 -1.5,0.46875 -1.5,1.546875 0,1.609375 1.5,2.890625 3.296875,2.890625 2.25,0 3.71875,-2.03125 4.59375,-4.078125 z m 0,0"
           id="path7018" />
      </symbol>
      <symbol
         overflow="visible"
         id="glyph0-9">
        <path
           style="stroke:none"
           d="m 3.9375,-12.328125 v 9.609375 c 0,1.609375 -0.390625,1.609375 -2.796875,1.609375 V 0 C 2.40625,-0.03125 4.234375,-0.109375 5.203125,-0.109375 6.125,-0.109375 8,-0.03125 9.21875,0 v -1.109375 c -2.40625,0 -2.796875,0 -2.796875,-1.609375 v -6.609375 c 0,-3.71875 2.546875,-5.734375 4.84375,-5.734375 2.25,0 2.640625,1.9375 2.640625,3.984375 v 8.359375 c 0,1.609375 -0.390625,1.609375 -2.796875,1.609375 V 0 c 1.265625,-0.03125 3.09375,-0.109375 4.0625,-0.109375 0.921875,0 2.796875,0.078125 4.015625,0.109375 v -1.109375 c -2.40625,0 -2.796875,0 -2.796875,-1.609375 v -6.609375 c 0,-3.71875 2.546875,-5.734375 4.84375,-5.734375 2.25,0 2.640625,1.9375 2.640625,3.984375 v 8.359375 c 0,1.609375 -0.390625,1.609375 -2.796875,1.609375 V 0 c 1.265625,-0.03125 3.09375,-0.109375 4.0625,-0.109375 0.921875,0 2.796875,0.078125 4.015625,0.109375 v -1.109375 c -1.875,0 -2.765625,0 -2.796875,-1.078125 v -6.84375 c 0,-3.09375 0,-4.203125 -1.109375,-5.484375 -0.5,-0.609375 -1.6875,-1.328125 -3.765625,-1.328125 -3.015625,0 -4.59375,2.140625 -5.203125,3.515625 -0.5,-3.125 -3.15625,-3.515625 -4.765625,-3.515625 -2.625,0 -4.3125,1.53125 -5.3125,3.765625 v -3.765625 l -5.0625,0.390625 v 1.109375 c 2.515625,0 2.796875,0.25 2.796875,2.015625 z m 0,0"
           id="path7021" />
      </symbol>
      <symbol
         overflow="visible"
         id="glyph0-10">
        <path
           style="stroke:none"
           d="m 4.015625,-9.03125 c 0.21875,-5.34375 3.234375,-6.25 4.453125,-6.25 3.6875,0 4.046875,4.84375 4.046875,6.25 z m -0.03125,0.75 h 10 c 0.796875,0 0.890625,0 0.890625,-0.75 0,-3.5625 -1.9375,-7.03125 -6.40625,-7.03125 C 4.296875,-16.0625 1,-12.375 1,-7.890625 c 0,4.8125 3.765625,8.28125 7.890625,8.28125 4.375,0 5.984375,-3.96875 5.984375,-4.65625 0,-0.359375 -0.28125,-0.4375 -0.453125,-0.4375 -0.328125,0 -0.40625,0.21875 -0.46875,0.5 C 12.6875,-0.5 9.46875,-0.5 9.109375,-0.5 7.3125,-0.5 5.875,-1.578125 5.0625,-2.90625 3.984375,-4.625 3.984375,-7 3.984375,-8.28125 Z m 0,0"
           id="path7024" />
      </symbol>
      <symbol
         overflow="visible"
         id="glyph0-11">
        <path
           style="stroke:none"
           d="m 6.203125,-14.34375 h 5.125 v -1.109375 h -5.125 v -6.59375 H 5.3125 c -0.046875,2.9375 -1.109375,6.765625 -4.625,6.921875 v 0.78125 h 3.046875 v 9.890625 c 0,4.421875 3.328125,4.84375 4.625,4.84375 2.546875,0 3.546875,-2.546875 3.546875,-4.84375 v -2.03125 h -0.890625 v 1.96875 c 0,2.65625 -1.078125,4.015625 -2.40625,4.015625 -2.40625,0 -2.40625,-3.265625 -2.40625,-3.875 z m 0,0"
           id="path7027" />
      </symbol>
      <symbol
         overflow="visible"
         id="glyph0-12">
        <path
           style="stroke:none"
           d="m 5.984375,-11.90625 v -3.9375 L 1,-15.453125 v 1.109375 c 2.515625,0 2.796875,0.25 2.796875,2.015625 V -2.71875 C 3.796875,-1.109375 3.40625,-1.109375 1,-1.109375 V 0 c 1.40625,-0.03125 3.09375,-0.109375 4.09375,-0.109375 1.4375,0 3.125,0 4.546875,0.109375 v -1.109375 h -0.75 c -2.65625,0 -2.71875,-0.390625 -2.71875,-1.6875 V -8.3125 c 0,-3.5625 1.5,-6.75 4.234375,-6.75 0.25,0 0.3125,0 0.390625,0.03125 -0.109375,0.04687 -0.828125,0.46875 -0.828125,1.40625 0,1 0.75,1.546875 1.546875,1.546875 0.640625,0 1.53125,-0.4375 1.53125,-1.578125 0,-1.15625 -1.109375,-2.1875 -2.640625,-2.1875 -2.625,0 -3.921875,2.390625 -4.421875,3.9375 z m 0,0"
           id="path7030" />
      </symbol>
      <symbol
         overflow="visible"
         id="glyph0-13">
        <path
           style="stroke:none"
           d="m 14.921875,-11.9375 c 0.3125,-0.828125 0.921875,-2.375 3.296875,-2.40625 v -1.109375 c -0.828125,0.0625 -1.859375,0.109375 -2.6875,0.109375 -0.859375,0 -2.515625,-0.07813 -3.125,-0.109375 v 1.109375 c 1.328125,0.03125 1.71875,0.859375 1.71875,1.546875 0,0.3125 -0.0625,0.46875 -0.21875,0.859375 l -3.65625,9.140625 -4.015625,-10 C 6.03125,-13.265625 6.03125,-13.34375 6.03125,-13.40625 c 0,-0.9375 1.390625,-0.9375 2.03125,-0.9375 v -1.109375 C 7,-15.421875 4.984375,-15.34375 4.15625,-15.34375 c -0.96875,0 -2.40625,-0.04687 -3.46875,-0.109375 v 1.109375 c 2.25,0 2.390625,0.21875 2.859375,1.328125 L 8.71875,-0.28125 c 0.203125,0.5 0.28125,0.671875 0.75,0.671875 0.46875,0 0.609375,-0.3125 0.75,-0.671875 z m 0,0"
           id="path7033" />
      </symbol>
      <symbol
         overflow="visible"
         id="glyph1-0-9">
        <path
           style="stroke:none"
           d=""
           id="path7036" />
      </symbol>
      <symbol
         overflow="visible"
         id="glyph1-1-7">
        <path
           style="stroke:none"
           d="m 15.75,-25.53125 c 0.171875,-0.46875 0.171875,-0.609375 0.171875,-0.640625 0,-0.40625 -0.328125,-0.71875 -0.71875,-0.71875 -0.25,0 -0.5,0.109375 -0.609375,0.3125 L 2.15625,7.609375 C 1.96875,8.0625 1.96875,8.21875 1.96875,8.25 c 0,0.390625 0.328125,0.71875 0.71875,0.71875 0.46875,0 0.578125,-0.25 0.796875,-0.859375 z m 0,0"
           id="path7039" />
      </symbol>
      <symbol
         overflow="visible"
         id="glyph2-0-6">
        <path
           style="stroke:none"
           d=""
           id="path7042" />
      </symbol>
      <symbol
         overflow="visible"
         id="glyph2-1-82">
        <path
           style="stroke:none"
           d="m 9.140625,-6.8125 c -3.15625,0 -3.15625,-2.40625 -3.15625,-4.015625 0,-1.609375 0,-4.015625 3.15625,-4.015625 3.15625,0 3.15625,2.40625 3.15625,4.015625 0,1.609375 0,4.015625 -3.15625,4.015625 z m -4.375,0.359375 c 1.65625,0.859375 3.484375,0.9375 4.375,0.9375 5.171875,0 7.140625,-2.796875 7.140625,-5.3125 0,-1.6875 -0.890625,-2.875 -1.4375,-3.4375 1.078125,-0.578125 1.828125,-0.65625 2.21875,-0.6875 -0.0625,0.171875 -0.140625,0.5 -0.140625,0.71875 0,0.890625 0.609375,1.546875 1.546875,1.546875 0.9375,0 1.546875,-0.6875 1.546875,-1.546875 0,-0.828125 -0.609375,-2.078125 -2.265625,-2.078125 -0.53125,0 -2.21875,0.109375 -3.796875,1.359375 -0.65625,-0.4375 -2.15625,-1.1875 -4.8125,-1.1875 -5.15625,0 -7.125,2.796875 -7.125,5.3125 0,1.46875 0.703125,2.9375 1.859375,3.765625 -1,1.25 -1.21875,2.4375 -1.21875,3.1875 0,0.546875 0.140625,2.296875 1.578125,3.4375 -0.46875,0.109375 -3.09375,0.875 -3.09375,3.125 0,1.828125 1.984375,4.515625 9.15625,4.515625 6.34375,0 9.140625,-2.109375 9.140625,-4.625 C 19.4375,1.5 19.15625,-0.75 16.75,-1.96875 c -2.015625,-1 -4.15625,-1 -7.609375,-1 -0.921875,0 -2.578125,0 -2.75,-0.046875 -1.578125,-0.25 -1.984375,-1.609375 -1.984375,-2.25 0,-0.359375 0.140625,-0.90625 0.359375,-1.1875 z M 7,0.46875 h 4.1875 c 1.109375,0 5.171875,0 5.171875,2.21875 0,1.296875 -1.40625,3.234375 -6.0625,3.234375 -4.3125,0 -6.0625,-1.65625 -6.0625,-3.296875 0,-2.15625 2.25,-2.15625 2.765625,-2.15625 z m 0,0"
           id="path7045" />
      </symbol>
    </g>
    <g
       id="g11310">
      <symbol
         overflow="visible"
         id="glyph0-0-1">
        <path
           style="stroke:none"
           d=""
           id="path11289" />
      </symbol>
      <symbol
         overflow="visible"
         id="glyph0-1-9">
        <path
           style="stroke:none"
           d="M 11.875,8.609375 C 11.875,8.5 11.875,8.421875 11.265625,7.8125 6.78125,3.296875 5.625,-3.484375 5.625,-8.96875 c 0,-6.234375 1.375,-12.46875 5.78125,-16.953125 0.46875,-0.4375 0.46875,-0.5 0.46875,-0.609375 0,-0.25 -0.15625,-0.359375 -0.359375,-0.359375 -0.359375,0 -3.59375,2.4375 -5.703125,6.984375 -1.828125,3.953125 -2.265625,7.921875 -2.265625,10.9375 0,2.796875 0.390625,7.140625 2.375,11.1875 2.140625,4.421875 5.234375,6.75 5.59375,6.75 0.203125,0 0.359375,-0.109375 0.359375,-0.359375 z m 0,0"
           id="path11292" />
      </symbol>
      <symbol
         overflow="visible"
         id="glyph0-2-0">
        <path
           style="stroke:none"
           d="m 10.359375,-8.96875 c 0,-2.796875 -0.390625,-7.125 -2.359375,-11.1875 -2.15625,-4.40625 -5.234375,-6.734375 -5.59375,-6.734375 -0.21875,0 -0.359375,0.140625 -0.359375,0.359375 0,0.109375 0,0.171875 0.671875,0.8125 3.515625,3.5625 5.5625,9.265625 5.5625,16.75 0,6.140625 -1.328125,12.453125 -5.765625,16.96875 -0.46875,0.421875 -0.46875,0.5 -0.46875,0.609375 0,0.21875 0.140625,0.359375 0.359375,0.359375 0.359375,0 3.578125,-2.4375 5.703125,-7 1.828125,-3.9375 2.25,-7.921875 2.25,-10.9375 z m 0,0"
           id="path11295" />
      </symbol>
      <symbol
         overflow="visible"
         id="glyph1-0-6">
        <path
           style="stroke:none"
           d=""
           id="path11298" />
      </symbol>
      <symbol
         overflow="visible"
         id="glyph1-1-1">
        <path
           style="stroke:none"
           d="m 13.375,-13.5625 c -0.640625,-1.3125 -1.6875,-2.28125 -3.296875,-2.28125 -4.203125,0 -8.640625,5.265625 -8.640625,10.5 0,3.375 1.96875,5.734375 4.765625,5.734375 0.71875,0 2.515625,-0.140625 4.65625,-2.6875 0.296875,1.515625 1.546875,2.6875 3.265625,2.6875 1.265625,0 2.078125,-0.828125 2.65625,-1.96875 C 17.390625,-2.875 17.859375,-5.0625 17.859375,-5.125 c 0,-0.359375 -0.328125,-0.359375 -0.4375,-0.359375 -0.359375,0 -0.390625,0.140625 -0.5,0.640625 -0.609375,2.328125 -1.25,4.453125 -2.71875,4.453125 -0.96875,0 -1.078125,-0.9375 -1.078125,-1.65625 0,-0.78125 0.07813,-1.078125 0.46875,-2.65625 0.390625,-1.5 0.46875,-1.859375 0.78125,-3.21875 l 1.296875,-5.015625 c 0.25,-1.015625 0.25,-1.078125 0.25,-1.234375 0,-0.609375 -0.4375,-0.953125 -1.046875,-0.953125 -0.859375,0 -1.390625,0.78125 -1.5,1.5625 z m -2.328125,9.296875 c -0.1875,0.640625 -0.1875,0.71875 -0.71875,1.328125 C 8.75,-0.96875 7.28125,-0.390625 6.28125,-0.390625 c -1.796875,0 -2.296875,-1.96875 -2.296875,-3.375 0,-1.796875 1.140625,-6.203125 1.96875,-7.859375 1.109375,-2.109375 2.71875,-3.4375 4.15625,-3.4375 2.328125,0 2.828125,2.9375 2.828125,3.15625 0,0.21875 -0.0625,0.4375 -0.09375,0.609375 z m 0,0"
           id="path11301" />
      </symbol>
      <symbol
         overflow="visible"
         id="glyph1-2-7">
        <path
           style="stroke:none"
           d="m 8.578125,-24.484375 c 0,-0.04687 0,-0.40625 -0.46875,-0.40625 -0.828125,0 -3.453125,0.296875 -4.375,0.359375 -0.296875,0.04687 -0.6875,0.07813 -0.6875,0.71875 0,0.4375 0.328125,0.4375 0.859375,0.4375 1.71875,0 1.796875,0.25 1.796875,0.609375 0,0.25 -0.328125,1.46875 -0.5,2.21875 l -2.9375,11.6875 c -0.4375,1.796875 -0.578125,2.375 -0.578125,3.625 0,3.40625 1.890625,5.625 4.546875,5.625 4.234375,0 8.640625,-5.34375 8.640625,-10.5 0,-3.265625 -1.890625,-5.734375 -4.765625,-5.734375 -1.640625,0 -3.109375,1.03125 -4.1875,2.140625 z m -3.375,13.546875 c 0.21875,-0.78125 0.21875,-0.859375 0.53125,-1.25 1.765625,-2.328125 3.375,-2.875 4.3125,-2.875 1.28125,0 2.25,1.078125 2.25,3.375 0,2.109375 -1.1875,6.234375 -1.828125,7.59375 -1.1875,2.40625 -2.828125,3.703125 -4.234375,3.703125 -1.21875,0 -2.390625,-0.96875 -2.390625,-3.625 0,-0.6875 0,-1.359375 0.5625,-3.625 z m 0,0"
           id="path11304" />
      </symbol>
      <symbol
         overflow="visible"
         id="glyph1-3">
        <path
           style="stroke:none"
           d="m 14.203125,-13.625 c -0.578125,0 -1.078125,0 -1.578125,0.5 -0.578125,0.53125 -0.640625,1.140625 -0.640625,1.40625 0,0.859375 0.640625,1.25 1.3125,1.25 1.046875,0 2.015625,-0.859375 2.015625,-2.296875 0,-1.75 -1.6875,-3.078125 -4.234375,-3.078125 -4.84375,0 -9.609375,5.125 -9.609375,10.171875 0,3.234375 2.078125,6.0625 5.8125,6.0625 5.125,0 8.140625,-3.796875 8.140625,-4.234375 0,-0.203125 -0.21875,-0.453125 -0.4375,-0.453125 -0.171875,0 -0.25,0.0625 -0.46875,0.359375 -2.828125,3.546875 -6.734375,3.546875 -7.171875,3.546875 -2.25,0 -3.21875,-1.765625 -3.21875,-3.90625 0,-1.46875 0.71875,-4.953125 1.9375,-7.171875 1.109375,-2.046875 3.078125,-3.59375 5.046875,-3.59375 1.21875,0 2.59375,0.46875 3.09375,1.4375 z m 0,0"
           id="path11307" />
      </symbol>
    </g>
  </defs>
  <sodipodi:namedview
     inkscape:window-maximized="1"
     inkscape:window-y="27"
     inkscape:window-x="0"
     inkscape:window-height="1016"
     inkscape:window-width="1920"
     showgrid="false"
     inkscape:document-rotation="0"
     inkscape:current-layer="layer1"
     inkscape:document-units="mm"
     inkscape:cy="115.26122"
     inkscape:cx="355.17145"
     inkscape:zoom="0.95869192"
     inkscape:pageshadow="2"
     inkscape:pageopacity="0.0"
     borderopacity="1.0"
     bordercolor="#666666"
     pagecolor="#ffffff"
     id="base"
     inkscape:pagecheckerboard="0"
     inkscape:lockguides="true" />
  <metadata
     id="metadata5">
    <rdf:RDF>
      <cc:Work
         rdf:about="">
        <dc:format>image/svg+xml</dc:format>
        <dc:type
           rdf:resource="http://purl.org/dc/dcmitype/StillImage" />
      </cc:Work>
    </rdf:RDF>
  </metadata>
  <g
     id="layer1"
     inkscape:groupmode="layer"
     inkscape:label="Layer 1">
    <g
       id="g419"
       transform="translate(-11.730707,-10.603074)">
      <text
         y="63.284725"
         x="89.260651"
         id="text943"
         style="font-variant:normal;font-weight:normal;font-size:3.84849px;font-family:CMSY10;-inkscape-font-specification:CMSY10;writing-mode:lr-tb;fill:#000000;fill-opacity:1;fill-rule:nonzero;stroke:none;stroke-width:0.352778"><tspan
           style="stroke-width:0.352778"
           id="tspan941"
           y="63.284725"
           x="89.260651" /></text>
      <path
         style="fill:none;stroke:#000000;stroke-width:0.264583px;stroke-linecap:butt;stroke-linejoin:miter;stroke-opacity:1;marker-end:url(#Arrow1Lend)"
         d="m 56.238155,14.858994 v 16.39354"
         id="path1532" />
      <text
         xml:space="preserve"
         transform="scale(0.26458333)"
         id="text4181"
         style="font-size:14.6667px;line-height:1.25;font-family:sans-serif;word-spacing:0px;white-space:pre;shape-inside:url(#rect4183)" />
      <ellipse
         style="opacity:0.95;fill:#ffffff;fill-opacity:0;stroke:#000000;stroke-width:0.265;stroke-miterlimit:4;stroke-dasharray:none"
         id="path88"
         cx="37.630516"
         cy="40.937778"
         rx="11.922029"
         ry="11.922269" />
      <path
         style="fill:none;stroke:#000000;stroke-width:0.264583px;stroke-linecap:butt;stroke-linejoin:miter;stroke-opacity:1"
         d="M 18.123742,25.652316 V 57.738735"
         id="path1255" />
      <path
         style="fill:none;stroke:#000000;stroke-width:0.264583px;stroke-linecap:butt;stroke-linejoin:miter;stroke-opacity:1"
         d="m 18.123742,25.652316 -3.160613,2.96502"
         id="path1370" />
      <path
         style="fill:none;stroke:#000000;stroke-width:0.264583px;stroke-linecap:butt;stroke-linejoin:miter;stroke-opacity:1"
         d="m 18.096579,28.934312 -3.160613,2.96502"
         id="path1370-7" />
      <path
         style="fill:none;stroke:#000000;stroke-width:0.264583px;stroke-linecap:butt;stroke-linejoin:miter;stroke-opacity:1"
         d="m 18.096579,32.109314 -3.160613,2.96502"
         id="path1474" />
      <path
         style="fill:none;stroke:#000000;stroke-width:0.264583px;stroke-linecap:butt;stroke-linejoin:miter;stroke-opacity:1"
         d="m 18.096579,35.284316 -3.160613,2.96502"
         id="path1476" />
      <path
         style="fill:none;stroke:#000000;stroke-width:0.264583px;stroke-linecap:butt;stroke-linejoin:miter;stroke-opacity:1"
         d="m 18.096579,38.459318 -3.160613,2.96502"
         id="path1478" />
      <path
         style="fill:none;stroke:#000000;stroke-width:0.264583px;stroke-linecap:butt;stroke-linejoin:miter;stroke-opacity:1"
         d="m 18.096579,41.63432 -3.160613,2.96502"
         id="path1480" />
      <path
         style="fill:none;stroke:#000000;stroke-width:0.264583px;stroke-linecap:butt;stroke-linejoin:miter;stroke-opacity:1"
         d="m 18.096579,44.809322 -3.160613,2.96502"
         id="path1482" />
      <path
         style="fill:none;stroke:#000000;stroke-width:0.264583px;stroke-linecap:butt;stroke-linejoin:miter;stroke-opacity:1"
         d="m 18.096579,47.984324 -3.160613,2.96502"
         id="path1484" />
      <path
         style="fill:none;stroke:#000000;stroke-width:0.264583px;stroke-linecap:butt;stroke-linejoin:miter;stroke-opacity:1"
         d="m 18.096579,51.159326 -3.160613,2.96502"
         id="path1486" />
      <path
         style="fill:none;stroke:#000000;stroke-width:0.264583px;stroke-linecap:butt;stroke-linejoin:miter;stroke-opacity:1"
         d="m 18.096579,54.334328 -3.160613,2.96502"
         id="path1488" />
      <ellipse
         style="opacity:0.95;fill:#ffffff;fill-opacity:0;stroke:#000000;stroke-width:0.265;stroke-miterlimit:4;stroke-dasharray:none"
         id="ellipse1490"
         cx="99.013908"
         cy="40.937778"
         rx="11.922029"
         ry="11.922269" />
      <path
         style="fill:none;stroke:#000000;stroke-width:0.264583px;stroke-linecap:butt;stroke-linejoin:miter;stroke-opacity:1"
         d="M 79.507114,25.652316 V 57.738735"
         id="path1492" />
      <path
         style="fill:none;stroke:#000000;stroke-width:0.264583px;stroke-linecap:butt;stroke-linejoin:miter;stroke-opacity:1"
         d="m 79.507114,25.652316 -3.160613,2.96502"
         id="path1494" />
      <path
         style="fill:none;stroke:#000000;stroke-width:0.264583px;stroke-linecap:butt;stroke-linejoin:miter;stroke-opacity:1"
         d="m 79.479951,28.934312 -3.160613,2.96502"
         id="path1496" />
      <path
         style="fill:none;stroke:#000000;stroke-width:0.264583px;stroke-linecap:butt;stroke-linejoin:miter;stroke-opacity:1"
         d="m 79.479951,32.109314 -3.160613,2.96502"
         id="path1498" />
      <path
         style="fill:none;stroke:#000000;stroke-width:0.264583px;stroke-linecap:butt;stroke-linejoin:miter;stroke-opacity:1"
         d="m 79.479951,35.284316 -3.160613,2.96502"
         id="path1500" />
      <path
         style="fill:none;stroke:#000000;stroke-width:0.264583px;stroke-linecap:butt;stroke-linejoin:miter;stroke-opacity:1"
         d="m 79.479951,38.459318 -3.160613,2.96502"
         id="path1502" />
      <path
         style="fill:none;stroke:#000000;stroke-width:0.264583px;stroke-linecap:butt;stroke-linejoin:miter;stroke-opacity:1"
         d="m 79.479951,41.63432 -3.160613,2.96502"
         id="path1504" />
      <path
         style="fill:none;stroke:#000000;stroke-width:0.264583px;stroke-linecap:butt;stroke-linejoin:miter;stroke-opacity:1"
         d="m 79.479951,44.809322 -3.160613,2.96502"
         id="path1506" />
      <path
         style="fill:none;stroke:#000000;stroke-width:0.264583px;stroke-linecap:butt;stroke-linejoin:miter;stroke-opacity:1"
         d="m 79.479951,47.984324 -3.160613,2.96502"
         id="path1508" />
      <path
         style="fill:none;stroke:#000000;stroke-width:0.264583px;stroke-linecap:butt;stroke-linejoin:miter;stroke-opacity:1"
         d="m 79.479951,51.159326 -3.160613,2.96502"
         id="path1510" />
      <path
         style="fill:none;stroke:#000000;stroke-width:0.264583px;stroke-linecap:butt;stroke-linejoin:miter;stroke-opacity:1"
         d="m 79.479951,54.334328 -3.160613,2.96502"
         id="path1512" />
      <ellipse
         style="opacity:0.95;fill:#ffffff;fill-opacity:0;stroke:#000000;stroke-width:0.265;stroke-miterlimit:4;stroke-dasharray:none"
         id="ellipse1534"
         cx="160.92596"
         cy="40.937778"
         rx="11.922029"
         ry="11.922269" />
      <path
         style="fill:none;stroke:#000000;stroke-width:0.264583px;stroke-linecap:butt;stroke-linejoin:miter;stroke-opacity:1"
         d="M 141.41989,25.652316 V 57.738735"
         id="path1536" />
      <path
         style="fill:none;stroke:#000000;stroke-width:0.264583px;stroke-linecap:butt;stroke-linejoin:miter;stroke-opacity:1"
         d="m 141.41989,25.652316 -3.16063,2.96502"
         id="path1538" />
      <path
         style="fill:none;stroke:#000000;stroke-width:0.264583px;stroke-linecap:butt;stroke-linejoin:miter;stroke-opacity:1"
         d="m 141.39272,28.934312 -3.16063,2.96502"
         id="path1540" />
      <path
         style="fill:none;stroke:#000000;stroke-width:0.264583px;stroke-linecap:butt;stroke-linejoin:miter;stroke-opacity:1"
         d="m 141.39272,32.109314 -3.16063,2.96502"
         id="path1542" />
      <path
         style="fill:none;stroke:#000000;stroke-width:0.264583px;stroke-linecap:butt;stroke-linejoin:miter;stroke-opacity:1"
         d="m 141.39272,35.284316 -3.16063,2.96502"
         id="path1544" />
      <path
         style="fill:none;stroke:#000000;stroke-width:0.264583px;stroke-linecap:butt;stroke-linejoin:miter;stroke-opacity:1"
         d="m 141.39272,38.459318 -3.16063,2.96502"
         id="path1546" />
      <path
         style="fill:none;stroke:#000000;stroke-width:0.264583px;stroke-linecap:butt;stroke-linejoin:miter;stroke-opacity:1"
         d="m 141.39272,41.63432 -3.16063,2.96502"
         id="path1548" />
      <path
         style="fill:none;stroke:#000000;stroke-width:0.264583px;stroke-linecap:butt;stroke-linejoin:miter;stroke-opacity:1"
         d="m 141.39272,44.809322 -3.16063,2.96502"
         id="path1550" />
      <path
         style="fill:none;stroke:#000000;stroke-width:0.264583px;stroke-linecap:butt;stroke-linejoin:miter;stroke-opacity:1"
         d="m 141.39272,47.984324 -3.16063,2.96502"
         id="path1552" />
      <path
         style="fill:none;stroke:#000000;stroke-width:0.264583px;stroke-linecap:butt;stroke-linejoin:miter;stroke-opacity:1"
         d="m 141.39272,51.159326 -3.16063,2.96502"
         id="path1554" />
      <path
         style="fill:none;stroke:#000000;stroke-width:0.264583px;stroke-linecap:butt;stroke-linejoin:miter;stroke-opacity:1"
         d="m 141.39272,54.334328 -3.16063,2.96502"
         id="path1556" />
      <path
         style="fill:#ff0000;stroke:#ff0000;stroke-width:0.264583px;stroke-linecap:butt;stroke-linejoin:miter;stroke-opacity:1;marker-end:url(#Arrow1Lend)"
         d="M 37.449718,41.24 26.073167,57.735998"
         id="path1983" />
      <path
         style="fill:none;stroke:#000000;stroke-width:0.265;stroke-linecap:butt;stroke-linejoin:miter;stroke-miterlimit:4;stroke-dasharray:none;stroke-opacity:1;marker-start:url(#Arrow1Lstart)"
         d="m 117.62163,14.858994 v 16.39354"
         id="path2878" />
      <path
         style="fill:#ff0000;stroke:#ff0000;stroke-width:0.264583px;stroke-linecap:butt;stroke-linejoin:miter;stroke-opacity:1;marker-end:url(#Arrow1Lend)"
         d="M 99.339584,41.019566 110.71613,24.523568"
         id="path2884" />
      <path
         style="fill:none;stroke:#000000;stroke-width:0.264583px;stroke-linecap:butt;stroke-linejoin:miter;stroke-opacity:1;marker-end:url(#Arrow1Lend)"
         d="m 179.53452,14.858994 v 16.39354"
         id="path2886" />
      <circle
         style="opacity:0.95;fill:#000000;fill-opacity:0;stroke:none;stroke-width:0.264999;stroke-miterlimit:4;stroke-dasharray:none;stroke-opacity:1"
         id="path2916"
         cx="43.799725"
         cy="12.79862"
         r="0.85324132" />
      <path
         style="opacity:0.95;fill:#000000;fill-opacity:1;stroke:#000000;stroke-width:0.0284668;stroke-miterlimit:4;stroke-dasharray:none;stroke-opacity:1"
         d="m 43.932362,34.811354 c -0.444418,-0.206946 -0.551373,-0.782099 -0.209085,-1.124386 0.441286,-0.441288 1.191226,-0.134197 1.191226,0.487794 0,0.196829 -0.04419,0.314234 -0.173874,0.461935 -0.203784,0.232095 -0.532413,0.303108 -0.808267,0.174657 z"
         id="path3746" />
      <path
         style="opacity:0.95;fill:#000000;fill-opacity:1;stroke:#000000;stroke-width:0.0284668;stroke-miterlimit:4;stroke-dasharray:none;stroke-opacity:1"
         d="m 105.31576,34.811354 c -0.44442,-0.206946 -0.55137,-0.782099 -0.20908,-1.124386 0.44128,-0.441288 1.19123,-0.134197 1.19123,0.487794 0,0.196829 -0.0442,0.314234 -0.17388,0.461935 -0.20378,0.232095 -0.53241,0.303108 -0.80827,0.174657 z"
         id="path4153" />
      <path
         style="opacity:0.95;fill:#000000;fill-opacity:1;stroke:#000000;stroke-width:0.0284668;stroke-miterlimit:4;stroke-dasharray:none;stroke-opacity:1"
         d="m 105.31576,34.811354 c -0.44442,-0.206946 -0.55137,-0.782099 -0.20908,-1.124386 0.44128,-0.441288 1.19123,-0.134197 1.19123,0.487794 0,0.196829 -0.0442,0.314234 -0.17388,0.461935 -0.20378,0.232095 -0.53241,0.303108 -0.80827,0.174657 z"
         id="path4157" />
      <path
         style="fill:#ff0000;stroke:#ff0000;stroke-width:0.264583px;stroke-linecap:butt;stroke-linejoin:miter;stroke-opacity:1;marker-end:url(#Arrow1Lend)"
         d="M 99.339584,41.019566 110.71613,24.523568"
         id="path4159" />
      <path
         style="opacity:0.95;fill:#000000;fill-opacity:1;stroke:#000000;stroke-width:0.0284668;stroke-miterlimit:4;stroke-dasharray:none;stroke-opacity:1"
         d="m 105.31576,34.811354 c -0.44442,-0.206946 -0.55137,-0.782099 -0.20908,-1.124386 0.44128,-0.441288 1.19123,-0.134197 1.19123,0.487794 0,0.196829 -0.0442,0.314234 -0.17388,0.461935 -0.20378,0.232095 -0.53241,0.303108 -0.80827,0.174657 z"
         id="path4163" />
      <path
         style="fill:#ff0000;stroke:#ff0000;stroke-width:0.264583px;stroke-linecap:butt;stroke-linejoin:miter;stroke-opacity:1;marker-end:url(#Arrow1Lend)"
         d="m 161.25247,41.239999 11.37655,16.495998"
         id="path4165" />
      <path
         style="opacity:0.95;fill:#000000;fill-opacity:1;stroke:#000000;stroke-width:0.0284668;stroke-miterlimit:4;stroke-dasharray:none;stroke-opacity:1"
         d="m 167.22865,47.448211 c -0.44442,0.206946 -0.55137,0.782099 -0.20908,1.124386 0.44128,0.441288 1.19123,0.134197 1.19123,-0.487794 0,-0.196829 -0.0442,-0.314234 -0.17388,-0.461935 -0.20378,-0.232095 -0.53241,-0.303108 -0.80827,-0.174657 z"
         id="path4169" />
      <g
         style="fill:#000000;fill-opacity:1"
         id="g5097"
         transform="matrix(0.18415451,0,0,0.18415451,57.434427,18.090239)">
        <use
           xlink:href="#glyph0-1-5"
           x="-1.0736001"
           y="27.648199"
           id="use5095"
           width="100%"
           height="100%" />
      </g>
      <g
         style="fill:#fa0005;fill-opacity:1"
         id="g5101"
         transform="matrix(0.18415451,0,0,0.18415451,17.250633,57.517592)">
        <use
           xlink:href="#glyph0-2"
           x="26.11252"
           y="27.648199"
           id="use5099"
           width="100%"
           height="100%" />
      </g>
      <g
         style="fill:#fa0005;fill-opacity:1"
         id="g5105"
         transform="matrix(0.18415451,0,0,0.18415451,17.250633,57.517592)">
        <use
           xlink:href="#glyph1-1-3"
           x="49.013199"
           y="27.648199"
           id="use5103"
           width="100%"
           height="100%" />
      </g>
      <g
         style="fill:#fa0005;fill-opacity:1"
         id="g5109"
         transform="matrix(0.18415451,0,0,0.18415451,17.250633,57.517592)">
        <use
           xlink:href="#glyph2-1-8"
           x="62.9632"
           y="27.648199"
           id="use5107"
           width="100%"
           height="100%" />
      </g>
      <g
         style="fill:#fa0005;fill-opacity:1"
         id="g5113"
         transform="matrix(0.18415451,0,0,0.18415451,17.250633,57.517592)">
        <use
           xlink:href="#glyph1-2-8"
           x="75.912399"
           y="27.648199"
           id="use5111"
           width="100%"
           height="100%" />
      </g>
      <g
         style="fill:#000000;fill-opacity:1"
         id="g5160"
         transform="matrix(0.18415451,0,0,0.18415451,118.8179,18.090239)">
        <use
           xlink:href="#glyph0-1-5"
           x="-1.0736001"
           y="27.648199"
           id="use5158"
           width="100%"
           height="100%" />
      </g>
      <g
         style="fill:#000000;fill-opacity:1"
         id="g5164"
         transform="matrix(0.18415451,0,0,0.18415451,180.73079,18.090239)">
        <use
           xlink:href="#glyph0-1-5"
           x="-1.0736001"
           y="27.648199"
           id="use5162"
           width="100%"
           height="100%" />
      </g>
      <g
         style="fill:#fa0005;fill-opacity:1"
         id="g5168"
         transform="matrix(0.18415451,0,0,0.18415451,17.250633,57.517592)">
        <use
           xlink:href="#glyph0-2"
           x="26.11252"
           y="27.648199"
           id="use5166"
           width="100%"
           height="100%" />
      </g>
      <g
         style="fill:#fa0005;fill-opacity:1"
         id="g5172"
         transform="matrix(0.18415451,0,0,0.18415451,17.250633,57.517592)">
        <use
           xlink:href="#glyph1-1-3"
           x="49.013199"
           y="27.648199"
           id="use5170"
           width="100%"
           height="100%" />
      </g>
      <g
         style="fill:#fa0005;fill-opacity:1"
         id="g5176"
         transform="matrix(0.18415451,0,0,0.18415451,17.250633,57.517592)">
        <use
           xlink:href="#glyph2-1-8"
           x="62.9632"
           y="27.648199"
           id="use5174"
           width="100%"
           height="100%" />
      </g>
      <g
         style="fill:#fa0005;fill-opacity:1"
         id="g5180"
         transform="matrix(0.18415451,0,0,0.18415451,17.250633,57.517592)">
        <use
           xlink:href="#glyph1-2-8"
           x="75.912399"
           y="27.648199"
           id="use5178"
           width="100%"
           height="100%" />
      </g>
      <g
         style="fill:#fa0005;fill-opacity:1"
         id="g5184"
         transform="matrix(0.18415451,0,0,0.18415451,93.450681,17.830067)">
        <use
           xlink:href="#glyph0-2"
           x="26.11252"
           y="27.648199"
           id="use5182"
           width="100%"
           height="100%" />
      </g>
      <g
         style="fill:#fa0005;fill-opacity:1"
         id="g5188"
         transform="matrix(0.18415451,0,0,0.18415451,93.450681,17.830067)">
        <use
           xlink:href="#glyph1-1-3"
           x="49.013199"
           y="27.648199"
           id="use5186"
           width="100%"
           height="100%" />
      </g>
      <g
         style="fill:#fa0005;fill-opacity:1"
         id="g5192"
         transform="matrix(0.18415451,0,0,0.18415451,93.450681,17.830067)">
        <use
           xlink:href="#glyph2-1-8"
           x="62.9632"
           y="27.648199"
           id="use5190"
           width="100%"
           height="100%" />
      </g>
      <g
         style="fill:#fa0005;fill-opacity:1"
         id="g5196"
         transform="matrix(0.18415451,0,0,0.18415451,93.450681,17.830067)">
        <use
           xlink:href="#glyph1-2-8"
           x="75.912399"
           y="27.648199"
           id="use5194"
           width="100%"
           height="100%" />
      </g>
      <g
         style="fill:#fa0005;fill-opacity:1"
         id="g5200"
         transform="matrix(0.18415451,0,0,0.18415451,93.450681,17.830067)">
        <use
           xlink:href="#glyph0-2"
           x="26.11252"
           y="27.648199"
           id="use5198"
           width="100%"
           height="100%" />
      </g>
      <g
         style="fill:#fa0005;fill-opacity:1"
         id="g5204"
         transform="matrix(0.18415451,0,0,0.18415451,93.450681,17.830067)">
        <use
           xlink:href="#glyph1-1-3"
           x="49.013199"
           y="27.648199"
           id="use5202"
           width="100%"
           height="100%" />
      </g>
      <g
         style="fill:#fa0005;fill-opacity:1"
         id="g5208"
         transform="matrix(0.18415451,0,0,0.18415451,93.450681,17.830067)">
        <use
           xlink:href="#glyph2-1-8"
           x="62.9632"
           y="27.648199"
           id="use5206"
           width="100%"
           height="100%" />
      </g>
      <g
         style="fill:#fa0005;fill-opacity:1"
         id="g5212"
         transform="matrix(0.18415451,0,0,0.18415451,93.450681,17.830067)">
        <use
           xlink:href="#glyph1-2-8"
           x="75.912399"
           y="27.648199"
           id="use5210"
           width="100%"
           height="100%" />
      </g>
      <g
         style="fill:#fa0005;fill-opacity:1"
         id="g5328"
         transform="matrix(0.18415451,0,0,0.18415451,164.88859,57.517592)">
        <use
           xlink:href="#glyph0-2"
           x="26.11252"
           y="27.648199"
           id="use5326"
           width="100%"
           height="100%" />
      </g>
      <g
         style="fill:#fa0005;fill-opacity:1"
         id="g5332"
         transform="matrix(0.18415451,0,0,0.18415451,164.88859,57.517592)">
        <use
           xlink:href="#glyph1-1-3"
           x="49.013199"
           y="27.648199"
           id="use5330"
           width="100%"
           height="100%" />
      </g>
      <g
         style="fill:#fa0005;fill-opacity:1"
         id="g5336"
         transform="matrix(0.18415451,0,0,0.18415451,164.88859,57.517592)">
        <use
           xlink:href="#glyph2-1-8"
           x="62.9632"
           y="27.648199"
           id="use5334"
           width="100%"
           height="100%" />
      </g>
      <g
         style="fill:#fa0005;fill-opacity:1"
         id="g5340"
         transform="matrix(0.18415451,0,0,0.18415451,164.88859,57.517592)">
        <use
           xlink:href="#glyph1-2-8"
           x="75.912399"
           y="27.648199"
           id="use5338"
           width="100%"
           height="100%" />
      </g>
      <g
         style="fill:#fa0005;fill-opacity:1"
         id="g5344"
         transform="matrix(0.18415451,0,0,0.18415451,164.88859,57.517592)">
        <use
           xlink:href="#glyph0-2"
           x="26.11252"
           y="27.648199"
           id="use5342"
           width="100%"
           height="100%" />
      </g>
      <g
         style="fill:#fa0005;fill-opacity:1"
         id="g5348"
         transform="matrix(0.18415451,0,0,0.18415451,164.88859,57.517592)">
        <use
           xlink:href="#glyph1-1-3"
           x="49.013199"
           y="27.648199"
           id="use5346"
           width="100%"
           height="100%" />
      </g>
      <g
         style="fill:#fa0005;fill-opacity:1"
         id="g5352"
         transform="matrix(0.18415451,0,0,0.18415451,164.88859,57.517592)">
        <use
           xlink:href="#glyph2-1-8"
           x="62.9632"
           y="27.648199"
           id="use5350"
           width="100%"
           height="100%" />
      </g>
      <g
         style="fill:#fa0005;fill-opacity:1"
         id="g5356"
         transform="matrix(0.18415451,0,0,0.18415451,164.88859,57.517592)">
        <use
           xlink:href="#glyph1-2-8"
           x="75.912399"
           y="27.648199"
           id="use5354"
           width="100%"
           height="100%" />
      </g>
      <path
         style="fill:#0000ff;stroke:#0000fd;stroke-width:0.265;stroke-linecap:butt;stroke-linejoin:miter;stroke-miterlimit:4;stroke-dasharray:0.265, 0.265;stroke-dashoffset:0;stroke-opacity:1;marker-end:url(#Arrow1Lend)"
         d="M 55.681141,41.263847 H 68.25866"
         id="path5940" />
      <path
         style="fill:none;stroke:#0000ff;stroke-width:0.265;stroke-linecap:butt;stroke-linejoin:miter;stroke-miterlimit:4;stroke-dasharray:0.265, 0.265;stroke-dashoffset:0;stroke-opacity:1;marker-end:url(#Arrow1Lend)"
         d="m 117.59378,41.263847 h 12.57759"
         id="path5942" />
      <g
         style="fill:#0000fd;fill-opacity:1"
         id="g7056"
         transform="matrix(0.12600856,0,0,0.12600856,115.16609,43.692313)">
        <use
           xlink:href="#glyph0-1-57"
           x="-0.27759999"
           y="27.648199"
           id="use7052"
           width="100%"
           height="100%" />
        <use
           xlink:href="#glyph0-2-2"
           x="19.649195"
           y="27.648199"
           id="use7054"
           width="100%"
           height="100%" />
      </g>
      <g
         style="fill:#0000fd;fill-opacity:1"
         id="g7060"
         transform="matrix(0.12600856,0,0,0.12600856,115.16609,43.692313)">
        <use
           xlink:href="#glyph1-1-7"
           x="39.574402"
           y="27.648199"
           id="use7058"
           width="100%"
           height="100%" />
      </g>
      <g
         style="fill:#0000fd;fill-opacity:1"
         id="g7066"
         transform="matrix(0.12600856,0,0,0.12600856,115.16609,43.692313)">
        <use
           xlink:href="#glyph0-3"
           x="57.506001"
           y="27.648199"
           id="use7062"
           width="100%"
           height="100%" />
        <use
           xlink:href="#glyph0-4"
           x="77.432793"
           y="27.648199"
           id="use7064"
           width="100%"
           height="100%" />
      </g>
      <g
         style="fill:#0000fd;fill-opacity:1"
         id="g7072"
         transform="matrix(0.12600856,0,0,0.12600856,115.16609,43.692313)">
        <use
           xlink:href="#glyph0-5"
           x="94.346901"
           y="27.648199"
           id="use7068"
           width="100%"
           height="100%" />
        <use
           xlink:href="#glyph0-6"
           x="120.26321"
           y="27.648199"
           id="use7070"
           width="100%"
           height="100%" />
      </g>
      <g
         style="fill:#0000fd;fill-opacity:1"
         id="g7076"
         transform="matrix(0.12600856,0,0,0.12600856,93.999327,48.454816)">
        <use
           xlink:href="#glyph0-7"
           x="152.13316"
           y="27.648199"
           id="use7074"
           width="100%"
           height="100%" />
      </g>
      <g
         style="fill:#0000fd;fill-opacity:1"
         id="g7092"
         transform="matrix(0.12600856,0,0,0.12600856,93.999327,48.454816)">
        <use
           xlink:href="#glyph0-8"
           x="166.3215"
           y="27.648199"
           id="use7078"
           width="100%"
           height="100%" />
        <use
           xlink:href="#glyph0-9"
           x="185.24406"
           y="27.648199"
           id="use7080"
           width="100%"
           height="100%" />
        <use
           xlink:href="#glyph0-9"
           x="215.14143"
           y="27.648199"
           id="use7082"
           width="100%"
           height="100%" />
        <use
           xlink:href="#glyph0-10"
           x="245.03879"
           y="27.648199"
           id="use7084"
           width="100%"
           height="100%" />
        <use
           xlink:href="#glyph0-11"
           x="260.98453"
           y="27.648199"
           id="use7086"
           width="100%"
           height="100%" />
        <use
           xlink:href="#glyph0-12"
           x="274.92181"
           y="27.648199"
           id="use7088"
           width="100%"
           height="100%" />
        <use
           xlink:href="#glyph0-8"
           x="288.96667"
           y="27.648199"
           id="use7090"
           width="100%"
           height="100%" />
      </g>
      <g
         style="fill:#0000fd;fill-opacity:1"
         id="g7100"
         transform="matrix(0.12600856,0,0,0.12600856,11.978442,44.750647)">
        <use
           xlink:href="#glyph0-12"
           x="320.33453"
           y="27.648199"
           id="use7094"
           width="100%"
           height="100%" />
        <use
           xlink:href="#glyph0-10"
           x="334.37939"
           y="27.648199"
           id="use7096"
           width="100%"
           height="100%" />
        <use
           xlink:href="#glyph0-13"
           x="350.32513"
           y="27.648199"
           id="use7098"
           width="100%"
           height="100%" />
      </g>
      <g
         style="fill:#0000fd;fill-opacity:1"
         id="g7110"
         transform="matrix(0.12600856,0,0,0.12600856,11.978442,44.750647)">
        <use
           xlink:href="#glyph0-10"
           x="368.24347"
           y="27.648199"
           id="use7102"
           width="100%"
           height="100%" />
        <use
           xlink:href="#glyph0-12"
           x="384.18921"
           y="27.648199"
           id="use7104"
           width="100%"
           height="100%" />
        <use
           xlink:href="#glyph0-7"
           x="398.2341"
           y="27.648199"
           id="use7106"
           width="100%"
           height="100%" />
        <use
           xlink:href="#glyph0-10"
           x="412.38657"
           y="27.648199"
           id="use7108"
           width="100%"
           height="100%" />
      </g>
      <g
         style="fill:#0000fd;fill-opacity:1"
         id="g7114"
         transform="matrix(0.12600856,0,0,0.12600856,11.978442,44.750647)">
        <use
           xlink:href="#glyph2-1-82"
           x="440.2688"
           y="27.648199"
           id="use7112"
           width="100%"
           height="100%" />
      </g>
      <g
         style="fill:#000000;fill-opacity:1"
         id="g11316"
         transform="matrix(0.19303932,0,0,0.19303932,14.095408,17.69942)">
        <use
           xlink:href="#glyph0-1-9"
           x="-2.7855999"
           y="27.648199"
           id="use11314"
           width="100%"
           height="100%" />
      </g>
      <g
         style="fill:#000000;fill-opacity:1"
         id="g11320"
         transform="matrix(0.19303932,0,0,0.19303932,14.095408,17.69942)">
        <use
           xlink:href="#glyph1-1-1"
           x="11.1644"
           y="27.648199"
           id="use11318"
           width="100%"
           height="100%" />
      </g>
      <use
         xlink:href="#glyph0-2-0"
         x="30.122"
         y="27.648199"
         id="use11322"
         width="100%"
         height="100%"
         transform="matrix(0.19303932,0,0,0.19303932,14.095408,17.69942)"
         style="fill:#000000;fill-opacity:1" />
      <use
         xlink:href="#glyph0-1-9"
         x="44.070038"
         y="27.648199"
         id="use11324"
         width="100%"
         height="100%"
         transform="matrix(0.19303932,0,0,0.19303932,66.841747,17.452629)"
         style="fill:#000000;fill-opacity:1" />
      <g
         style="fill:#000000;fill-opacity:1"
         id="g11330"
         transform="matrix(0.19303932,0,0,0.19303932,66.841747,17.452629)">
        <use
           xlink:href="#glyph1-2-7"
           x="58.014801"
           y="27.648199"
           id="use11328"
           width="100%"
           height="100%" />
      </g>
      <use
         xlink:href="#glyph0-2-0"
         x="73.408401"
         y="27.648199"
         id="use11332"
         width="100%"
         height="100%"
         transform="matrix(0.19303932,0,0,0.19303932,66.841747,17.452629)"
         style="fill:#000000;fill-opacity:1" />
      <use
         xlink:href="#glyph0-1-9"
         x="87.356438"
         y="27.648199"
         id="use11334"
         width="100%"
         height="100%"
         transform="matrix(0.19303932,0,0,0.19303932,120.17157,17.489155)"
         style="fill:#000000;fill-opacity:1" />
      <g
         style="fill:#000000;fill-opacity:1"
         id="g11340"
         transform="matrix(0.19303932,0,0,0.19303932,120.17157,17.489155)">
        <use
           xlink:href="#glyph1-3"
           x="101.3048"
           y="27.648199"
           id="use11338"
           width="100%"
           height="100%" />
      </g>
      <g
         style="fill:#000000;fill-opacity:1"
         id="g11344"
         transform="matrix(0.19303932,0,0,0.19303932,120.17157,17.489155)">
        <use
           xlink:href="#glyph0-2-0"
           x="116.8244"
           y="27.648199"
           id="use11342"
           width="100%"
           height="100%" />
      </g>
    </g>
  </g>
</svg>
