<?xml version="1.0" encoding="UTF-8" standalone="no"?>
<!-- Created with Inkscape (http://www.inkscape.org/) -->

<svg
   xmlns:ns0="http://www.iki.fi/pav/software/textext/"
   xmlns:dc="http://purl.org/dc/elements/1.1/"
   xmlns:cc="http://creativecommons.org/ns#"
   xmlns:rdf="http://www.w3.org/1999/02/22-rdf-syntax-ns#"
   xmlns:svg="http://www.w3.org/2000/svg"
   xmlns="http://www.w3.org/2000/svg"
   xmlns:xlink="http://www.w3.org/1999/xlink"
   xmlns:sodipodi="http://sodipodi.sourceforge.net/DTD/sodipodi-0.dtd"
   xmlns:inkscape="http://www.inkscape.org/namespaces/inkscape"
   viewBox="0 0 74.506673 230.29336"
   width="50mm"
   height="50mm"
   id="svg2"
   version="1.1"
   inkscape:version="0.92.4 (5da689c313, 2019-01-14)"
   sodipodi:docname="tetrahedron.svg">
  <sodipodi:namedview
     id="base"
     pagecolor="#ffffff"
     bordercolor="#666666"
     borderopacity="1.0"
     inkscape:pageopacity="0.0"
     inkscape:pageshadow="2"
     inkscape:zoom="4.460875"
     inkscape:cx="94.488189"
     inkscape:cy="94.488189"
     inkscape:document-units="mm"
     inkscape:current-layer="layer1"
     showgrid="true"
     units="mm"
     inkscape:window-width="1920"
     inkscape:window-height="1016"
     inkscape:window-x="1920"
     inkscape:window-y="27"
     inkscape:window-maximized="1">
    <inkscape:grid
       type="axonomgrid"
       id="grid7699"
       units="mm"
       empspacing="5" />
  </sodipodi:namedview>
  <defs
     id="defs4">
    <marker
       inkscape:stockid="Arrow1Mend"
       orient="auto"
       refY="0.0"
       refX="0.0"
       id="marker12805"
       style="overflow:visible;"
       inkscape:isstock="true">
      <path
         id="path12803"
         d="M 0.0,0.0 L 5.0,-5.0 L -12.5,0.0 L 5.0,5.0 L 0.0,0.0 z "
         style="fill-rule:evenodd;stroke:#005215;stroke-width:1pt;stroke-opacity:1;fill:#005215;fill-opacity:1"
         transform="scale(0.4) rotate(180) translate(10,0)" />
    </marker>
    <inkscape:path-effect
       effect="bspline"
       id="path-effect12801"
       is_visible="true"
       weight="33.333333"
       steps="2"
       helper_size="0"
       apply_no_weight="true"
       apply_with_weight="true"
       only_selected="false" />
    <marker
       inkscape:stockid="Arrow1Mend"
       orient="auto"
       refY="0.0"
       refX="0.0"
       id="Arrow1Mend"
       style="overflow:visible;"
       inkscape:isstock="true">
      <path
         id="path859"
         d="M 0.0,0.0 L 5.0,-5.0 L -12.5,0.0 L 5.0,5.0 L 0.0,0.0 z "
         style="fill-rule:evenodd;stroke:#969696;stroke-width:1pt;stroke-opacity:1;fill:#969696;fill-opacity:1"
         transform="scale(0.4) rotate(180) translate(10,0)" />
    </marker>
    <inkscape:path-effect
       effect="bspline"
       id="path-effect11434"
       is_visible="true"
       weight="33.333333"
       steps="2"
       helper_size="0"
       apply_no_weight="true"
       apply_with_weight="true"
       only_selected="false" />
    <inkscape:path-effect
       effect="bspline"
       id="path-effect11430"
       is_visible="true"
       weight="33.333333"
       steps="2"
       helper_size="0"
       apply_no_weight="true"
       apply_with_weight="true"
       only_selected="false" />
    <inkscape:path-effect
       effect="bspline"
       id="path-effect11426"
       is_visible="true"
       weight="33.333333"
       steps="2"
       helper_size="0"
       apply_no_weight="true"
       apply_with_weight="true"
       only_selected="false" />
    <inkscape:path-effect
       effect="bspline"
       id="path-effect11422"
       is_visible="true"
       weight="33.333333"
       steps="2"
       helper_size="0"
       apply_no_weight="true"
       apply_with_weight="true"
       only_selected="false" />
    <inkscape:path-effect
       effect="bspline"
       id="path-effect11418"
       is_visible="true"
       weight="33.333333"
       steps="2"
       helper_size="0"
       apply_no_weight="true"
       apply_with_weight="true"
       only_selected="false" />
    <inkscape:path-effect
       effect="bspline"
       id="path-effect11414"
       is_visible="true"
       weight="33.333333"
       steps="2"
       helper_size="0"
       apply_no_weight="true"
       apply_with_weight="true"
       only_selected="false" />
    <inkscape:path-effect
       effect="bspline"
       id="path-effect11410"
       is_visible="true"
       weight="33.333333"
       steps="2"
       helper_size="0"
       apply_no_weight="true"
       apply_with_weight="true"
       only_selected="false" />
    <inkscape:path-effect
       effect="bspline"
       id="path-effect11406"
       is_visible="true"
       weight="33.333333"
       steps="2"
       helper_size="0"
       apply_no_weight="true"
       apply_with_weight="true"
       only_selected="false" />
    <g
       id="g11542">
      <symbol
         style="overflow:visible"
         id="textext-ca594772-0"
         overflow="visible">
        <path
           inkscape:connector-curvature="0"
           id="path11536"
           d=""
           style="stroke:none" />
      </symbol>
      <symbol
         style="overflow:visible"
         id="textext-ca594772-1"
         overflow="visible">
        <path
           inkscape:connector-curvature="0"
           id="path11539"
           d="M 3.328125,-3.015625 C 3.390625,-3.265625 3.625,-4.1875 4.3125,-4.1875 c 0.046875,0 0.296875,0 0.5,0.125 C 4.53125,-4 4.34375,-3.765625 4.34375,-3.515625 c 0,0.15625 0.109375,0.34375 0.375,0.34375 0.21875,0 0.53125,-0.171875 0.53125,-0.578125 0,-0.515625 -0.578125,-0.65625 -0.921875,-0.65625 -0.578125,0 -0.921875,0.53125 -1.046875,0.75 -0.25,-0.65625 -0.78125,-0.75 -1.078125,-0.75 -1.03125,0 -1.609375,1.28125 -1.609375,1.53125 0,0.109375 0.109375,0.109375 0.125,0.109375 0.078125,0 0.109375,-0.03125 0.125,-0.109375 0.34375,-1.0625 1,-1.3125 1.34375,-1.3125 0.1875,0 0.53125,0.09375 0.53125,0.671875 0,0.3125 -0.171875,0.96875 -0.53125,2.375 -0.15625,0.609375 -0.515625,1.03125 -0.953125,1.03125 -0.0625,0 -0.28125,0 -0.5,-0.125 0.25,-0.0625 0.46875,-0.265625 0.46875,-0.546875 0,-0.265625 -0.21875,-0.34375 -0.359375,-0.34375 -0.3125,0 -0.546875,0.25 -0.546875,0.578125 0,0.453125 0.484375,0.65625 0.921875,0.65625 0.671875,0 1.03125,-0.703125 1.046875,-0.75 0.125,0.359375 0.484375,0.75 1.078125,0.75 1.03125,0 1.59375,-1.28125 1.59375,-1.53125 0,-0.109375 -0.078125,-0.109375 -0.109375,-0.109375 -0.09375,0 -0.109375,0.046875 -0.140625,0.109375 -0.328125,1.078125 -1,1.3125 -1.3125,1.3125 -0.390625,0 -0.546875,-0.3125 -0.546875,-0.65625 0,-0.21875 0.046875,-0.4375 0.15625,-0.875 z m 0,0"
           style="stroke:none" />
      </symbol>
    </g>
    <marker
       inkscape:stockid="Arrow1Mend"
       orient="auto"
       refY="0"
       refX="0"
       id="Arrow1Mend-4"
       style="overflow:visible"
       inkscape:isstock="true">
      <path
         inkscape:connector-curvature="0"
         id="path859-8"
         d="M 0,0 5,-5 -12.5,0 5,5 Z"
         style="fill:#969696;fill-opacity:1;fill-rule:evenodd;stroke:#969696;stroke-width:1.00000003pt;stroke-opacity:1"
         transform="matrix(-0.4,0,0,-0.4,-4,0)" />
    </marker>
    <inkscape:path-effect
       effect="bspline"
       id="path-effect11434-7"
       is_visible="true"
       weight="33.333333"
       steps="2"
       helper_size="0"
       apply_no_weight="true"
       apply_with_weight="true"
       only_selected="false" />
    <marker
       inkscape:stockid="Arrow1Mend"
       orient="auto"
       refY="0"
       refX="0"
       id="Arrow1Mend-7"
       style="overflow:visible"
       inkscape:isstock="true">
      <path
         inkscape:connector-curvature="0"
         id="path859-2"
         d="M 0,0 5,-5 -12.5,0 5,5 Z"
         style="fill:#969696;fill-opacity:1;fill-rule:evenodd;stroke:#969696;stroke-width:1.00000003pt;stroke-opacity:1"
         transform="matrix(-0.4,0,0,-0.4,-4,0)" />
    </marker>
    <inkscape:path-effect
       effect="bspline"
       id="path-effect11434-72"
       is_visible="true"
       weight="33.333333"
       steps="2"
       helper_size="0"
       apply_no_weight="true"
       apply_with_weight="true"
       only_selected="false" />
    <g
       id="g11615-0">
      <symbol
         style="overflow:visible"
         id="symbol11609-6"
         overflow="visible">
        <path
           inkscape:connector-curvature="0"
           id="path11607-1"
           d=""
           style="stroke:none" />
      </symbol>
      <symbol
         style="overflow:visible"
         id="symbol11613-5"
         overflow="visible">
        <path
           inkscape:connector-curvature="0"
           id="path11611-9"
           d="M 3.328125,-3.015625 C 3.390625,-3.265625 3.625,-4.1875 4.3125,-4.1875 c 0.046875,0 0.296875,0 0.5,0.125 C 4.53125,-4 4.34375,-3.765625 4.34375,-3.515625 c 0,0.15625 0.109375,0.34375 0.375,0.34375 0.21875,0 0.53125,-0.171875 0.53125,-0.578125 0,-0.515625 -0.578125,-0.65625 -0.921875,-0.65625 -0.578125,0 -0.921875,0.53125 -1.046875,0.75 -0.25,-0.65625 -0.78125,-0.75 -1.078125,-0.75 -1.03125,0 -1.609375,1.28125 -1.609375,1.53125 0,0.109375 0.109375,0.109375 0.125,0.109375 0.078125,0 0.109375,-0.03125 0.125,-0.109375 0.34375,-1.0625 1,-1.3125 1.34375,-1.3125 0.1875,0 0.53125,0.09375 0.53125,0.671875 0,0.3125 -0.171875,0.96875 -0.53125,2.375 -0.15625,0.609375 -0.515625,1.03125 -0.953125,1.03125 -0.0625,0 -0.28125,0 -0.5,-0.125 0.25,-0.0625 0.46875,-0.265625 0.46875,-0.546875 0,-0.265625 -0.21875,-0.34375 -0.359375,-0.34375 -0.3125,0 -0.546875,0.25 -0.546875,0.578125 0,0.453125 0.484375,0.65625 0.921875,0.65625 0.671875,0 1.03125,-0.703125 1.046875,-0.75 0.125,0.359375 0.484375,0.75 1.078125,0.75 1.03125,0 1.59375,-1.28125 1.59375,-1.53125 0,-0.109375 -0.078125,-0.109375 -0.109375,-0.109375 -0.09375,0 -0.109375,0.046875 -0.140625,0.109375 -0.328125,1.078125 -1,1.3125 -1.3125,1.3125 -0.390625,0 -0.546875,-0.3125 -0.546875,-0.65625 0,-0.21875 0.046875,-0.4375 0.15625,-0.875 z m 0,0"
           style="stroke:none" />
      </symbol>
    </g>
    <g
       id="g11615-7">
      <symbol
         style="overflow:visible"
         id="symbol11609-1"
         overflow="visible">
        <path
           inkscape:connector-curvature="0"
           id="path11607-15"
           d=""
           style="stroke:none" />
      </symbol>
      <symbol
         style="overflow:visible"
         id="symbol11613-9"
         overflow="visible">
        <path
           inkscape:connector-curvature="0"
           id="path11611-7"
           d="M 3.328125,-3.015625 C 3.390625,-3.265625 3.625,-4.1875 4.3125,-4.1875 c 0.046875,0 0.296875,0 0.5,0.125 C 4.53125,-4 4.34375,-3.765625 4.34375,-3.515625 c 0,0.15625 0.109375,0.34375 0.375,0.34375 0.21875,0 0.53125,-0.171875 0.53125,-0.578125 0,-0.515625 -0.578125,-0.65625 -0.921875,-0.65625 -0.578125,0 -0.921875,0.53125 -1.046875,0.75 -0.25,-0.65625 -0.78125,-0.75 -1.078125,-0.75 -1.03125,0 -1.609375,1.28125 -1.609375,1.53125 0,0.109375 0.109375,0.109375 0.125,0.109375 0.078125,0 0.109375,-0.03125 0.125,-0.109375 0.34375,-1.0625 1,-1.3125 1.34375,-1.3125 0.1875,0 0.53125,0.09375 0.53125,0.671875 0,0.3125 -0.171875,0.96875 -0.53125,2.375 -0.15625,0.609375 -0.515625,1.03125 -0.953125,1.03125 -0.0625,0 -0.28125,0 -0.5,-0.125 0.25,-0.0625 0.46875,-0.265625 0.46875,-0.546875 0,-0.265625 -0.21875,-0.34375 -0.359375,-0.34375 -0.3125,0 -0.546875,0.25 -0.546875,0.578125 0,0.453125 0.484375,0.65625 0.921875,0.65625 0.671875,0 1.03125,-0.703125 1.046875,-0.75 0.125,0.359375 0.484375,0.75 1.078125,0.75 1.03125,0 1.59375,-1.28125 1.59375,-1.53125 0,-0.109375 -0.078125,-0.109375 -0.109375,-0.109375 -0.09375,0 -0.109375,0.046875 -0.140625,0.109375 -0.328125,1.078125 -1,1.3125 -1.3125,1.3125 -0.390625,0 -0.546875,-0.3125 -0.546875,-0.65625 0,-0.21875 0.046875,-0.4375 0.15625,-0.875 z m 0,0"
           style="stroke:none" />
      </symbol>
    </g>
    <g
       id="g12756-5">
      <symbol
         id="textext-bee444ca-0-6"
         overflow="visible"
         style="overflow:visible">
        <path
           id="path12750-3"
           d=""
           style="stroke:none"
           inkscape:connector-curvature="0" />
      </symbol>
      <symbol
         id="textext-bee444ca-1-9"
         overflow="visible"
         style="overflow:visible">
        <path
           id="path12753-4"
           d="m 4.84375,-3.796875 c 0.046875,-0.140625 0.046875,-0.15625 0.046875,-0.234375 0,-0.171875 -0.140625,-0.265625 -0.296875,-0.265625 -0.09375,0 -0.25,0.0625 -0.34375,0.203125 -0.015625,0.0625 -0.109375,0.359375 -0.140625,0.546875 -0.078125,0.25 -0.140625,0.53125 -0.203125,0.796875 l -0.453125,1.796875 c -0.03125,0.140625 -0.46875,0.84375 -1.125,0.84375 -0.5,0 -0.609375,-0.4375 -0.609375,-0.8125 C 1.71875,-1.375 1.890625,-2 2.21875,-2.875 2.375,-3.28125 2.421875,-3.390625 2.421875,-3.59375 c 0,-0.4375 -0.3125,-0.8125 -0.8125,-0.8125 -0.953125,0 -1.3125,1.453125 -1.3125,1.53125 0,0.109375 0.09375,0.109375 0.109375,0.109375 0.109375,0 0.109375,-0.03125 0.15625,-0.1875 0.28125,-0.9375 0.671875,-1.234375 1.015625,-1.234375 0.078125,0 0.25,0 0.25,0.3125 0,0.25 -0.109375,0.515625 -0.171875,0.703125 -0.40625,1.0625 -0.578125,1.625 -0.578125,2.09375 0,0.890625 0.625,1.1875 1.21875,1.1875 0.390625,0 0.71875,-0.171875 1,-0.453125 -0.125,0.515625 -0.25,1.015625 -0.640625,1.546875 -0.265625,0.328125 -0.640625,0.625 -1.09375,0.625 -0.140625,0 -0.59375,-0.03125 -0.765625,-0.421875 0.15625,0 0.296875,0 0.421875,-0.125 C 1.328125,1.203125 1.421875,1.0625 1.421875,0.875 1.421875,0.5625 1.15625,0.53125 1.0625,0.53125 0.828125,0.53125 0.5,0.6875 0.5,1.171875 c 0,0.5 0.4375,0.875 1.0625,0.875 1.015625,0 2.046875,-0.90625 2.328125,-2.03125 z m 0,0"
           style="stroke:none"
           inkscape:connector-curvature="0" />
      </symbol>
    </g>
    <marker
       inkscape:stockid="Arrow1Mend"
       orient="auto"
       refY="0"
       refX="0"
       id="marker12805-9"
       style="overflow:visible"
       inkscape:isstock="true">
      <path
         inkscape:connector-curvature="0"
         id="path12803-3"
         d="M 0,0 5,-5 -12.5,0 5,5 Z"
         style="fill:#005215;fill-opacity:1;fill-rule:evenodd;stroke:#005215;stroke-width:1.00000003pt;stroke-opacity:1"
         transform="matrix(-0.4,0,0,-0.4,-4,0)" />
    </marker>
    <inkscape:path-effect
       effect="bspline"
       id="path-effect12801-9"
       is_visible="true"
       weight="33.333333"
       steps="2"
       helper_size="0"
       apply_no_weight="true"
       apply_with_weight="true"
       only_selected="false" />
    <g
       id="g12998-5">
      <symbol
         style="overflow:visible"
         id="textext-de9bf8c0-0-0"
         overflow="visible">
        <path
           inkscape:connector-curvature="0"
           id="path12986-9"
           d=""
           style="stroke:none" />
      </symbol>
      <symbol
         style="overflow:visible"
         id="textext-de9bf8c0-1-6"
         overflow="visible">
        <path
           inkscape:connector-curvature="0"
           id="path12989-3"
           d="m 2.859375,-6.921875 -1.5625,1.265625 0.28125,0.375 1.28125,-0.8125 1.28125,0.8125 0.28125,-0.375 z m 0,0"
           style="stroke:none" />
      </symbol>
      <symbol
         style="overflow:visible"
         id="textext-de9bf8c0-2-8"
         overflow="visible">
        <path
           inkscape:connector-curvature="0"
           id="path12992-5"
           d=""
           style="stroke:none" />
      </symbol>
      <symbol
         style="overflow:visible"
         id="textext-de9bf8c0-3-6"
         overflow="visible">
        <path
           inkscape:connector-curvature="0"
           id="path12995-1"
           d="M 2.796875,-3.75 C 2.65625,-4.25 2.109375,-4.5 1.5625,-4.5 1.203125,-4.5 0.921875,-4.296875 0.703125,-3.9375 0.453125,-3.53125 0.3125,-3 0.3125,-2.953125 c 0,0.140625 0.15625,0.140625 0.25,0.140625 0.109375,0 0.140625,0 0.1875,-0.046875 C 0.78125,-2.875 0.78125,-2.90625 0.84375,-3.15625 1.03125,-3.921875 1.25,-4.140625 1.515625,-4.140625 c 0.15625,0 0.234375,0.09375 0.234375,0.359375 0,0.171875 -0.046875,0.328125 -0.140625,0.734375 C 1.53125,-2.765625 1.4375,-2.375 1.390625,-2.15625 L 1.03125,-0.75 C 1,-0.625 0.953125,-0.421875 0.953125,-0.359375 c 0,0.203125 0.15625,0.4375 0.46875,0.4375 0.515625,0 0.625,-0.453125 0.703125,-0.75 0.09375,-0.375 0.171875,-0.6875 0.28125,-1.125 0.03125,-0.125 0.28125,-1.15625 0.3125,-1.1875 0,-0.0625 0.28125,-0.5 0.609375,-0.78125 0.28125,-0.21875 0.609375,-0.375 1.03125,-0.375 0.25,0 0.5,0.09375 0.5,0.578125 0,0.578125 -0.4375,1.734375 -0.625,2.234375 -0.125,0.265625 -0.140625,0.34375 -0.140625,0.515625 0,0.578125 0.578125,0.890625 1.125,0.890625 1.046875,0 1.546875,-1.359375 1.546875,-1.546875 0,-0.140625 -0.140625,-0.140625 -0.234375,-0.140625 -0.125,0 -0.1875,0 -0.234375,0.125 C 5.96875,-0.375 5.4375,-0.28125 5.28125,-0.28125 c -0.078125,0 -0.171875,0 -0.171875,-0.203125 0,-0.234375 0.09375,-0.484375 0.1875,-0.734375 0.171875,-0.40625 0.625,-1.578125 0.625,-2.125 C 5.921875,-4.265625 5.15625,-4.5 4.4375,-4.5 4.234375,-4.5 3.5,-4.5 2.796875,-3.75 Z m 0,0"
           style="stroke:none" />
      </symbol>
    </g>
    <marker
       inkscape:stockid="Arrow1Mend"
       orient="auto"
       refY="0"
       refX="0"
       id="marker12805-9-8"
       style="overflow:visible"
       inkscape:isstock="true">
      <path
         inkscape:connector-curvature="0"
         id="path12803-3-1"
         d="M 0,0 5,-5 -12.5,0 5,5 Z"
         style="fill:#005215;fill-opacity:0.61061946;fill-rule:evenodd;stroke:#005215;stroke-width:1.00000003pt;stroke-opacity:0.61061946"
         transform="matrix(-0.4,0,0,-0.4,-4,0)" />
    </marker>
    <inkscape:path-effect
       effect="bspline"
       id="path-effect12801-9-0"
       is_visible="true"
       weight="33.333333"
       steps="2"
       helper_size="0"
       apply_no_weight="true"
       apply_with_weight="true"
       only_selected="false" />
    <g
       id="g14728-4">
      <symbol
         style="overflow:visible"
         id="textext-e5e3f61c-0-4"
         overflow="visible">
        <path
           inkscape:connector-curvature="0"
           id="path14710-4"
           d=""
           style="stroke:none" />
      </symbol>
      <symbol
         style="overflow:visible"
         id="textext-e5e3f61c-1-7"
         overflow="visible">
        <path
           inkscape:connector-curvature="0"
           id="path14713-6"
           d="m 6.5625,-2.296875 c 0.171875,0 0.359375,0 0.359375,-0.203125 0,-0.1875 -0.1875,-0.1875 -0.359375,-0.1875 H 1.171875 c -0.171875,0 -0.34375,0 -0.34375,0.1875 0,0.203125 0.171875,0.203125 0.34375,0.203125 z m 0,0"
           style="stroke:none" />
      </symbol>
      <symbol
         style="overflow:visible"
         id="textext-e5e3f61c-2-3"
         overflow="visible">
        <path
           inkscape:connector-curvature="0"
           id="path14716-1"
           d=""
           style="stroke:none" />
      </symbol>
      <symbol
         style="overflow:visible"
         id="textext-e5e3f61c-3-7"
         overflow="visible">
        <path
           inkscape:connector-curvature="0"
           id="path14719-5"
           d="m 2.859375,-6.921875 -1.5625,1.265625 0.28125,0.375 1.28125,-0.8125 1.28125,0.8125 0.28125,-0.375 z m 0,0"
           style="stroke:none" />
      </symbol>
      <symbol
         style="overflow:visible"
         id="textext-e5e3f61c-4-9"
         overflow="visible">
        <path
           inkscape:connector-curvature="0"
           id="path14722-6"
           d=""
           style="stroke:none" />
      </symbol>
      <symbol
         style="overflow:visible"
         id="textext-e5e3f61c-5-2"
         overflow="visible">
        <path
           inkscape:connector-curvature="0"
           id="path14725-1"
           d="m 5.75,-3.765625 c 0.046875,-0.171875 0.046875,-0.1875 0.046875,-0.21875 0,-0.21875 -0.15625,-0.4375 -0.46875,-0.4375 -0.515625,0 -0.640625,0.46875 -0.703125,0.734375 L 4.359375,-2.65625 C 4.25,-2.171875 4.0625,-1.40625 3.953125,-1 3.890625,-0.78125 3.59375,-0.53125 3.5625,-0.515625 3.453125,-0.453125 3.203125,-0.28125 2.875,-0.28125 c -0.578125,0 -0.59375,-0.5 -0.59375,-0.71875 0,-0.609375 0.3125,-1.390625 0.59375,-2.109375 C 2.96875,-3.375 3,-3.4375 3,-3.609375 3,-4.1875 2.421875,-4.5 1.875,-4.5 c -1.0625,0 -1.5625,1.34375 -1.5625,1.546875 0,0.140625 0.15625,0.140625 0.25,0.140625 0.109375,0 0.1875,0 0.21875,-0.125 0.328125,-1.109375 0.890625,-1.203125 1.03125,-1.203125 0.078125,0 0.171875,0 0.171875,0.203125 0,0.234375 -0.109375,0.484375 -0.171875,0.640625 -0.390625,1 -0.59375,1.578125 -0.59375,2.078125 0,1.140625 1,1.296875 1.578125,1.296875 0.25,0 0.59375,-0.03125 0.96875,-0.296875 C 3.484375,1 2.734375,1.65625 2.046875,1.65625 1.90625,1.65625 1.640625,1.640625 1.4375,1.515625 1.75,1.390625 1.90625,1.109375 1.90625,0.84375 1.90625,0.484375 1.625,0.390625 1.421875,0.390625 c -0.359375,0 -0.71875,0.3125 -0.71875,0.75 0,0.515625 0.53125,0.875 1.34375,0.875 1.140625,0 2.453125,-0.765625 2.765625,-2 z m 0,0"
           style="stroke:none" />
      </symbol>
    </g>
    <marker
       inkscape:stockid="Arrow1Mend"
       orient="auto"
       refY="0"
       refX="0"
       id="marker12805-9-8-5"
       style="overflow:visible"
       inkscape:isstock="true">
      <path
         inkscape:connector-curvature="0"
         id="path12803-3-1-9"
         d="M 0,0 5,-5 -12.5,0 5,5 Z"
         style="fill:#005215;fill-opacity:0.61061946;fill-rule:evenodd;stroke:#005215;stroke-width:1.00000003pt;stroke-opacity:0.61061946"
         transform="matrix(-0.4,0,0,-0.4,-4,0)" />
    </marker>
    <inkscape:path-effect
       effect="bspline"
       id="path-effect12801-9-0-7"
       is_visible="true"
       weight="33.333333"
       steps="2"
       helper_size="0"
       apply_no_weight="true"
       apply_with_weight="true"
       only_selected="false" />
    <g
       id="g16031-8">
      <symbol
         style="overflow:visible"
         id="textext-3243ec97-0-3"
         overflow="visible">
        <path
           inkscape:connector-curvature="0"
           id="path16013-1"
           d=""
           style="stroke:none" />
      </symbol>
      <symbol
         style="overflow:visible"
         id="textext-3243ec97-1-8"
         overflow="visible">
        <path
           inkscape:connector-curvature="0"
           id="path16016-9"
           d="m 6.5625,-2.296875 c 0.171875,0 0.359375,0 0.359375,-0.203125 0,-0.1875 -0.1875,-0.1875 -0.359375,-0.1875 H 1.171875 c -0.171875,0 -0.34375,0 -0.34375,0.1875 0,0.203125 0.171875,0.203125 0.34375,0.203125 z m 0,0"
           style="stroke:none" />
      </symbol>
      <symbol
         style="overflow:visible"
         id="textext-3243ec97-2-6"
         overflow="visible">
        <path
           inkscape:connector-curvature="0"
           id="path16019-4"
           d=""
           style="stroke:none" />
      </symbol>
      <symbol
         style="overflow:visible"
         id="textext-3243ec97-3-3"
         overflow="visible">
        <path
           inkscape:connector-curvature="0"
           id="path16022-3"
           d="m 2.859375,-6.921875 -1.5625,1.265625 0.28125,0.375 1.28125,-0.8125 1.28125,0.8125 0.28125,-0.375 z m 0,0"
           style="stroke:none" />
      </symbol>
      <symbol
         style="overflow:visible"
         id="textext-3243ec97-4-3"
         overflow="visible">
        <path
           inkscape:connector-curvature="0"
           id="path16025-8"
           d=""
           style="stroke:none" />
      </symbol>
      <symbol
         style="overflow:visible"
         id="textext-3243ec97-5-6"
         overflow="visible">
        <path
           inkscape:connector-curvature="0"
           id="path16028-0"
           d="m 5.34375,-4 c -0.359375,0.109375 -0.53125,0.4375 -0.53125,0.6875 0,0.21875 0.15625,0.46875 0.484375,0.46875 0.359375,0 0.71875,-0.296875 0.71875,-0.78125 C 6.015625,-4.15625 5.5,-4.5 4.890625,-4.5 4.3125,-4.5 3.953125,-4.078125 3.8125,-3.890625 3.5625,-4.3125 3.015625,-4.5 2.4375,-4.5 c -1.25,0 -1.921875,1.21875 -1.921875,1.546875 0,0.140625 0.140625,0.140625 0.234375,0.140625 0.125,0 0.1875,0 0.234375,-0.125 0.28125,-0.90625 1,-1.203125 1.40625,-1.203125 0.375,0 0.5625,0.171875 0.5625,0.484375 0,0.203125 -0.140625,0.75 -0.234375,1.109375 L 2.375,-1.1875 c -0.140625,0.609375 -0.5,0.90625 -0.84375,0.90625 -0.046875,0 -0.28125,0 -0.46875,-0.140625 0.359375,-0.109375 0.53125,-0.453125 0.53125,-0.6875 0,-0.21875 -0.171875,-0.46875 -0.5,-0.46875 -0.34375,0 -0.71875,0.296875 -0.71875,0.78125 0,0.53125 0.53125,0.875 1.140625,0.875 0.5625,0 0.9375,-0.421875 1.0625,-0.609375 0.25,0.421875 0.8125,0.609375 1.375,0.609375 1.265625,0 1.9375,-1.21875 1.9375,-1.546875 0,-0.140625 -0.15625,-0.140625 -0.234375,-0.140625 -0.125,0 -0.1875,0 -0.234375,0.125 -0.28125,0.90625 -1,1.203125 -1.421875,1.203125 -0.375,0 -0.546875,-0.171875 -0.546875,-0.5 0,-0.203125 0.125,-0.734375 0.21875,-1.109375 0.0625,-0.25 0.296875,-1.1875 0.34375,-1.34375 0.15625,-0.609375 0.5,-0.90625 0.84375,-0.90625 0.0625,0 0.28125,0 0.484375,0.140625 z m 0,0"
           style="stroke:none" />
      </symbol>
    </g>
  </defs>
  <metadata
     id="metadata7">
    <rdf:RDF>
      <cc:Work
         rdf:about="">
        <dc:format>image/svg+xml</dc:format>
        <dc:type
           rdf:resource="http://purl.org/dc/dcmitype/StillImage" />
        <dc:title />
      </cc:Work>
    </rdf:RDF>
  </metadata>
  <g
     transform="translate(0,-860.80348)"
     id="layer1"
     inkscape:groupmode="layer"
     inkscape:label="Layer 1">
    <path
       style="fill:#000000;fill-opacity:0.19607843;fill-rule:evenodd;stroke:none;stroke-width:1.21863568px;stroke-linecap:butt;stroke-linejoin:miter;stroke-opacity:1"
       d="m -1.4404749,1020.0894 c -3.3245252,21.1108 29.9154439,40.3019 49.8593229,28.7867 19.943879,-11.5153 26.591956,-53.73621 9.973223,-63.33187 -16.618733,-9.59566 -56.5080208,13.43442 -59.8325459,34.54517 z"
       id="path11424"
       inkscape:connector-curvature="0"
       inkscape:path-effect="#path-effect11426"
       inkscape:original-d="m -38.005363,1022.0088 c 33.2412016,19.1899 66.481185,38.381 99.719949,57.5734 6.649145,-42.2212 13.297217,-84.44215 19.943997,-126.66137 -39.885466,23.02736 -79.7747466,46.05745 -119.663946,69.08797 z"
       transform="translate(202.76383,1.9192392)" />
    <path
       style="fill:#000000;fill-opacity:0.19607843;fill-rule:evenodd;stroke:none;stroke-width:1.21863568px;stroke-linecap:butt;stroke-linejoin:miter;stroke-opacity:1"
       d="m -18.061179,918.37632 c -19.944184,11.51395 -19.944184,57.57262 0.0011,69.08717 19.9452347,11.51455 59.832166,-11.51417 59.832361,-34.54255 1.96e-4,-23.02839 -39.8892278,-46.05856 -59.833412,-34.54462 z"
       id="path11420"
       inkscape:connector-curvature="0"
       inkscape:path-effect="#path-effect11422"
       inkscape:original-d="m -38.005363,883.83282 c 0.0012,46.05745 0.0012,92.11612 0,138.17598 C 1.8848929,998.97767 41.771816,975.94894 81.658583,952.92083 41.77326,929.89111 1.8838364,906.86094 -38.005363,883.83282 Z"
       transform="translate(202.76383,1.9192392)" />
    <g
       style="font-style:normal;font-variant:normal;font-weight:normal;font-stretch:normal;letter-spacing:normal;word-spacing:normal;text-anchor:start;fill:none;stroke:#000000;stroke-linecap:butt;stroke-linejoin:miter;stroke-miterlimit:10.43299961;stroke-dasharray:none;stroke-dashoffset:0;stroke-opacity:1"
       ns0:preamble="/home/shreyas/Grants/Career2013/draft/Figures/preamble.tex"
       ns0:text="$L = 2 \\pi \\alpha$"
       word-spacing="normal"
       letter-spacing="normal"
       font-size-adjust="none"
       font-stretch="normal"
       font-weight="normal"
       font-variant="normal"
       font-style="normal"
       stroke-miterlimit="10.433"
       xml:space="preserve"
       transform="matrix(1,0,0,-1,-354.44788,1416.6532)"
       id="content"><path
         style="fill:#000000;stroke-width:0"
         inkscape:connector-curvature="0"
         id="path2994"
         d="m 227.15,483.24 0.01,0.04 0.01,0.03 0.01,0.03 0.01,0.03 v 0.03 l 0.01,0.02 0.01,0.03 0.01,0.02 0.02,0.02 0.01,0.02 0.01,0.02 0.02,0.02 0.02,0.02 0.02,0.01 0.02,0.02 0.02,0.01 0.03,0.02 0.03,0.01 0.03,0.01 0.04,0.01 h 0.02 l 0.01,0.01 h 0.03 l 0.02,0.01 h 0.02 0.02 l 0.03,0.01 h 0.02 0.03 0.02 l 0.03,0.01 h 0.03 0.03 0.03 l 0.03,0.01 h 0.04 0.03 0.04 0.03 0.04 0.04 0.04 0.04 0.05 c 0.3,0 0.38,0 0.38,0.19 0,0.12 -0.11,0.12 -0.16,0.12 -0.33,0 -1.15,-0.03 -1.48,-0.03 -0.29,0 -1.02,0.03 -1.32,0.03 -0.07,0 -0.19,0 -0.19,-0.2 0,-0.11 0.09,-0.11 0.28,-0.11 0.02,0 0.21,0 0.38,-0.02 0.18,-0.02 0.27,-0.03 0.27,-0.16 0,-0.04 -0.01,-0.07 -0.04,-0.19 l -1.34,-5.33 c -0.09,-0.39 -0.11,-0.47 -0.9,-0.47 -0.17,0 -0.27,0 -0.27,-0.2 0,-0.11 0.09,-0.11 0.27,-0.11 h 4.61 c 0.23,0 0.24,0 0.3,0.17 l 0.79,2.15 c 0.04,0.11 0.04,0.13 0.04,0.14 0,0.04 -0.03,0.11 -0.12,0.11 -0.09,0 -0.1,-0.05 -0.17,-0.21 -0.34,-0.92 -0.78,-2.05 -2.5,-2.05 h -0.93 c -0.14,0 -0.16,0 -0.22,0.01 -0.1,0.01 -0.13,0.02 -0.13,0.1 0,0.03 0,0.05 0.05,0.23 z" /><path
         style="fill:#000000;stroke-width:0"
         inkscape:connector-curvature="0"
         id="path2996"
         d="m 239.82,480.48 h 0.02 0.03 0.03 l 0.02,0.01 h 0.01 0.02 0.01 0.01 0.02 l 0.01,0.01 h 0.01 0.02 l 0.01,0.01 h 0.01 l 0.01,0.01 h 0.01 l 0.02,0.01 0.01,0.01 v 0.01 l 0.01,0.01 0.01,0.01 v 0 l 0.01,0.01 v 0 0.01 l 0.01,0.01 v 0 0.01 0.01 h 0.01 v 0.01 0.01 0.01 0.01 0 0.01 0.01 c 0,0.2 -0.19,0.2 -0.33,0.2 h -5.95 c -0.14,0 -0.33,0 -0.33,-0.2 0,-0.2 0.19,-0.2 0.34,-0.2 z" /><path
         style="fill:#000000;stroke-width:0"
         inkscape:connector-curvature="0"
         id="path2998"
         d="m 239.82,478.56 h 0.02 0.01 0.03 0.03 0.01 0.01 0.02 0.01 0.02 l 0.01,0.01 h 0.01 0.02 l 0.01,0.01 h 0.01 l 0.01,0.01 h 0.01 l 0.02,0.01 h 0.01 l 0.01,0.01 v 0.01 l 0.01,0.01 h 0.01 v 0.01 0.01 h 0.01 v 0.01 0 l 0.01,0.01 v 0.01 0 0.01 l 0.01,0.01 v 0 0.01 0.01 0.01 0.01 0.01 0.01 c 0,0.19 -0.19,0.19 -0.33,0.19 h -5.94 c -0.15,0 -0.34,0 -0.34,-0.19 0,-0.2 0.19,-0.2 0.33,-0.2 z" /><path
         style="fill:#000000;stroke-width:0"
         inkscape:connector-curvature="0"
         id="path3000"
         d="m 244.76,478 1.06,1.02 c 1.55,1.37 2.15,1.91 2.15,2.9 0,1.14 -0.9,1.93 -2.11,1.93 -1.13,0 -1.86,-0.91 -1.86,-1.8 0,-0.55 0.49,-0.55 0.52,-0.55 0.17,0 0.52,0.12 0.52,0.52 0,0.26 -0.18,0.52 -0.53,0.52 -0.08,0 -0.1,0 -0.13,-0.01 0.23,0.64 0.77,1.01 1.35,1.01 0.9,0 1.33,-0.8 1.33,-1.62 0,-0.79 -0.5,-1.58 -1.04,-2.19 l -1.92,-2.13 c -0.1,-0.11 -0.1,-0.13 -0.1,-0.37 h 3.69 l 0.28,1.73 h -0.25 c -0.05,-0.29 -0.12,-0.73 -0.22,-0.88 C 247.43,478 246.77,478 246.55,478 Z" /><path
         style="fill:#000000;stroke-width:0"
         inkscape:connector-curvature="0"
         id="path3002"
         d="m 251.11,480.94 h 1.13 c -0.33,-1.47 -0.42,-1.9 -0.42,-2.56 0,-0.15 0,-0.42 0.08,-0.76 0.1,-0.44 0.21,-0.49 0.36,-0.49 0.2,0 0.41,0.17 0.41,0.37 0,0.06 0,0.08 -0.06,0.22 -0.29,0.72 -0.29,1.36 -0.29,1.64 0,0.53 0.07,1.06 0.18,1.58 h 1.13 c 0.13,0 0.49,0 0.49,0.34 0,0.24 -0.21,0.24 -0.4,0.24 h -3.33 c -0.22,0 -0.6,0 -1.04,-0.47 -0.35,-0.39 -0.6,-0.85 -0.6,-0.89 0,-0.01 0,-0.1 0.12,-0.1 0.08,0 0.09,0.04 0.15,0.11 0.49,0.77 1.07,0.77 1.27,0.77 h 0.56 c -0.31,-1.2 -0.85,-2.4 -1.27,-3.31 -0.08,-0.15 -0.08,-0.17 -0.08,-0.24 0,-0.19 0.16,-0.26 0.29,-0.26 0.3,0 0.38,0.27 0.5,0.64 0.14,0.46 0.14,0.48 0.27,0.97 z" /><path
         style="fill:#000000;stroke-width:0"
         inkscape:connector-curvature="0"
         id="path3004"
         d="m 259.26,479.58 v 0.07 0.07 l -0.01,0.07 v 0.07 l -0.01,0.13 -0.02,0.12 -0.02,0.12 -0.03,0.12 -0.03,0.1 -0.04,0.11 -0.03,0.09 -0.05,0.1 -0.04,0.08 -0.05,0.08 -0.05,0.08 -0.06,0.07 -0.06,0.07 -0.05,0.06 -0.07,0.05 -0.06,0.06 -0.07,0.05 -0.06,0.04 -0.07,0.04 -0.07,0.04 -0.07,0.03 -0.07,0.03 -0.07,0.02 -0.07,0.02 -0.08,0.02 -0.07,0.01 -0.07,0.01 -0.07,0.01 h -0.07 l -0.07,0.01 c -1.36,0 -2.68,-1.43 -2.68,-2.83 0,-0.92 0.6,-1.67 1.61,-1.67 l 0.02,0.21 c -0.59,0 -0.89,0.45 -0.89,1.09 0,0.48 0.26,1.56 0.58,2.06 0.46,0.73 1,0.92 1.35,0.92 0.98,0 0.98,-1.3 0.98,-2.08 0,-0.37 0,-0.94 0.02,-1.11 v 0 c -0.87,-0.77 -1.64,-0.88 -2.04,-0.88 l -0.02,-0.21 c 0.63,0 1.35,0.22 2.1,0.83 0.13,-0.53 0.46,-0.83 0.91,-0.83 0.53,0 0.83,0.54 0.83,0.7 0,0.07 -0.05,0.1 -0.11,0.1 -0.08,0 -0.11,-0.03 -0.13,-0.1 -0.18,-0.49 -0.54,-0.49 -0.56,-0.49 -0.31,0 -0.31,0.78 -0.31,1.02 0,0.21 0,0.23 0.1,0.34 0.94,1.18 1.14,2.33 1.14,2.34 0,0.02 -0.01,0.1 -0.12,0.1 -0.09,0 -0.09,-0.03 -0.15,-0.21 -0.17,-0.63 -0.5,-1.38 -0.97,-1.97 z" /></g>    <path
       style="fill:none;fill-rule:evenodd;stroke:#000000;stroke-width:1.21863568px;stroke-linecap:butt;stroke-linejoin:miter;stroke-opacity:1"
       d="m -38.005363,883.83282 c 0,46.05744 0,92.11732 0,138.17598 33.2399827,19.1911 66.480331,38.3825 99.719948,57.5734"
       id="path11404"
       inkscape:connector-curvature="0"
       inkscape:path-effect="#path-effect11406"
       inkscape:original-d="m -38.005363,883.83282 c 0.0012,46.05744 0,138.17598 0,138.17598 0,0 66.481184,38.381 99.719948,57.5734"
       sodipodi:nodetypes="ccc" />
    <path
       style="fill:none;fill-rule:evenodd;stroke:#000000;stroke-width:1.21863568px;stroke-linecap:butt;stroke-linejoin:miter;stroke-opacity:1"
       d="M -38.005363,1022.0088 C 1.8840502,998.97865 41.772038,975.94932 81.658583,952.92083"
       id="path11408"
       inkscape:connector-curvature="0"
       inkscape:path-effect="#path-effect11410"
       inkscape:original-d="M -38.005363,1022.0088 C 1.8838364,998.97828 41.771816,975.94894 81.658583,952.92083" />
    <path
       style="fill:none;fill-rule:evenodd;stroke:#000000;stroke-width:1.21863568px;stroke-linecap:butt;stroke-linejoin:miter;stroke-opacity:1"
       d="m 81.658583,952.92083 c 0,0 -119.663946,-69.08801 -119.663946,-69.08801 0,0 99.719948,195.74938 99.719948,195.74938 0,0 19.943998,-126.66137 19.943998,-126.66137 z"
       id="path11412"
       inkscape:connector-curvature="0"
       inkscape:path-effect="#path-effect11414"
       inkscape:original-d="M 81.658583,952.92083 -38.005363,883.83282 61.714585,1079.5822 Z"
       sodipodi:nodetypes="cccc" />
    <path
       style="fill:#000000;fill-opacity:0.19607843;fill-rule:evenodd;stroke:none;stroke-width:1.21863568px;stroke-linecap:butt;stroke-linejoin:miter;stroke-opacity:1"
       d="m -21.385495,939.4862 c -16.619868,-9.59593 -16.619868,36.46274 7.52e-4,69.0886 16.6206202,32.6259 49.859712,51.8165 49.859592,28.7872 -1.2e-4,-23.0293 -33.2404768,-88.27987 -49.860344,-97.8758 z"
       id="path11416"
       inkscape:connector-curvature="0"
       inkscape:path-effect="#path-effect11418"
       inkscape:original-d="m -38.005363,883.83282 c 0.0012,46.05745 0.0012,92.11612 0,138.17598 33.2420827,19.1904 66.481185,38.381 99.719949,57.5734 C 28.476208,1014.3319 -4.7641614,949.08138 -38.005363,883.83282 Z"
       transform="translate(202.76383,1.9192392)" />
    <path
       style="fill:#000000;fill-opacity:0.19607843;fill-rule:evenodd;stroke:none;stroke-width:1.21863568px;stroke-linecap:butt;stroke-linejoin:miter;stroke-opacity:1"
       d="M -1.4413113,927.97225 C -4.7656278,949.08213 28.474366,1014.3319 48.418609,1025.846 68.362853,1037.36 75.010804,995.13989 58.391543,962.51618 41.772283,929.89246 1.8830052,906.86238 -1.4413113,927.97225 Z"
       id="path11428"
       inkscape:connector-curvature="0"
       inkscape:path-effect="#path-effect11430"
       inkscape:original-d="m -38.005363,883.83282 c 33.2412016,65.24856 66.481185,130.49838 99.719949,195.74938 6.649267,-42.222 13.297217,-84.44215 19.943997,-126.66137 C 41.773117,929.89102 1.8838364,906.86094 -38.005363,883.83282 Z"
       transform="translate(202.76383,1.9192392)" />
    <path
       style="fill:none;fill-rule:evenodd;stroke:#969696;stroke-width:0.46058672;stroke-linecap:butt;stroke-linejoin:miter;stroke-opacity:1;stroke-miterlimit:4;stroke-dasharray:none;marker-end:url(#Arrow1Mend)"
       d="m 61.714586,1079.5822 c 6.648394,3.8384 13.296393,7.6766 19.943997,11.5146"
       id="path11432"
       inkscape:connector-curvature="0"
       inkscape:path-effect="#path-effect11434"
       inkscape:original-d="m 61.714586,1079.5822 c 6.649218,3.837 13.297217,7.6752 19.943997,11.5146" />
    <g
       id="g11551"
       style="font-style:normal;font-variant:normal;font-weight:normal;font-stretch:normal;letter-spacing:normal;word-spacing:normal;text-anchor:start;fill:none;stroke:#000000;stroke-linecap:butt;stroke-linejoin:miter;stroke-miterlimit:10.43299961;stroke-dasharray:none;stroke-dashoffset:0;stroke-opacity:1"
       transform="rotate(-180,154.68465,608.149)"
       ns0:preamble=""
       ns0:text="$x$\n">
      <defs
         id="defs11544">
        <g
           id="g11615">
          <symbol
             style="overflow:visible"
             id="symbol11609"
             overflow="visible">
            <path
               inkscape:connector-curvature="0"
               id="path11607"
               d=""
               style="stroke:none" />
          </symbol>
          <symbol
             style="overflow:visible"
             id="symbol11613"
             overflow="visible">
            <path
               inkscape:connector-curvature="0"
               id="path11611"
               d="M 3.328125,-3.015625 C 3.390625,-3.265625 3.625,-4.1875 4.3125,-4.1875 c 0.046875,0 0.296875,0 0.5,0.125 C 4.53125,-4 4.34375,-3.765625 4.34375,-3.515625 c 0,0.15625 0.109375,0.34375 0.375,0.34375 0.21875,0 0.53125,-0.171875 0.53125,-0.578125 0,-0.515625 -0.578125,-0.65625 -0.921875,-0.65625 -0.578125,0 -0.921875,0.53125 -1.046875,0.75 -0.25,-0.65625 -0.78125,-0.75 -1.078125,-0.75 -1.03125,0 -1.609375,1.28125 -1.609375,1.53125 0,0.109375 0.109375,0.109375 0.125,0.109375 0.078125,0 0.109375,-0.03125 0.125,-0.109375 0.34375,-1.0625 1,-1.3125 1.34375,-1.3125 0.1875,0 0.53125,0.09375 0.53125,0.671875 0,0.3125 -0.171875,0.96875 -0.53125,2.375 -0.15625,0.609375 -0.515625,1.03125 -0.953125,1.03125 -0.0625,0 -0.28125,0 -0.5,-0.125 0.25,-0.0625 0.46875,-0.265625 0.46875,-0.546875 0,-0.265625 -0.21875,-0.34375 -0.359375,-0.34375 -0.3125,0 -0.546875,0.25 -0.546875,0.578125 0,0.453125 0.484375,0.65625 0.921875,0.65625 0.671875,0 1.03125,-0.703125 1.046875,-0.75 0.125,0.359375 0.484375,0.75 1.078125,0.75 1.03125,0 1.59375,-1.28125 1.59375,-1.53125 0,-0.109375 -0.078125,-0.109375 -0.109375,-0.109375 -0.09375,0 -0.109375,0.046875 -0.140625,0.109375 -0.328125,1.078125 -1,1.3125 -1.3125,1.3125 -0.390625,0 -0.546875,-0.3125 -0.546875,-0.65625 0,-0.21875 0.046875,-0.4375 0.15625,-0.875 z m 0,0"
               style="stroke:none" />
          </symbol>
        </g>
      </defs>
      <g
         id="textext-ca594772-2">
        <g
           id="g11548"
           style="fill:#000000;fill-opacity:1">
          <use
             height="100%"
             width="100%"
             id="use11546"
             y="134.765"
             x="223.43201"
             xlink:href="#textext-ca594772-1" />
        </g>
      </g>
    </g>
    <path
       transform="translate(19.943986,-140.47895)"
       style="fill:none;fill-rule:evenodd;stroke:#969696;stroke-width:0.46058673;stroke-linecap:butt;stroke-linejoin:miter;stroke-miterlimit:4;stroke-dasharray:none;stroke-opacity:1;marker-end:url(#Arrow1Mend-4)"
       d="m 61.714589,1093.3998 c 6.649466,-3.8391 13.297448,-7.6773 19.94399,-11.5147"
       id="path11432-1"
       inkscape:connector-curvature="0"
       inkscape:path-effect="#path-effect11434-7"
       inkscape:original-d="m 61.714589,1093.3998 c 6.649224,-3.8395 13.297221,-7.6777 19.94399,-11.5147"
       sodipodi:nodetypes="cc" />
    <path
       transform="translate(-115.67515,-204.96109)"
       style="fill:none;fill-rule:evenodd;stroke:#969696;stroke-width:0.46058673;stroke-linecap:butt;stroke-linejoin:miter;stroke-miterlimit:4;stroke-dasharray:none;stroke-opacity:1;marker-end:url(#Arrow1Mend-7)"
       d="m 77.669786,1088.7939 c 0,-7.6777 0,-15.3541 0,-23.0293"
       id="path11432-2"
       inkscape:connector-curvature="0"
       inkscape:path-effect="#path-effect11434-72"
       inkscape:original-d="m 77.669786,1088.7939 c 0.0012,-7.6777 0.0012,-15.3541 0,-23.0293"
       sodipodi:nodetypes="cc" />
    <g
       id="g12663"
       style="font-style:normal;font-variant:normal;font-weight:normal;font-stretch:normal;letter-spacing:normal;word-spacing:normal;text-anchor:start;fill:none;stroke:#000000;stroke-linecap:butt;stroke-linejoin:miter;stroke-miterlimit:10.43299961;stroke-dasharray:none;stroke-dashoffset:0;stroke-opacity:1"
       transform="translate(-258.24798,736.89206)"
       ns0:preamble="/home/shreyas/Research-Major/immersed/pap1/python/preamble.tex"
       ns0:text="$z$\n\n">
      <defs
         id="defs12656">
        <g
           id="g12654">
          <symbol
             id="textext-0ecf6c4e-0"
             overflow="visible"
             style="overflow:visible">
            <path
               id="path12648"
               d=""
               style="stroke:none"
               inkscape:connector-curvature="0" />
          </symbol>
          <symbol
             id="textext-0ecf6c4e-1"
             overflow="visible"
             style="overflow:visible">
            <path
               id="path12651"
               d="m 1.328125,-0.828125 c 0.53125,-0.578125 0.828125,-0.828125 1.1875,-1.140625 0,0 0.609375,-0.53125 0.96875,-0.890625 C 4.4375,-3.78125 4.65625,-4.265625 4.65625,-4.3125 c 0,-0.09375 -0.09375,-0.09375 -0.109375,-0.09375 -0.078125,0 -0.09375,0.015625 -0.15625,0.109375 -0.296875,0.484375 -0.5,0.640625 -0.734375,0.640625 -0.25,0 -0.359375,-0.15625 -0.515625,-0.328125 -0.1875,-0.21875 -0.359375,-0.421875 -0.6875,-0.421875 -0.75,0 -1.203125,0.921875 -1.203125,1.140625 0,0.046875 0.03125,0.109375 0.109375,0.109375 0.09375,0 0.109375,-0.046875 0.140625,-0.109375 0.1875,-0.46875 0.765625,-0.46875 0.84375,-0.46875 0.203125,0 0.390625,0.0625 0.625,0.140625 0.40625,0.15625 0.515625,0.15625 0.765625,0.15625 -0.359375,0.421875 -1.1875,1.140625 -1.375,1.296875 l -0.90625,0.84375 C 0.78125,-0.625 0.421875,-0.0625 0.421875,0.015625 c 0,0.09375 0.109375,0.09375 0.125,0.09375 0.078125,0 0.09375,-0.015625 0.15625,-0.125 0.234375,-0.359375 0.53125,-0.625 0.859375,-0.625 0.21875,0 0.328125,0.09375 0.578125,0.375 0.15625,0.21875 0.34375,0.375 0.625,0.375 1,0 1.578125,-1.265625 1.578125,-1.53125 0,-0.046875 -0.046875,-0.109375 -0.125,-0.109375 -0.09375,0 -0.109375,0.0625 -0.140625,0.140625 C 3.84375,-0.75 3.203125,-0.5625 2.875,-0.5625 c -0.1875,0 -0.375,-0.0625 -0.578125,-0.125 -0.34375,-0.125 -0.5,-0.171875 -0.703125,-0.171875 -0.015625,0 -0.171875,0 -0.265625,0.03125 z m 0,0"
               style="stroke:none"
               inkscape:connector-curvature="0" />
          </symbol>
        </g>
      </defs>
      <g
         id="textext-0ecf6c4e-2">
        <g
           id="g12660"
           style="fill:#000000;fill-opacity:1">
          <use
             id="use12658"
             y="134.765"
             x="223.43201"
             xlink:href="#textext-0ecf6c4e-1"
             width="100%"
             height="100%" />
        </g>
      </g>
    </g>
    <g
       id="g12765"
       style="font-style:normal;font-variant:normal;font-weight:normal;font-stretch:normal;letter-spacing:normal;word-spacing:normal;text-anchor:start;fill:none;stroke:#000000;stroke-linecap:butt;stroke-linejoin:miter;stroke-miterlimit:10.43299961;stroke-dasharray:none;stroke-dashoffset:0;stroke-opacity:1"
       transform="translate(-122.73823,813.2543)"
       ns0:preamble="/home/shreyas/Research-Major/immersed/pap1/python/preamble.tex"
       ns0:text="$y$\n\n">
      <defs
         id="defs12758">
        <g
           id="g12756">
          <symbol
             id="textext-bee444ca-0"
             overflow="visible"
             style="overflow:visible">
            <path
               id="path12750"
               d=""
               style="stroke:none"
               inkscape:connector-curvature="0" />
          </symbol>
          <symbol
             id="textext-bee444ca-1"
             overflow="visible"
             style="overflow:visible">
            <path
               id="path12753"
               d="m 4.84375,-3.796875 c 0.046875,-0.140625 0.046875,-0.15625 0.046875,-0.234375 0,-0.171875 -0.140625,-0.265625 -0.296875,-0.265625 -0.09375,0 -0.25,0.0625 -0.34375,0.203125 -0.015625,0.0625 -0.109375,0.359375 -0.140625,0.546875 -0.078125,0.25 -0.140625,0.53125 -0.203125,0.796875 l -0.453125,1.796875 c -0.03125,0.140625 -0.46875,0.84375 -1.125,0.84375 -0.5,0 -0.609375,-0.4375 -0.609375,-0.8125 C 1.71875,-1.375 1.890625,-2 2.21875,-2.875 2.375,-3.28125 2.421875,-3.390625 2.421875,-3.59375 c 0,-0.4375 -0.3125,-0.8125 -0.8125,-0.8125 -0.953125,0 -1.3125,1.453125 -1.3125,1.53125 0,0.109375 0.09375,0.109375 0.109375,0.109375 0.109375,0 0.109375,-0.03125 0.15625,-0.1875 0.28125,-0.9375 0.671875,-1.234375 1.015625,-1.234375 0.078125,0 0.25,0 0.25,0.3125 0,0.25 -0.109375,0.515625 -0.171875,0.703125 -0.40625,1.0625 -0.578125,1.625 -0.578125,2.09375 0,0.890625 0.625,1.1875 1.21875,1.1875 0.390625,0 0.71875,-0.171875 1,-0.453125 -0.125,0.515625 -0.25,1.015625 -0.640625,1.546875 -0.265625,0.328125 -0.640625,0.625 -1.09375,0.625 -0.140625,0 -0.59375,-0.03125 -0.765625,-0.421875 0.15625,0 0.296875,0 0.421875,-0.125 C 1.328125,1.203125 1.421875,1.0625 1.421875,0.875 1.421875,0.5625 1.15625,0.53125 1.0625,0.53125 0.828125,0.53125 0.5,0.6875 0.5,1.171875 c 0,0.5 0.4375,0.875 1.0625,0.875 1.015625,0 2.046875,-0.90625 2.328125,-2.03125 z m 0,0"
               style="stroke:none"
               inkscape:connector-curvature="0" />
          </symbol>
        </g>
      </defs>
      <g
         id="textext-bee444ca-2">
        <g
           id="g12762"
           style="fill:#000000;fill-opacity:1">
          <use
             id="use12760"
             y="134.765"
             x="223.43201"
             xlink:href="#textext-bee444ca-1"
             width="100%"
             height="100%" />
        </g>
      </g>
    </g>
    <path
       style="fill:none;fill-rule:evenodd;stroke:#005215;stroke-width:1.22055479;stroke-linecap:butt;stroke-linejoin:miter;stroke-opacity:1;stroke-miterlimit:4;stroke-dasharray:none;marker-end:url(#marker12805)"
       d="M 33.793002,966.73843 C 49.749548,954.45508 65.704745,942.17276 81.658583,929.89149"
       id="path12799"
       inkscape:connector-curvature="0"
       inkscape:path-effect="#path-effect12801"
       inkscape:original-d="M 33.793002,966.73843 C 49.749412,954.4549 65.704607,942.17258 81.658583,929.89149" />
    <path
       transform="translate(-67.809566,39.149871)"
       style="fill:none;fill-rule:evenodd;stroke:#005215;stroke-width:1.22055483;stroke-linecap:butt;stroke-linejoin:miter;stroke-miterlimit:4;stroke-dasharray:none;stroke-opacity:1;marker-end:url(#marker12805-9)"
       d="m 57.725788,943.70909 c -13.294551,7.67561 -26.590544,15.35206 -39.88798,23.02934"
       id="path12799-0"
       inkscape:connector-curvature="0"
       inkscape:path-effect="#path-effect12801-9"
       inkscape:original-d="m 57.725788,943.70909 c -13.294773,7.67523 -26.590769,15.35167 -39.88798,23.02934"
       sodipodi:nodetypes="cc" />
    <path
       transform="translate(-55.843172,9.2117309)"
       style="fill:none;fill-rule:evenodd;stroke:#005215;stroke-width:1.22055483;stroke-linecap:butt;stroke-linejoin:miter;stroke-miterlimit:4;stroke-dasharray:none;stroke-opacity:0.61061949;marker-end:url(#marker12805-9-8)"
       d="M 57.725788,943.70909 C 45.75978,936.80051 33.793387,929.89171 21.826606,922.98269"
       id="path12799-0-3"
       inkscape:connector-curvature="0"
       inkscape:path-effect="#path-effect12801-9-0"
       inkscape:original-d="M 57.725788,943.70909 C 45.760613,936.79907 33.79422,929.89027 21.826606,922.98269"
       sodipodi:nodetypes="cc" />
    <path
       transform="translate(-3.9887983,94.42028)"
       style="fill:none;fill-rule:evenodd;stroke:#005215;stroke-width:1.22055483;stroke-linecap:butt;stroke-linejoin:miter;stroke-miterlimit:4;stroke-dasharray:none;stroke-opacity:0.61061946;marker-end:url(#marker12805-9-8-5)"
       d="m 37.781798,932.19442 c 0,15.35167 0,30.70456 0,46.05867"
       id="path12799-0-3-5"
       inkscape:connector-curvature="0"
       inkscape:path-effect="#path-effect12801-9-0-7"
       inkscape:original-d="m 37.781798,932.19442 c 0.0012,15.35167 0.0012,30.70456 0,46.05867"
       sodipodi:nodetypes="cc" />
    <g
       id="g17862"
       style="font-style:normal;font-variant:normal;font-weight:normal;font-stretch:normal;letter-spacing:normal;word-spacing:normal;text-anchor:start;fill:#005215;stroke:#000000;stroke-linecap:butt;stroke-linejoin:miter;stroke-miterlimit:10.43299961;stroke-dasharray:none;stroke-dashoffset:0;stroke-opacity:1;fill-opacity:1"
       transform="translate(-146.67102,790.22497)"
       ns0:preamble="/home/shreyas/Research-Major/immersed/pap1/python/preamble.tex"
       ns0:text="$A \\boldsymbol{\\hat{n}}$\n\n\n\n">
      <defs
         id="defs17847">
        <g
           id="g17845">
          <symbol
             id="textext-306a2d7c-0"
             overflow="visible">
            <path
               id="path17827"
               d=""
               style="stroke:none;" />
          </symbol>
          <symbol
             id="textext-306a2d7c-1"
             overflow="visible">
            <path
               id="path17830"
               d="M 1.78125 -1.140625 C 1.390625 -0.484375 1 -0.34375 0.5625 -0.3125 C 0.4375 -0.296875 0.34375 -0.296875 0.34375 -0.109375 C 0.34375 -0.046875 0.40625 0 0.484375 0 C 0.75 0 1.0625 -0.03125 1.328125 -0.03125 C 1.671875 -0.03125 2.015625 0 2.328125 0 C 2.390625 0 2.515625 0 2.515625 -0.1875 C 2.515625 -0.296875 2.4375 -0.3125 2.359375 -0.3125 C 2.140625 -0.328125 1.890625 -0.40625 1.890625 -0.65625 C 1.890625 -0.78125 1.953125 -0.890625 2.03125 -1.03125 L 2.796875 -2.296875 L 5.296875 -2.296875 C 5.3125 -2.09375 5.453125 -0.734375 5.453125 -0.640625 C 5.453125 -0.34375 4.9375 -0.3125 4.734375 -0.3125 C 4.59375 -0.3125 4.5 -0.3125 4.5 -0.109375 C 4.5 0 4.609375 0 4.640625 0 C 5.046875 0 5.46875 -0.03125 5.875 -0.03125 C 6.125 -0.03125 6.765625 0 7.015625 0 C 7.0625 0 7.1875 0 7.1875 -0.203125 C 7.1875 -0.3125 7.09375 -0.3125 6.953125 -0.3125 C 6.34375 -0.3125 6.34375 -0.375 6.3125 -0.671875 L 5.703125 -6.890625 C 5.6875 -7.09375 5.6875 -7.140625 5.515625 -7.140625 C 5.359375 -7.140625 5.3125 -7.0625 5.25 -6.96875 Z M 2.984375 -2.609375 L 4.9375 -5.90625 L 5.265625 -2.609375 Z M 2.984375 -2.609375 "
               style="stroke:none;" />
          </symbol>
          <symbol
             id="textext-306a2d7c-2"
             overflow="visible">
            <path
               id="path17833"
               d=""
               style="stroke:none;" />
          </symbol>
          <symbol
             id="textext-306a2d7c-3"
             overflow="visible">
            <path
               id="path17836"
               d="M 2.859375 -6.921875 L 1.296875 -5.65625 L 1.578125 -5.28125 L 2.859375 -6.09375 L 4.140625 -5.28125 L 4.421875 -5.65625 Z M 2.859375 -6.921875 "
               style="stroke:none;" />
          </symbol>
          <symbol
             id="textext-306a2d7c-4"
             overflow="visible">
            <path
               id="path17839"
               d=""
               style="stroke:none;" />
          </symbol>
          <symbol
             id="textext-306a2d7c-5"
             overflow="visible">
            <path
               id="path17842"
               d="M 2.796875 -3.75 C 2.65625 -4.25 2.109375 -4.5 1.5625 -4.5 C 1.203125 -4.5 0.921875 -4.296875 0.703125 -3.9375 C 0.453125 -3.53125 0.3125 -3 0.3125 -2.953125 C 0.3125 -2.8125 0.46875 -2.8125 0.5625 -2.8125 C 0.671875 -2.8125 0.703125 -2.8125 0.75 -2.859375 C 0.78125 -2.875 0.78125 -2.90625 0.84375 -3.15625 C 1.03125 -3.921875 1.25 -4.140625 1.515625 -4.140625 C 1.671875 -4.140625 1.75 -4.046875 1.75 -3.78125 C 1.75 -3.609375 1.703125 -3.453125 1.609375 -3.046875 C 1.53125 -2.765625 1.4375 -2.375 1.390625 -2.15625 L 1.03125 -0.75 C 1 -0.625 0.953125 -0.421875 0.953125 -0.359375 C 0.953125 -0.15625 1.109375 0.078125 1.421875 0.078125 C 1.9375 0.078125 2.046875 -0.375 2.125 -0.671875 C 2.21875 -1.046875 2.296875 -1.359375 2.40625 -1.796875 C 2.4375 -1.921875 2.6875 -2.953125 2.71875 -2.984375 C 2.71875 -3.046875 3 -3.484375 3.328125 -3.765625 C 3.609375 -3.984375 3.9375 -4.140625 4.359375 -4.140625 C 4.609375 -4.140625 4.859375 -4.046875 4.859375 -3.5625 C 4.859375 -2.984375 4.421875 -1.828125 4.234375 -1.328125 C 4.109375 -1.0625 4.09375 -0.984375 4.09375 -0.8125 C 4.09375 -0.234375 4.671875 0.078125 5.21875 0.078125 C 6.265625 0.078125 6.765625 -1.28125 6.765625 -1.46875 C 6.765625 -1.609375 6.625 -1.609375 6.53125 -1.609375 C 6.40625 -1.609375 6.34375 -1.609375 6.296875 -1.484375 C 5.96875 -0.375 5.4375 -0.28125 5.28125 -0.28125 C 5.203125 -0.28125 5.109375 -0.28125 5.109375 -0.484375 C 5.109375 -0.71875 5.203125 -0.96875 5.296875 -1.21875 C 5.46875 -1.625 5.921875 -2.796875 5.921875 -3.34375 C 5.921875 -4.265625 5.15625 -4.5 4.4375 -4.5 C 4.234375 -4.5 3.5 -4.5 2.796875 -3.75 Z M 2.796875 -3.75 "
               style="stroke:none;" />
          </symbol>
        </g>
      </defs>
      <g
         id="textext-306a2d7c-6">
        <g
           id="g17851"
           style="fill:rgb(0%,0%,0%);fill-opacity:1;">
          <use
             id="use17849"
             y="134.765"
             x="223.432"
             xlink:href="#textext-306a2d7c-1" />
        </g>
        <g
           id="g17855"
           style="fill:rgb(0%,0%,0%);fill-opacity:1;">
          <use
             id="use17853"
             y="134.765"
             x="231.591"
             xlink:href="#textext-306a2d7c-3" />
        </g>
        <g
           id="g17859"
           style="fill:rgb(0%,0%,0%);fill-opacity:1;">
          <use
             id="use17857"
             y="134.765"
             x="230.904"
             xlink:href="#textext-306a2d7c-5" />
        </g>
      </g>
    </g>
    <g
       id="g18778"
       style="font-style:normal;font-variant:normal;font-weight:normal;font-stretch:normal;letter-spacing:normal;word-spacing:normal;text-anchor:start;fill:#005215;fill-opacity:0.61176471;stroke:#000000;stroke-linecap:butt;stroke-linejoin:miter;stroke-miterlimit:10.43299961;stroke-dasharray:none;stroke-dashoffset:0;stroke-opacity:1"
       transform="translate(-261.19813,820.1631)"
       ns0:preamble="/home/shreyas/Research-Major/immersed/pap1/python/preamble.tex"
       ns0:text="$-A_1\\boldsymbol{\\hat{e}_1}$\n\n\n\n\n\n\n\n">
      <defs
         id="defs18751">
        <g
           id="g18749">
          <symbol
             id="textext-6ef9bccc-0"
             overflow="visible">
            <path
               id="path18713"
               d=""
               style="stroke:none;" />
          </symbol>
          <symbol
             id="textext-6ef9bccc-1"
             overflow="visible">
            <path
               id="path18716"
               d="M 6.5625 -2.296875 C 6.734375 -2.296875 6.921875 -2.296875 6.921875 -2.5 C 6.921875 -2.6875 6.734375 -2.6875 6.5625 -2.6875 L 1.171875 -2.6875 C 1 -2.6875 0.828125 -2.6875 0.828125 -2.5 C 0.828125 -2.296875 1 -2.296875 1.171875 -2.296875 Z M 6.5625 -2.296875 "
               style="stroke:none;" />
          </symbol>
          <symbol
             id="textext-6ef9bccc-2"
             overflow="visible">
            <path
               id="path18719"
               d=""
               style="stroke:none;" />
          </symbol>
          <symbol
             id="textext-6ef9bccc-3"
             overflow="visible">
            <path
               id="path18722"
               d="M 1.78125 -1.140625 C 1.390625 -0.484375 1 -0.34375 0.5625 -0.3125 C 0.4375 -0.296875 0.34375 -0.296875 0.34375 -0.109375 C 0.34375 -0.046875 0.40625 0 0.484375 0 C 0.75 0 1.0625 -0.03125 1.328125 -0.03125 C 1.671875 -0.03125 2.015625 0 2.328125 0 C 2.390625 0 2.515625 0 2.515625 -0.1875 C 2.515625 -0.296875 2.4375 -0.3125 2.359375 -0.3125 C 2.140625 -0.328125 1.890625 -0.40625 1.890625 -0.65625 C 1.890625 -0.78125 1.953125 -0.890625 2.03125 -1.03125 L 2.796875 -2.296875 L 5.296875 -2.296875 C 5.3125 -2.09375 5.453125 -0.734375 5.453125 -0.640625 C 5.453125 -0.34375 4.9375 -0.3125 4.734375 -0.3125 C 4.59375 -0.3125 4.5 -0.3125 4.5 -0.109375 C 4.5 0 4.609375 0 4.640625 0 C 5.046875 0 5.46875 -0.03125 5.875 -0.03125 C 6.125 -0.03125 6.765625 0 7.015625 0 C 7.0625 0 7.1875 0 7.1875 -0.203125 C 7.1875 -0.3125 7.09375 -0.3125 6.953125 -0.3125 C 6.34375 -0.3125 6.34375 -0.375 6.3125 -0.671875 L 5.703125 -6.890625 C 5.6875 -7.09375 5.6875 -7.140625 5.515625 -7.140625 C 5.359375 -7.140625 5.3125 -7.0625 5.25 -6.96875 Z M 2.984375 -2.609375 L 4.9375 -5.90625 L 5.265625 -2.609375 Z M 2.984375 -2.609375 "
               style="stroke:none;" />
          </symbol>
          <symbol
             id="textext-6ef9bccc-4"
             overflow="visible">
            <path
               id="path18725"
               d=""
               style="stroke:none;" />
          </symbol>
          <symbol
             id="textext-6ef9bccc-5"
             overflow="visible">
            <path
               id="path18728"
               d="M 2.328125 -4.4375 C 2.328125 -4.625 2.328125 -4.625 2.125 -4.625 C 1.671875 -4.1875 1.046875 -4.1875 0.765625 -4.1875 L 0.765625 -3.9375 C 0.921875 -3.9375 1.390625 -3.9375 1.765625 -4.125 L 1.765625 -0.578125 C 1.765625 -0.34375 1.765625 -0.25 1.078125 -0.25 L 0.8125 -0.25 L 0.8125 0 C 0.9375 0 1.796875 -0.03125 2.046875 -0.03125 C 2.265625 -0.03125 3.140625 0 3.296875 0 L 3.296875 -0.25 L 3.03125 -0.25 C 2.328125 -0.25 2.328125 -0.34375 2.328125 -0.578125 Z M 2.328125 -4.4375 "
               style="stroke:none;" />
          </symbol>
          <symbol
             id="textext-6ef9bccc-6"
             overflow="visible">
            <path
               id="path18731"
               d=""
               style="stroke:none;" />
          </symbol>
          <symbol
             id="textext-6ef9bccc-7"
             overflow="visible">
            <path
               id="path18734"
               d="M 2.859375 -6.921875 L 1.296875 -5.65625 L 1.578125 -5.28125 L 2.859375 -6.09375 L 4.140625 -5.28125 L 4.421875 -5.65625 Z M 2.859375 -6.921875 "
               style="stroke:none;" />
          </symbol>
          <symbol
             id="textext-6ef9bccc-8"
             overflow="visible">
            <path
               id="path18737"
               d=""
               style="stroke:none;" />
          </symbol>
          <symbol
             id="textext-6ef9bccc-9"
             overflow="visible">
            <path
               id="path18740"
               d="M 2.21875 -2.171875 C 2.875 -2.171875 3.53125 -2.234375 3.953125 -2.375 C 4.796875 -2.65625 4.9375 -3.234375 4.9375 -3.546875 C 4.9375 -4.125 4.390625 -4.5 3.5625 -4.5 C 1.765625 -4.5 0.484375 -3.265625 0.484375 -1.71875 C 0.484375 -0.5625 1.25 0.078125 2.578125 0.078125 C 2.828125 0.078125 3.515625 0.0625 4.109375 -0.15625 C 4.6875 -0.390625 5.09375 -0.796875 5.09375 -0.921875 C 5.09375 -1 4.9375 -1.171875 4.84375 -1.171875 C 4.78125 -1.171875 4.765625 -1.140625 4.6875 -1.0625 C 4.15625 -0.5 3.375 -0.28125 2.609375 -0.28125 C 1.890625 -0.28125 1.625 -0.671875 1.625 -1.25 C 1.625 -1.4375 1.671875 -1.765625 1.78125 -2.171875 Z M 1.859375 -2.53125 C 2.046875 -3.265625 2.28125 -3.53125 2.453125 -3.6875 C 2.796875 -4.03125 3.265625 -4.140625 3.5625 -4.140625 C 3.921875 -4.140625 4.34375 -3.984375 4.34375 -3.53125 C 4.34375 -2.53125 2.828125 -2.53125 1.859375 -2.53125 Z M 1.859375 -2.53125 "
               style="stroke:none;" />
          </symbol>
          <symbol
             id="textext-6ef9bccc-10"
             overflow="visible">
            <path
               id="path18743"
               d=""
               style="stroke:none;" />
          </symbol>
          <symbol
             id="textext-6ef9bccc-11"
             overflow="visible">
            <path
               id="path18746"
               d="M 2.78125 -4.328125 C 2.78125 -4.578125 2.734375 -4.578125 2.4375 -4.578125 C 2 -4.21875 1.4375 -4.125 0.875 -4.125 L 0.703125 -4.125 L 0.703125 -3.734375 L 0.875 -3.734375 C 1.15625 -3.734375 1.578125 -3.78125 1.875 -3.875 L 1.875 -0.390625 L 0.78125 -0.390625 L 0.78125 0 C 1.109375 -0.03125 1.953125 -0.03125 2.328125 -0.03125 C 2.578125 -0.03125 2.828125 -0.015625 3.078125 -0.015625 C 3.296875 -0.015625 3.65625 -0.015625 3.859375 0 L 3.859375 -0.390625 L 2.78125 -0.390625 Z M 2.78125 -4.328125 "
               style="stroke:none;" />
          </symbol>
        </g>
      </defs>
      <g
         id="textext-6ef9bccc-12">
        <g
           id="g18755"
           style="fill:rgb(0%,0%,0%);fill-opacity:1;">
          <use
             id="use18753"
             y="134.765"
             x="223.432"
             xlink:href="#textext-6ef9bccc-1" />
        </g>
        <g
           id="g18759"
           style="fill:rgb(0%,0%,0%);fill-opacity:1;">
          <use
             id="use18757"
             y="134.765"
             x="231.181"
             xlink:href="#textext-6ef9bccc-3" />
        </g>
        <g
           id="g18763"
           style="fill:rgb(0%,0%,0%);fill-opacity:1;">
          <use
             id="use18761"
             y="136.259"
             x="238.653"
             xlink:href="#textext-6ef9bccc-5" />
        </g>
        <g
           id="g18767"
           style="fill:rgb(0%,0%,0%);fill-opacity:1;">
          <use
             id="use18765"
             y="134.765"
             x="243.652"
             xlink:href="#textext-6ef9bccc-7" />
        </g>
        <g
           id="g18771"
           style="fill:rgb(0%,0%,0%);fill-opacity:1;">
          <use
             id="use18769"
             y="134.765"
             x="243.122"
             xlink:href="#textext-6ef9bccc-9" />
        </g>
        <g
           id="g18775"
           style="fill:rgb(0%,0%,0%);fill-opacity:1;">
          <use
             id="use18773"
             y="136.259"
             x="248.638"
             xlink:href="#textext-6ef9bccc-11" />
        </g>
      </g>
    </g>
    <g
       id="g19110"
       style="font-style:normal;font-variant:normal;font-weight:normal;font-stretch:normal;letter-spacing:normal;word-spacing:normal;text-anchor:start;fill:#005215;fill-opacity:1;stroke:#005215;stroke-linecap:butt;stroke-linejoin:miter;stroke-miterlimit:10.43299961;stroke-dasharray:none;stroke-dashoffset:0;stroke-opacity:1"
       transform="translate(-292.23368,882.9679)"
       ns0:preamble="/home/shreyas/Research-Major/immersed/pap1/python/preamble.tex"
       ns0:text="$-A_2\\boldsymbol{\\hat{e}_2}$\n\n\n\n\n\n\n">
      <defs
         id="defs19083">
        <g
           id="g19081">
          <symbol
             id="textext-d5f10de9-0"
             overflow="visible">
            <path
               id="path19045"
               d=""
               style="stroke:none;" />
          </symbol>
          <symbol
             id="textext-d5f10de9-1"
             overflow="visible">
            <path
               id="path19048"
               d="M 6.5625 -2.296875 C 6.734375 -2.296875 6.921875 -2.296875 6.921875 -2.5 C 6.921875 -2.6875 6.734375 -2.6875 6.5625 -2.6875 L 1.171875 -2.6875 C 1 -2.6875 0.828125 -2.6875 0.828125 -2.5 C 0.828125 -2.296875 1 -2.296875 1.171875 -2.296875 Z M 6.5625 -2.296875 "
               style="stroke:none;" />
          </symbol>
          <symbol
             id="textext-d5f10de9-2"
             overflow="visible">
            <path
               id="path19051"
               d=""
               style="stroke:none;" />
          </symbol>
          <symbol
             id="textext-d5f10de9-3"
             overflow="visible">
            <path
               id="path19054"
               d="M 1.78125 -1.140625 C 1.390625 -0.484375 1 -0.34375 0.5625 -0.3125 C 0.4375 -0.296875 0.34375 -0.296875 0.34375 -0.109375 C 0.34375 -0.046875 0.40625 0 0.484375 0 C 0.75 0 1.0625 -0.03125 1.328125 -0.03125 C 1.671875 -0.03125 2.015625 0 2.328125 0 C 2.390625 0 2.515625 0 2.515625 -0.1875 C 2.515625 -0.296875 2.4375 -0.3125 2.359375 -0.3125 C 2.140625 -0.328125 1.890625 -0.40625 1.890625 -0.65625 C 1.890625 -0.78125 1.953125 -0.890625 2.03125 -1.03125 L 2.796875 -2.296875 L 5.296875 -2.296875 C 5.3125 -2.09375 5.453125 -0.734375 5.453125 -0.640625 C 5.453125 -0.34375 4.9375 -0.3125 4.734375 -0.3125 C 4.59375 -0.3125 4.5 -0.3125 4.5 -0.109375 C 4.5 0 4.609375 0 4.640625 0 C 5.046875 0 5.46875 -0.03125 5.875 -0.03125 C 6.125 -0.03125 6.765625 0 7.015625 0 C 7.0625 0 7.1875 0 7.1875 -0.203125 C 7.1875 -0.3125 7.09375 -0.3125 6.953125 -0.3125 C 6.34375 -0.3125 6.34375 -0.375 6.3125 -0.671875 L 5.703125 -6.890625 C 5.6875 -7.09375 5.6875 -7.140625 5.515625 -7.140625 C 5.359375 -7.140625 5.3125 -7.0625 5.25 -6.96875 Z M 2.984375 -2.609375 L 4.9375 -5.90625 L 5.265625 -2.609375 Z M 2.984375 -2.609375 "
               style="stroke:none;" />
          </symbol>
          <symbol
             id="textext-d5f10de9-4"
             overflow="visible">
            <path
               id="path19057"
               d=""
               style="stroke:none;" />
          </symbol>
          <symbol
             id="textext-d5f10de9-5"
             overflow="visible">
            <path
               id="path19060"
               d="M 3.515625 -1.265625 L 3.28125 -1.265625 C 3.265625 -1.109375 3.1875 -0.703125 3.09375 -0.640625 C 3.046875 -0.59375 2.515625 -0.59375 2.40625 -0.59375 L 1.125 -0.59375 C 1.859375 -1.234375 2.109375 -1.4375 2.515625 -1.765625 C 3.03125 -2.171875 3.515625 -2.609375 3.515625 -3.265625 C 3.515625 -4.109375 2.78125 -4.625 1.890625 -4.625 C 1.03125 -4.625 0.4375 -4.015625 0.4375 -3.375 C 0.4375 -3.03125 0.734375 -2.984375 0.8125 -2.984375 C 0.96875 -2.984375 1.171875 -3.109375 1.171875 -3.359375 C 1.171875 -3.484375 1.125 -3.734375 0.765625 -3.734375 C 0.984375 -4.21875 1.453125 -4.375 1.78125 -4.375 C 2.484375 -4.375 2.84375 -3.828125 2.84375 -3.265625 C 2.84375 -2.65625 2.40625 -2.1875 2.1875 -1.9375 L 0.515625 -0.265625 C 0.4375 -0.203125 0.4375 -0.1875 0.4375 0 L 3.3125 0 Z M 3.515625 -1.265625 "
               style="stroke:none;" />
          </symbol>
          <symbol
             id="textext-d5f10de9-6"
             overflow="visible">
            <path
               id="path19063"
               d=""
               style="stroke:none;" />
          </symbol>
          <symbol
             id="textext-d5f10de9-7"
             overflow="visible">
            <path
               id="path19066"
               d="M 2.859375 -6.921875 L 1.296875 -5.65625 L 1.578125 -5.28125 L 2.859375 -6.09375 L 4.140625 -5.28125 L 4.421875 -5.65625 Z M 2.859375 -6.921875 "
               style="stroke:none;" />
          </symbol>
          <symbol
             id="textext-d5f10de9-8"
             overflow="visible">
            <path
               id="path19069"
               d=""
               style="stroke:none;" />
          </symbol>
          <symbol
             id="textext-d5f10de9-9"
             overflow="visible">
            <path
               id="path19072"
               d="M 2.21875 -2.171875 C 2.875 -2.171875 3.53125 -2.234375 3.953125 -2.375 C 4.796875 -2.65625 4.9375 -3.234375 4.9375 -3.546875 C 4.9375 -4.125 4.390625 -4.5 3.5625 -4.5 C 1.765625 -4.5 0.484375 -3.265625 0.484375 -1.71875 C 0.484375 -0.5625 1.25 0.078125 2.578125 0.078125 C 2.828125 0.078125 3.515625 0.0625 4.109375 -0.15625 C 4.6875 -0.390625 5.09375 -0.796875 5.09375 -0.921875 C 5.09375 -1 4.9375 -1.171875 4.84375 -1.171875 C 4.78125 -1.171875 4.765625 -1.140625 4.6875 -1.0625 C 4.15625 -0.5 3.375 -0.28125 2.609375 -0.28125 C 1.890625 -0.28125 1.625 -0.671875 1.625 -1.25 C 1.625 -1.4375 1.671875 -1.765625 1.78125 -2.171875 Z M 1.859375 -2.53125 C 2.046875 -3.265625 2.28125 -3.53125 2.453125 -3.6875 C 2.796875 -4.03125 3.265625 -4.140625 3.5625 -4.140625 C 3.921875 -4.140625 4.34375 -3.984375 4.34375 -3.53125 C 4.34375 -2.53125 2.828125 -2.53125 1.859375 -2.53125 Z M 1.859375 -2.53125 "
               style="stroke:none;" />
          </symbol>
          <symbol
             id="textext-d5f10de9-10"
             overflow="visible">
            <path
               id="path19075"
               d=""
               style="stroke:none;" />
          </symbol>
          <symbol
             id="textext-d5f10de9-11"
             overflow="visible">
            <path
               id="path19078"
               d="M 4.03125 -1.59375 L 3.59375 -1.59375 C 3.578125 -1.5 3.515625 -1.015625 3.390625 -0.984375 C 3.234375 -0.953125 2.828125 -0.953125 2.65625 -0.953125 L 1.703125 -0.953125 C 2.09375 -1.234375 2.484375 -1.53125 2.890625 -1.78125 C 3.453125 -2.140625 4.03125 -2.515625 4.03125 -3.21875 C 4.03125 -4.046875 3.234375 -4.578125 2.125 -4.578125 C 1.1875 -4.578125 0.46875 -4.203125 0.46875 -3.546875 C 0.46875 -3.140625 0.796875 -2.984375 1.015625 -2.984375 C 1.265625 -2.984375 1.546875 -3.15625 1.546875 -3.53125 C 1.546875 -3.875 1.296875 -4 1.28125 -4.015625 C 1.53125 -4.171875 1.84375 -4.1875 1.9375 -4.1875 C 2.515625 -4.1875 2.984375 -3.8125 2.984375 -3.203125 C 2.984375 -2.671875 2.625 -2.21875 2.21875 -1.875 L 0.5625 -0.390625 C 0.484375 -0.3125 0.46875 -0.3125 0.46875 -0.171875 L 0.46875 0 L 3.796875 0 Z M 4.03125 -1.59375 "
               style="stroke:none;" />
          </symbol>
        </g>
      </defs>
      <g
         id="textext-d5f10de9-12">
        <g
           id="g19087"
           style="fill:rgb(0%,0%,0%);fill-opacity:1;">
          <use
             id="use19085"
             y="134.765"
             x="223.432"
             xlink:href="#textext-d5f10de9-1" />
        </g>
        <g
           id="g19091"
           style="fill:rgb(0%,0%,0%);fill-opacity:1;">
          <use
             id="use19089"
             y="134.765"
             x="231.181"
             xlink:href="#textext-d5f10de9-3" />
        </g>
        <g
           id="g19095"
           style="fill:rgb(0%,0%,0%);fill-opacity:1;">
          <use
             id="use19093"
             y="136.259"
             x="238.653"
             xlink:href="#textext-d5f10de9-5" />
        </g>
        <g
           id="g19099"
           style="fill:rgb(0%,0%,0%);fill-opacity:1;">
          <use
             id="use19097"
             y="134.765"
             x="243.652"
             xlink:href="#textext-d5f10de9-7" />
        </g>
        <g
           id="g19103"
           style="fill:rgb(0%,0%,0%);fill-opacity:1;">
          <use
             id="use19101"
             y="134.765"
             x="243.122"
             xlink:href="#textext-d5f10de9-9" />
        </g>
        <g
           id="g19107"
           style="fill:rgb(0%,0%,0%);fill-opacity:1;">
          <use
             id="use19105"
             y="136.259"
             x="248.638"
             xlink:href="#textext-d5f10de9-11" />
        </g>
      </g>
    </g>
    <g
       id="g19460"
       style="font-style:normal;font-variant:normal;font-weight:normal;font-stretch:normal;letter-spacing:normal;word-spacing:normal;text-anchor:start;fill:#005215;fill-opacity:0.61176471;stroke:#000000;stroke-linecap:butt;stroke-linejoin:miter;stroke-miterlimit:10.43299961;stroke-dasharray:none;stroke-dashoffset:0;stroke-opacity:1"
       transform="translate(-226.93643,940.0741)"
       ns0:preamble="/home/shreyas/Research-Major/immersed/pap1/python/preamble.tex"
       ns0:text="$-A_3 \\boldsymbol{\\hat{e}_3}$\n\n\n\n\n\n\n\n">
      <defs
         id="defs19433">
        <g
           id="g19431">
          <symbol
             id="textext-92d8cf08-0"
             overflow="visible"
             style="overflow:visible">
            <path
               id="path19395"
               d=""
               style="stroke:none"
               inkscape:connector-curvature="0" />
          </symbol>
          <symbol
             id="textext-92d8cf08-1"
             overflow="visible"
             style="overflow:visible">
            <path
               id="path19398"
               d="m 6.5625,-2.296875 c 0.171875,0 0.359375,0 0.359375,-0.203125 0,-0.1875 -0.1875,-0.1875 -0.359375,-0.1875 H 1.171875 c -0.171875,0 -0.34375,0 -0.34375,0.1875 0,0.203125 0.171875,0.203125 0.34375,0.203125 z m 0,0"
               style="stroke:none"
               inkscape:connector-curvature="0" />
          </symbol>
          <symbol
             id="textext-92d8cf08-2"
             overflow="visible"
             style="overflow:visible">
            <path
               id="path19401"
               d=""
               style="stroke:none"
               inkscape:connector-curvature="0" />
          </symbol>
          <symbol
             id="textext-92d8cf08-3"
             overflow="visible"
             style="overflow:visible">
            <path
               id="path19404"
               d="M 1.78125,-1.140625 C 1.390625,-0.484375 1,-0.34375 0.5625,-0.3125 0.4375,-0.296875 0.34375,-0.296875 0.34375,-0.109375 0.34375,-0.046875 0.40625,0 0.484375,0 0.75,0 1.0625,-0.03125 1.328125,-0.03125 c 0.34375,0 0.6875,0.03125 1,0.03125 0.0625,0 0.1875,0 0.1875,-0.1875 0,-0.109375 -0.078125,-0.125 -0.15625,-0.125 -0.21875,-0.015625 -0.46875,-0.09375 -0.46875,-0.34375 0,-0.125 0.0625,-0.234375 0.140625,-0.375 l 0.765625,-1.265625 h 2.5 c 0.015625,0.203125 0.15625,1.5625 0.15625,1.65625 0,0.296875 -0.515625,0.328125 -0.71875,0.328125 C 4.59375,-0.3125 4.5,-0.3125 4.5,-0.109375 4.5,0 4.609375,0 4.640625,0 5.046875,0 5.46875,-0.03125 5.875,-0.03125 6.125,-0.03125 6.765625,0 7.015625,0 7.0625,0 7.1875,0 7.1875,-0.203125 7.1875,-0.3125 7.09375,-0.3125 6.953125,-0.3125 6.34375,-0.3125 6.34375,-0.375 6.3125,-0.671875 l -0.609375,-6.21875 c -0.015625,-0.203125 -0.015625,-0.25 -0.1875,-0.25 -0.15625,0 -0.203125,0.078125 -0.265625,0.171875 z M 2.984375,-2.609375 4.9375,-5.90625 5.265625,-2.609375 Z m 0,0"
               style="stroke:none"
               inkscape:connector-curvature="0" />
          </symbol>
          <symbol
             id="textext-92d8cf08-4"
             overflow="visible"
             style="overflow:visible">
            <path
               id="path19407"
               d=""
               style="stroke:none"
               inkscape:connector-curvature="0" />
          </symbol>
          <symbol
             id="textext-92d8cf08-5"
             overflow="visible"
             style="overflow:visible">
            <path
               id="path19410"
               d="m 1.90625,-2.328125 c 0.546875,0 0.9375,0.375 0.9375,1.125 0,0.859375 -0.515625,1.125 -0.90625,1.125 -0.28125,0 -0.90625,-0.078125 -1.1875,-0.5 0.328125,0 0.40625,-0.234375 0.40625,-0.390625 0,-0.21875 -0.171875,-0.375 -0.390625,-0.375 -0.1875,0 -0.390625,0.125 -0.390625,0.40625 0,0.65625 0.71875,1.078125 1.5625,1.078125 0.96875,0 1.640625,-0.65625 1.640625,-1.34375 0,-0.546875 -0.4375,-1.09375 -1.203125,-1.25 0.71875,-0.265625 0.984375,-0.78125 0.984375,-1.21875 0,-0.546875 -0.625,-0.953125 -1.40625,-0.953125 -0.765625,0 -1.359375,0.375 -1.359375,0.9375 0,0.234375 0.15625,0.359375 0.359375,0.359375 0.21875,0 0.359375,-0.15625 0.359375,-0.34375 0,-0.203125 -0.140625,-0.359375 -0.359375,-0.375 0.25,-0.296875 0.71875,-0.375 0.984375,-0.375 0.3125,0 0.75,0.15625 0.75,0.75 0,0.296875 -0.09375,0.625 -0.28125,0.828125 -0.21875,0.265625 -0.421875,0.28125 -0.765625,0.3125 -0.171875,0.015625 -0.1875,0.015625 -0.21875,0.015625 -0.015625,0 -0.078125,0.015625 -0.078125,0.09375 0,0.09375 0.0625,0.09375 0.1875,0.09375 z m 0,0"
               style="stroke:none"
               inkscape:connector-curvature="0" />
          </symbol>
          <symbol
             id="textext-92d8cf08-6"
             overflow="visible"
             style="overflow:visible">
            <path
               id="path19413"
               d=""
               style="stroke:none"
               inkscape:connector-curvature="0" />
          </symbol>
          <symbol
             id="textext-92d8cf08-7"
             overflow="visible"
             style="overflow:visible">
            <path
               id="path19416"
               d="m 2.859375,-6.921875 -1.5625,1.265625 0.28125,0.375 1.28125,-0.8125 1.28125,0.8125 0.28125,-0.375 z m 0,0"
               style="stroke:none"
               inkscape:connector-curvature="0" />
          </symbol>
          <symbol
             id="textext-92d8cf08-8"
             overflow="visible"
             style="overflow:visible">
            <path
               id="path19419"
               d=""
               style="stroke:none"
               inkscape:connector-curvature="0" />
          </symbol>
          <symbol
             id="textext-92d8cf08-9"
             overflow="visible"
             style="overflow:visible">
            <path
               id="path19422"
               d="m 2.21875,-2.171875 c 0.65625,0 1.3125,-0.0625 1.734375,-0.203125 C 4.796875,-2.65625 4.9375,-3.234375 4.9375,-3.546875 4.9375,-4.125 4.390625,-4.5 3.5625,-4.5 c -1.796875,0 -3.078125,1.234375 -3.078125,2.78125 0,1.15625 0.765625,1.796875 2.09375,1.796875 0.25,0 0.9375,-0.015625 1.53125,-0.234375 0.578125,-0.234375 0.984375,-0.640625 0.984375,-0.765625 0,-0.078125 -0.15625,-0.25 -0.25,-0.25 -0.0625,0 -0.078125,0.03125 -0.15625,0.109375 C 4.15625,-0.5 3.375,-0.28125 2.609375,-0.28125 1.890625,-0.28125 1.625,-0.671875 1.625,-1.25 c 0,-0.1875 0.046875,-0.515625 0.15625,-0.921875 z M 1.859375,-2.53125 c 0.1875,-0.734375 0.421875,-1 0.59375,-1.15625 0.34375,-0.34375 0.8125,-0.453125 1.109375,-0.453125 0.359375,0 0.78125,0.15625 0.78125,0.609375 0,1 -1.515625,1 -2.484375,1 z m 0,0"
               style="stroke:none"
               inkscape:connector-curvature="0" />
          </symbol>
          <symbol
             id="textext-92d8cf08-10"
             overflow="visible"
             style="overflow:visible">
            <path
               id="path19425"
               d=""
               style="stroke:none"
               inkscape:connector-curvature="0" />
          </symbol>
          <symbol
             id="textext-92d8cf08-11"
             overflow="visible"
             style="overflow:visible">
            <path
               id="path19428"
               d="m 2.109375,-2.265625 c 0.828125,0 0.859375,0.625 0.859375,1 0,0.296875 0,1 -0.84375,1 C 1.9375,-0.265625 1.5,-0.3125 1.203125,-0.5 1.359375,-0.5625 1.53125,-0.71875 1.53125,-1.015625 c 0,-0.328125 -0.234375,-0.5625 -0.5625,-0.5625 -0.34375,0 -0.578125,0.234375 -0.578125,0.5625 0,0.71875 0.78125,1.09375 1.765625,1.09375 1.453125,0 1.953125,-0.75 1.953125,-1.34375 0,-0.53125 -0.4375,-1.015625 -1.21875,-1.1875 0.5,-0.1875 0.96875,-0.546875 0.96875,-1.125 0,-0.546875 -0.5625,-1 -1.671875,-1 -0.953125,0 -1.546875,0.46875 -1.546875,1.046875 0,0.359375 0.265625,0.546875 0.53125,0.546875 0.34375,0 0.53125,-0.265625 0.53125,-0.53125 0,-0.359375 -0.28125,-0.484375 -0.34375,-0.5 C 1.640625,-4.21875 2,-4.25 2.140625,-4.25 c 0.6875,0 0.6875,0.453125 0.6875,0.640625 0,0.328125 -0.140625,0.96875 -0.828125,1 -0.1875,0.015625 -0.359375,0.015625 -0.390625,0.03125 -0.09375,0.03125 -0.09375,0.109375 -0.09375,0.15625 0,0.15625 0.09375,0.15625 0.21875,0.15625 z m 0,0"
               style="stroke:none"
               inkscape:connector-curvature="0" />
          </symbol>
        </g>
      </defs>
      <g
         id="textext-92d8cf08-12">
        <g
           id="g19437"
           style="fill:#000000;fill-opacity:1">
          <use
             id="use19435"
             y="134.765"
             x="223.43201"
             xlink:href="#textext-92d8cf08-1"
             width="100%"
             height="100%" />
        </g>
        <g
           id="g19441"
           style="fill:#000000;fill-opacity:1">
          <use
             id="use19439"
             y="134.765"
             x="231.181"
             xlink:href="#textext-92d8cf08-3"
             width="100%"
             height="100%" />
        </g>
        <g
           id="g19445"
           style="fill:#000000;fill-opacity:1">
          <use
             id="use19443"
             y="136.259"
             x="238.653"
             xlink:href="#textext-92d8cf08-5"
             width="100%"
             height="100%" />
        </g>
        <g
           id="g19449"
           style="fill:#000000;fill-opacity:1">
          <use
             id="use19447"
             y="134.765"
             x="243.65199"
             xlink:href="#textext-92d8cf08-7"
             width="100%"
             height="100%" />
        </g>
        <g
           id="g19453"
           style="fill:#000000;fill-opacity:1">
          <use
             id="use19451"
             y="134.765"
             x="243.12199"
             xlink:href="#textext-92d8cf08-9"
             width="100%"
             height="100%" />
        </g>
        <g
           id="g19457"
           style="fill:#000000;fill-opacity:1">
          <use
             id="use19455"
             y="136.259"
             x="248.638"
             xlink:href="#textext-92d8cf08-11"
             width="100%"
             height="100%" />
        </g>
      </g>
    </g>
  </g>
</svg>
