<?xml version="1.0" encoding="UTF-8" standalone="no"?>
<svg
   sodipodi:docname="translating_body.svg"
   inkscape:version="1.1.1 (1:1.1+202109281949+c3084ef5ed)"
   inkscape:export-ydpi="420.009"
   inkscape:export-xdpi="420.009"
   inkscape:export-filename="/Users/thomasina/Documents/Warwick/Lectures/translating_body.png"
   id="svg8"
   version="1.1"
   viewBox="0 0 70 25"
   height="25mm"
   width="70mm"
   xmlns:inkscape="http://www.inkscape.org/namespaces/inkscape"
   xmlns:sodipodi="http://sodipodi.sourceforge.net/DTD/sodipodi-0.dtd"
   xmlns:xlink="http://www.w3.org/1999/xlink"
   xmlns="http://www.w3.org/2000/svg"
   xmlns:svg="http://www.w3.org/2000/svg"
   xmlns:rdf="http://www.w3.org/1999/02/22-rdf-syntax-ns#"
   xmlns:cc="http://creativecommons.org/ns#"
   xmlns:dc="http://purl.org/dc/elements/1.1/">
  <defs
     id="defs2">
    <rect
       x="484.93909"
       y="153.66043"
       width="25.237598"
       height="32.428608"
       id="rect4183" />
    <inkscape:path-effect
       effect="spiro"
       id="path-effect2877"
       is_visible="true"
       lpeversion="1" />
    <marker
       style="overflow:visible"
       id="Tail"
       refX="0"
       refY="0"
       orient="auto"
       inkscape:stockid="Tail"
       inkscape:isstock="true">
      <g
         transform="scale(-1.2)"
         id="g2477">
        <path
           style="fill:none;fill-rule:evenodd;stroke:context-stroke;stroke-width:0.8;stroke-linecap:round"
           d="M -3.8048674,-3.9585227 0.54352094,0"
           id="path2465" />
        <path
           style="fill:none;fill-rule:evenodd;stroke:context-stroke;stroke-width:0.8;stroke-linecap:round"
           d="M -1.2866832,-3.9585227 3.0617053,0"
           id="path2467" />
        <path
           style="fill:none;fill-rule:evenodd;stroke:context-stroke;stroke-width:0.8;stroke-linecap:round"
           d="M 1.3053582,-3.9585227 5.6537466,0"
           id="path2469" />
        <path
           style="fill:none;fill-rule:evenodd;stroke:context-stroke;stroke-width:0.8;stroke-linecap:round"
           d="M -3.8048674,4.1775838 0.54352094,0.21974226"
           id="path2471" />
        <path
           style="fill:none;fill-rule:evenodd;stroke:context-stroke;stroke-width:0.8;stroke-linecap:round"
           d="M -1.2866832,4.1775838 3.0617053,0.21974226"
           id="path2473" />
        <path
           style="fill:none;fill-rule:evenodd;stroke:context-stroke;stroke-width:0.8;stroke-linecap:round"
           d="M 1.3053582,4.1775838 5.6537466,0.21974226"
           id="path2475" />
      </g>
    </marker>
    <marker
       style="overflow:visible"
       id="Arrow2Mend"
       refX="0"
       refY="0"
       orient="auto"
       inkscape:stockid="Arrow2Mend"
       inkscape:isstock="true">
      <path
         transform="scale(-0.6)"
         d="M 8.7185878,4.0337352 -2.2072895,0.01601326 8.7185884,-4.0017078 c -1.7454984,2.3720609 -1.7354408,5.6174519 -6e-7,8.035443 z"
         style="fill:context-stroke;fill-rule:evenodd;stroke-width:0.625;stroke-linejoin:round"
         id="path2456" />
    </marker>
    <marker
       style="overflow:visible"
       id="Arrow2Lend"
       refX="0"
       refY="0"
       orient="auto"
       inkscape:stockid="Arrow2Lend"
       inkscape:isstock="true">
      <path
         transform="matrix(-1.1,0,0,-1.1,-1.1,0)"
         d="M 8.7185878,4.0337352 -2.2072895,0.01601326 8.7185884,-4.0017078 c -1.7454984,2.3720609 -1.7354408,5.6174519 -6e-7,8.035443 z"
         style="fill:context-stroke;fill-rule:evenodd;stroke-width:0.625;stroke-linejoin:round"
         id="path2450" />
    </marker>
    <marker
       style="overflow:visible"
       id="Arrow1Lend"
       refX="0"
       refY="0"
       orient="auto"
       inkscape:stockid="Arrow1Lend"
       inkscape:isstock="true">
      <path
         transform="matrix(-0.8,0,0,-0.8,-10,0)"
         style="fill:context-stroke;fill-rule:evenodd;stroke:context-stroke;stroke-width:1pt"
         d="M 0,0 5,-5 -12.5,0 5,5 Z"
         id="path2432" />
    </marker>
    <clipPath
       id="clipPath1438"
       clipPathUnits="userSpaceOnUse">
      <rect
         transform="scale(1,-1)"
         y="-1"
         x="-8.4886445e-09"
         height="0.87289816"
         width="0.47978312"
         id="rect1440"
         style="opacity:0.95;fill:#ffffff;fill-opacity:0;stroke:#000000;stroke-width:0.00300589;stroke-miterlimit:4;stroke-dasharray:none" />
    </clipPath>
    <g
       id="g4678">
      <symbol
         overflow="visible"
         id="glyph0-0">
        <path
           style="stroke:none"
           d=""
           id="path4657" />
      </symbol>
      <symbol
         overflow="visible"
         id="glyph0-1">
        <path
           style="stroke:none"
           d="m 26.421875,-21.875 c 0,-0.78125 0.04687,-0.828125 1.046875,-0.9375 0.859375,-0.109375 0.9375,-0.109375 1.9375,-0.109375 h 0.890625 v -1.671875 c -1.359375,0.109375 -3.40625,0.109375 -4.796875,0.109375 -1.515625,0 -3.375,0 -4.84375,-0.109375 v 1.671875 h 0.890625 c 0.65625,0 1.265625,0.04687 1.90625,0.109375 1.03125,0.109375 1.078125,0.15625 1.078125,0.9375 v 13.515625 c 0,5.3125 -3.90625,7.0625 -7.828125,7.0625 -6.265625,0 -6.34375,-4.6875 -6.34375,-6.703125 v -14.921875 h 3.875 v -1.671875 c -1.359375,0.109375 -4.875,0.109375 -6.421875,0.109375 -1.53125,0 -5.046875,0 -6.40625,-0.109375 v 1.671875 H 5.265625 V -8.28125 c 0,4.765625 3.875,8.671875 11.296875,8.671875 6.8125,0 9.859375,-4.1875 9.859375,-8.609375 z m 0,0"
           id="path4660" />
      </symbol>
      <symbol
         overflow="visible"
         id="glyph1-0">
        <path
           style="stroke:none"
           d=""
           id="path4663" />
      </symbol>
      <symbol
         overflow="visible"
         id="glyph1-1">
        <path
           style="stroke:none"
           d="M 11.875,8.609375 C 11.875,8.5 11.875,8.421875 11.265625,7.8125 6.78125,3.296875 5.625,-3.484375 5.625,-8.96875 c 0,-6.234375 1.375,-12.46875 5.78125,-16.953125 0.46875,-0.4375 0.46875,-0.5 0.46875,-0.609375 0,-0.25 -0.15625,-0.359375 -0.359375,-0.359375 -0.359375,0 -3.59375,2.4375 -5.703125,6.984375 -1.828125,3.953125 -2.265625,7.921875 -2.265625,10.9375 0,2.796875 0.390625,7.140625 2.375,11.1875 2.140625,4.421875 5.234375,6.75 5.59375,6.75 0.203125,0 0.359375,-0.109375 0.359375,-0.359375 z m 0,0"
           id="path4666" />
      </symbol>
      <symbol
         overflow="visible"
         id="glyph1-2">
        <path
           style="stroke:none"
           d="m 10.359375,-8.96875 c 0,-2.796875 -0.390625,-7.125 -2.359375,-11.1875 -2.15625,-4.40625 -5.234375,-6.734375 -5.59375,-6.734375 -0.21875,0 -0.359375,0.140625 -0.359375,0.359375 0,0.109375 0,0.171875 0.671875,0.8125 3.515625,3.5625 5.5625,9.265625 5.5625,16.75 0,6.140625 -1.328125,12.453125 -5.765625,16.96875 -0.46875,0.421875 -0.46875,0.5 -0.46875,0.609375 0,0.21875 0.140625,0.359375 0.359375,0.359375 0.359375,0 3.578125,-2.4375 5.703125,-7 1.828125,-3.9375 2.25,-7.921875 2.25,-10.9375 z m 0,0"
           id="path4669" />
      </symbol>
      <symbol
         overflow="visible"
         id="glyph2-0">
        <path
           style="stroke:none"
           d=""
           id="path4672" />
      </symbol>
      <symbol
         overflow="visible"
         id="glyph2-1">
        <path
           style="stroke:none"
           d="M 7.390625,-14.34375 H 10.75 c 0.71875,0 1.078125,0 1.078125,-0.71875 0,-0.390625 -0.359375,-0.390625 -1,-0.390625 h -3.15625 c 1.296875,-5.09375 1.46875,-5.8125 1.46875,-6.03125 0,-0.609375 -0.421875,-0.96875 -1.03125,-0.96875 C 8,-22.453125 7,-22.40625 6.671875,-21.15625 l -1.40625,5.703125 H 1.90625 c -0.71875,0 -1.078125,0 -1.078125,0.671875 0,0.4375 0.28125,0.4375 1,0.4375 h 3.15625 c -2.578125,10.1875 -2.71875,10.796875 -2.71875,11.4375 0,1.9375 1.359375,3.296875 3.296875,3.296875 3.65625,0 5.703125,-5.234375 5.703125,-5.515625 0,-0.359375 -0.296875,-0.359375 -0.4375,-0.359375 -0.328125,0 -0.359375,0.109375 -0.53125,0.5 C 8.75,-1.25 6.84375,-0.390625 5.625,-0.390625 c -0.75,0 -1.109375,-0.46875 -1.109375,-1.65625 0,-0.859375 0.078125,-1.109375 0.21875,-1.71875 z m 0,0"
           id="path4675" />
      </symbol>
    </g>
  </defs>
  <sodipodi:namedview
     inkscape:window-maximized="1"
     inkscape:window-y="27"
     inkscape:window-x="0"
     inkscape:window-height="1016"
     inkscape:window-width="1920"
     showgrid="false"
     inkscape:document-rotation="0"
     inkscape:current-layer="layer1"
     inkscape:document-units="mm"
     inkscape:cy="235.74763"
     inkscape:cx="397.79145"
     inkscape:zoom="0.95653136"
     inkscape:pageshadow="2"
     inkscape:pageopacity="0.0"
     borderopacity="1.0"
     bordercolor="#666666"
     pagecolor="#ffffff"
     id="base"
     inkscape:pagecheckerboard="0"
     inkscape:lockguides="true" />
  <metadata
     id="metadata5">
    <rdf:RDF>
      <cc:Work
         rdf:about="">
        <dc:format>image/svg+xml</dc:format>
        <dc:type
           rdf:resource="http://purl.org/dc/dcmitype/StillImage" />
      </cc:Work>
    </rdf:RDF>
  </metadata>
  <g
     id="layer1"
     inkscape:groupmode="layer"
     inkscape:label="Layer 1">
    <g
       id="g68"
       transform="translate(-73.248458,-30.697049)">
      <text
         y="63.284725"
         x="89.260651"
         id="text943"
         style="font-variant:normal;font-weight:normal;font-size:3.84849px;font-family:CMSY10;-inkscape-font-specification:CMSY10;writing-mode:lr-tb;fill:#000000;fill-opacity:1;fill-rule:nonzero;stroke:none;stroke-width:0.352778"><tspan
           style="stroke-width:0.352778"
           id="tspan941"
           y="63.284725"
           x="89.260651" /></text>
      <path
         style="fill:none;stroke:#000000;stroke-width:0.264583px;stroke-linecap:butt;stroke-linejoin:miter;stroke-opacity:1;marker-end:url(#Arrow1Lend)"
         d="M 111.91326,40.655988 H 128.3068"
         id="path1532" />
      <path
         style="fill:none;stroke:#000000;stroke-width:0.264583px;stroke-linecap:butt;stroke-linejoin:miter;stroke-opacity:1"
         d="m 74.130693,44.257128 c -0.388092,2.645759 0.472656,5.442739 2.262074,7.429857 1.789417,1.987119 4.469005,3.133446 7.142566,3.081214 1.871224,-0.03656 3.701121,-0.630222 5.358265,-1.500101 1.657144,-0.869879 3.156201,-2.010813 4.599588,-3.20222 0.886521,-0.731757 1.757467,-1.486271 2.706214,-2.135322 0.948746,-0.649051 1.984319,-1.194162 3.102538,-1.460569 1.476532,-0.351772 3.018522,-0.203858 4.536312,-0.21779 0.7589,-0.007 1.52148,-0.05558 2.26084,-0.226777 0.73937,-0.171201 1.4577,-0.469344 2.05427,-0.938468 0.73335,-0.576688 1.25934,-1.399983 1.52435,-2.294491 0.26501,-0.894508 0.2748,-1.856476 0.0792,-2.768682 -0.39118,-1.824411 -1.57467,-3.398247 -2.98659,-4.618074 -2.78928,-2.409796 -6.49854,-3.595995 -10.18097,-3.760143 -3.682426,-0.164149 -7.352376,0.634138 -10.841171,1.823893 -2.634727,0.898499 -5.228731,2.043986 -7.379128,3.81172 -2.150398,1.767733 -3.834363,4.221707 -4.238368,6.975953 z"
         id="path2875"
         inkscape:path-effect="#path-effect2877"
         inkscape:original-d="m 74.130693,44.257128 c -3.872762,3.59563 6.270024,7.007646 9.40464,10.511071 3.134614,3.503424 6.638833,-3.134617 9.957853,-4.702321 3.319022,-1.567704 3.872762,-2.396998 5.808752,-3.595891 1.935982,-1.198896 5.901212,-0.921761 8.851422,-1.383035 2.95021,-0.461277 -0.92176,-6.453902 -1.38303,-9.681247 -0.46128,-3.227348 -14.014498,-1.290569 -21.022141,-1.93625 -7.007643,-0.645681 -7.744732,7.192047 -11.617496,10.787673 z" />
      <text
         xml:space="preserve"
         transform="scale(0.26458333)"
         id="text4181"
         style="font-size:14.6667px;line-height:1.25;font-family:sans-serif;word-spacing:0px;white-space:pre;shape-inside:url(#rect4183)" />
      <g
         id="surface125773"
         transform="matrix(0.17347529,0,0,0.17347529,130.81219,37.47802)">
        <g
           style="fill:#000000;fill-opacity:1"
           id="g4684">
          <use
             xlink:href="#glyph0-1"
             x="-1.0936"
             y="27.648199"
             id="use4682"
             width="100%"
             height="100%" />
        </g>
        <g
           style="fill:#000000;fill-opacity:1"
           id="g4688">
          <use
             xlink:href="#glyph1-1"
             x="30.636801"
             y="27.648199"
             id="use4686"
             width="100%"
             height="100%" />
        </g>
        <g
           style="fill:#000000;fill-opacity:1"
           id="g4692">
          <use
             xlink:href="#glyph2-1"
             x="44.583199"
             y="27.648199"
             id="use4690"
             width="100%"
             height="100%" />
        </g>
        <g
           style="fill:#000000;fill-opacity:1"
           id="g4696">
          <use
             xlink:href="#glyph1-2"
             x="57.535999"
             y="27.648199"
             id="use4694"
             width="100%"
             height="100%" />
        </g>
      </g>
    </g>
  </g>
</svg>
