<?xml version="1.0" encoding="UTF-8"?>
<svg xmlns="http://www.w3.org/2000/svg" xmlns:xlink="http://www.w3.org/1999/xlink" width="442pt" height="446pt" viewBox="0 0 442 446" version="1.1">
<defs>
<g>
<symbol overflow="visible" id="glyph0-0">
<path style="stroke:none;" d=""/>
</symbol>
<symbol overflow="visible" id="glyph0-1">
<path style="stroke:none;" d="M 5.765625 0 L 10.09375 -12.125 L 8.421875 -12.125 L 6.375 -6.140625 C 5.8125 -4.546875 5.328125 -3.03125 4.984375 -1.625 L 4.953125 -1.625 C 4.609375 -3.03125 4.15625 -4.515625 3.65625 -6.15625 L 1.765625 -12.125 L 0.046875 -12.125 L 4.03125 0 Z M 5.765625 0 "/>
</symbol>
<symbol overflow="visible" id="glyph0-2">
<path style="stroke:none;" d="M 7.625 -3.8125 L 8.921875 0 L 10.609375 0 L 6.46875 -12.125 L 4.578125 -12.125 L 0.453125 0 L 2.0625 0 L 3.328125 -3.8125 Z M 3.65625 -5.046875 L 4.84375 -8.546875 C 5.078125 -9.28125 5.28125 -10.046875 5.4375 -10.75 L 5.484375 -10.75 C 5.671875 -10.046875 5.84375 -9.328125 6.109375 -8.53125 L 7.3125 -5.046875 Z M 3.65625 -5.046875 "/>
</symbol>
<symbol overflow="visible" id="glyph0-3">
<path style="stroke:none;" d="M 1.3125 3.5625 L 2.890625 3.5625 L 2.890625 -1.171875 L 2.9375 -1.171875 C 3.453125 -0.3125 4.453125 0.203125 5.609375 0.203125 C 7.65625 0.203125 9.578125 -1.34375 9.578125 -4.484375 C 9.578125 -7.125 7.984375 -8.90625 5.875 -8.90625 C 4.46875 -8.90625 3.421875 -8.296875 2.796875 -7.21875 L 2.75 -7.21875 L 2.65625 -8.71875 L 1.234375 -8.71875 C 1.296875 -7.890625 1.3125 -6.984375 1.3125 -5.875 Z M 2.890625 -5.0625 C 2.890625 -5.25 2.953125 -5.484375 2.984375 -5.703125 C 3.296875 -6.890625 4.3125 -7.65625 5.40625 -7.65625 C 7.078125 -7.65625 7.96875 -6.15625 7.96875 -4.40625 C 7.96875 -2.40625 7 -1.046875 5.328125 -1.046875 C 4.21875 -1.046875 3.234375 -1.796875 2.96875 -2.890625 C 2.921875 -3.09375 2.890625 -3.328125 2.890625 -3.546875 Z M 2.890625 -5.0625 "/>
</symbol>
<symbol overflow="visible" id="glyph1-0">
<path style="stroke:none;" d=""/>
</symbol>
<symbol overflow="visible" id="glyph1-1">
<path style="stroke:none;" d="M 2.828125 0 L 3.859375 0 L 3.859375 -7.796875 L 2.953125 -7.796875 L 1.25 -6.890625 L 1.453125 -6.078125 L 2.8125 -6.8125 L 2.828125 -6.8125 Z M 2.828125 0 "/>
</symbol>
<symbol overflow="visible" id="glyph1-2">
<path style="stroke:none;" d="M 5.515625 0 L 5.515625 -0.875 L 2.03125 -0.875 L 2.03125 -0.90625 L 2.640625 -1.46875 C 4.28125 -3.0625 5.328125 -4.21875 5.328125 -5.65625 C 5.328125 -6.78125 4.625 -7.9375 2.953125 -7.9375 C 2.046875 -7.9375 1.265625 -7.578125 0.75 -7.140625 L 1.078125 -6.390625 C 1.4375 -6.703125 2.03125 -7.0625 2.734375 -7.0625 C 3.90625 -7.0625 4.265625 -6.328125 4.265625 -5.53125 C 4.265625 -4.359375 3.359375 -3.34375 1.375 -1.453125 L 0.546875 -0.640625 L 0.546875 0 Z M 5.515625 0 "/>
</symbol>
<symbol overflow="visible" id="glyph1-3">
<path style="stroke:none;" d="M 0.5 -0.390625 C 0.890625 -0.140625 1.65625 0.125 2.53125 0.125 C 4.390625 0.125 5.375 -0.953125 5.375 -2.203125 C 5.375 -3.296875 4.59375 -4.015625 3.640625 -4.203125 L 3.640625 -4.21875 C 4.578125 -4.578125 5.078125 -5.25 5.078125 -6.078125 C 5.078125 -7.015625 4.375 -7.9375 2.84375 -7.9375 C 2 -7.9375 1.21875 -7.625 0.796875 -7.328125 L 1.078125 -6.5625 C 1.421875 -6.796875 2.015625 -7.078125 2.640625 -7.078125 C 3.609375 -7.078125 4.015625 -6.53125 4.015625 -5.90625 C 4.015625 -4.984375 3.03125 -4.578125 2.265625 -4.578125 L 1.6875 -4.578125 L 1.6875 -3.796875 L 2.265625 -3.796875 C 3.28125 -3.796875 4.265625 -3.328125 4.28125 -2.234375 C 4.296875 -1.578125 3.859375 -0.71875 2.515625 -0.71875 C 1.78125 -0.71875 1.09375 -1.015625 0.796875 -1.203125 Z M 0.5 -0.390625 "/>
</symbol>
<symbol overflow="visible" id="glyph1-4">
<path style="stroke:none;" d="M 4.96875 -3.5625 C 4.96875 -4.734375 4.53125 -5.9375 2.75 -5.9375 C 2.015625 -5.9375 1.3125 -5.734375 0.828125 -5.4375 L 1.0625 -4.734375 C 1.46875 -5 2.046875 -5.15625 2.59375 -5.15625 C 3.78125 -5.171875 3.90625 -4.296875 3.90625 -3.8125 L 3.90625 -3.703125 C 1.671875 -3.703125 0.421875 -2.9375 0.421875 -1.53125 C 0.421875 -0.703125 1.015625 0.125 2.203125 0.125 C 3.03125 0.125 3.65625 -0.28125 3.96875 -0.734375 L 4.015625 -0.734375 L 4.109375 0 L 5.046875 0 C 4.984375 -0.390625 4.96875 -0.890625 4.96875 -1.390625 Z M 3.9375 -1.953125 C 3.9375 -1.84375 3.921875 -1.734375 3.890625 -1.625 C 3.71875 -1.125 3.234375 -0.640625 2.453125 -0.640625 C 1.9375 -0.640625 1.46875 -0.953125 1.46875 -1.65625 C 1.46875 -2.78125 2.78125 -2.984375 3.9375 -2.96875 Z M 3.9375 -1.953125 "/>
</symbol>
<symbol overflow="visible" id="glyph1-5">
<path style="stroke:none;" d="M 2.03125 0 L 2.03125 -5 L 3.421875 -5 L 3.421875 -5.8125 L 2.015625 -5.8125 L 2.015625 -6.125 C 2.015625 -7.015625 2.25 -7.796875 3.140625 -7.796875 C 3.453125 -7.796875 3.65625 -7.734375 3.828125 -7.671875 L 3.953125 -8.484375 C 3.75 -8.5625 3.4375 -8.65625 3.0625 -8.65625 C 2.578125 -8.65625 2.046875 -8.5 1.65625 -8.109375 C 1.15625 -7.640625 0.96875 -6.90625 0.96875 -6.078125 L 0.96875 -5.8125 L 0.171875 -5.8125 L 0.171875 -5 L 0.96875 -5 L 0.96875 0 Z M 2.03125 0 "/>
</symbol>
<symbol overflow="visible" id="glyph1-6">
<path style="stroke:none;" d="M 0.875 0 L 1.9375 0 L 1.9375 -3.09375 C 1.9375 -3.28125 1.9375 -3.4375 1.96875 -3.59375 C 2.109375 -4.375 2.640625 -4.9375 3.390625 -4.9375 C 3.53125 -4.9375 3.640625 -4.9375 3.75 -4.921875 L 3.75 -5.90625 C 3.65625 -5.921875 3.578125 -5.9375 3.46875 -5.9375 C 2.765625 -5.9375 2.109375 -5.453125 1.84375 -4.671875 L 1.8125 -4.671875 L 1.765625 -5.8125 L 0.84375 -5.8125 C 0.875 -5.265625 0.890625 -4.6875 0.890625 -4 Z M 0.875 0 "/>
</symbol>
<symbol overflow="visible" id="glyph2-0">
<path style="stroke:none;" d=""/>
</symbol>
<symbol overflow="visible" id="glyph2-1">
<path style="stroke:none;" d="M 0.59375 -0.46875 C 1.09375 -0.125 2.09375 0.15625 3 0.15625 C 5.21875 0.15625 6.28125 -1.125 6.28125 -2.578125 C 6.28125 -3.96875 5.484375 -4.71875 3.890625 -5.34375 C 2.59375 -5.859375 2.015625 -6.28125 2.015625 -7.171875 C 2.015625 -7.8125 2.5 -8.578125 3.796875 -8.578125 C 4.640625 -8.578125 5.28125 -8.3125 5.578125 -8.140625 L 5.90625 -9.125 C 5.5 -9.359375 4.78125 -9.59375 3.84375 -9.59375 C 2 -9.59375 0.78125 -8.5 0.78125 -7.03125 C 0.78125 -5.71875 1.734375 -4.90625 3.28125 -4.34375 C 4.546875 -3.859375 5.046875 -3.34375 5.046875 -2.484375 C 5.046875 -1.515625 4.328125 -0.875 3.078125 -0.875 C 2.234375 -0.875 1.453125 -1.140625 0.90625 -1.484375 Z M 0.59375 -0.46875 "/>
</symbol>
<symbol overflow="visible" id="glyph2-2">
<path style="stroke:none;" d="M 1.296875 -8.015625 L 1.296875 -6.78125 L 0.25 -6.78125 L 0.25 -5.84375 L 1.296875 -5.84375 L 1.296875 -2.140625 C 1.296875 -1.34375 1.4375 -0.734375 1.78125 -0.359375 C 2.078125 -0.046875 2.53125 0.15625 3.109375 0.15625 C 3.578125 0.15625 3.96875 0.0625 4.203125 -0.015625 L 4.140625 -0.953125 C 3.96875 -0.890625 3.765625 -0.875 3.4375 -0.875 C 2.75 -0.875 2.5 -1.34375 2.5 -2.1875 L 2.5 -5.84375 L 4.265625 -5.84375 L 4.265625 -6.78125 L 2.5 -6.78125 L 2.5 -8.40625 Z M 1.296875 -8.015625 "/>
</symbol>
<symbol overflow="visible" id="glyph2-3">
<path style="stroke:none;" d="M 1.015625 0 L 2.25 0 L 2.25 -3.609375 C 2.25 -3.828125 2.265625 -4.015625 2.296875 -4.203125 C 2.46875 -5.109375 3.078125 -5.765625 3.953125 -5.765625 C 4.109375 -5.765625 4.234375 -5.75 4.375 -5.734375 L 4.375 -6.890625 C 4.265625 -6.921875 4.171875 -6.9375 4.046875 -6.9375 C 3.21875 -6.9375 2.46875 -6.359375 2.15625 -5.453125 L 2.109375 -5.453125 L 2.0625 -6.78125 L 0.984375 -6.78125 C 1.015625 -6.140625 1.03125 -5.453125 1.03125 -4.65625 Z M 1.015625 0 "/>
</symbol>
<symbol overflow="visible" id="glyph2-4">
<path style="stroke:none;" d="M 6.46875 -3.15625 C 6.5 -3.296875 6.515625 -3.5 6.515625 -3.75 C 6.515625 -5 5.9375 -6.9375 3.71875 -6.9375 C 1.75 -6.9375 0.53125 -5.328125 0.53125 -3.28125 C 0.53125 -1.25 1.796875 0.140625 3.859375 0.140625 C 4.9375 0.140625 5.703125 -0.09375 6.125 -0.296875 L 5.90625 -1.15625 C 5.453125 -0.984375 4.90625 -0.828125 4.03125 -0.828125 C 2.796875 -0.828125 1.75 -1.515625 1.71875 -3.171875 Z M 1.734375 -4.0625 C 1.828125 -4.90625 2.359375 -6.0625 3.625 -6.0625 C 5 -6.0625 5.328125 -4.828125 5.3125 -4.0625 Z M 1.734375 -4.0625 "/>
</symbol>
<symbol overflow="visible" id="glyph2-5">
<path style="stroke:none;" d="M 5.796875 -4.15625 C 5.796875 -5.515625 5.296875 -6.9375 3.203125 -6.9375 C 2.359375 -6.9375 1.53125 -6.6875 0.96875 -6.34375 L 1.25 -5.515625 C 1.71875 -5.84375 2.375 -6.015625 3.03125 -6.015625 C 4.40625 -6.03125 4.5625 -5.015625 4.5625 -4.453125 L 4.5625 -4.3125 C 1.953125 -4.328125 0.484375 -3.4375 0.484375 -1.796875 C 0.484375 -0.8125 1.1875 0.15625 2.5625 0.15625 C 3.53125 0.15625 4.265625 -0.328125 4.640625 -0.859375 L 4.671875 -0.859375 L 4.78125 0 L 5.890625 0 C 5.828125 -0.46875 5.796875 -1.03125 5.796875 -1.625 Z M 4.59375 -2.28125 C 4.59375 -2.15625 4.578125 -2.015625 4.53125 -1.890625 C 4.34375 -1.3125 3.765625 -0.75 2.875 -0.75 C 2.25 -0.75 1.71875 -1.125 1.71875 -1.9375 C 1.71875 -3.25 3.25 -3.484375 4.59375 -3.453125 Z M 4.59375 -2.28125 "/>
</symbol>
<symbol overflow="visible" id="glyph2-6">
<path style="stroke:none;" d="M 1.015625 0 L 2.21875 0 L 2.21875 -4.09375 C 2.21875 -4.296875 2.25 -4.515625 2.328125 -4.6875 C 2.515625 -5.3125 3.09375 -5.921875 3.84375 -5.921875 C 4.78125 -5.921875 5.265625 -5.15625 5.265625 -4.0625 L 5.265625 0 L 6.46875 0 L 6.46875 -4.203125 C 6.46875 -4.40625 6.515625 -4.640625 6.5625 -4.8125 C 6.796875 -5.40625 7.328125 -5.921875 8.03125 -5.921875 C 9.015625 -5.921875 9.5 -5.15625 9.5 -3.84375 L 9.5 0 L 10.703125 0 L 10.703125 -3.984375 C 10.703125 -6.34375 9.375 -6.9375 8.46875 -6.9375 C 7.828125 -6.9375 7.390625 -6.765625 6.984375 -6.453125 C 6.703125 -6.25 6.421875 -5.96875 6.21875 -5.578125 L 6.1875 -5.578125 C 5.890625 -6.375 5.1875 -6.9375 4.28125 -6.9375 C 3.15625 -6.9375 2.515625 -6.328125 2.140625 -5.6875 L 2.09375 -5.6875 L 2.046875 -6.78125 L 0.96875 -6.78125 C 1 -6.21875 1.015625 -5.65625 1.015625 -4.9375 Z M 1.015625 0 "/>
</symbol>
<symbol overflow="visible" id="glyph2-7">
<path style="stroke:none;" d="M 6.6875 -6.78125 L 5.453125 -6.78125 L 5.453125 -2.625 C 5.453125 -2.390625 5.421875 -2.171875 5.34375 -2 C 5.125 -1.4375 4.546875 -0.875 3.71875 -0.875 C 2.625 -0.875 2.21875 -1.75 2.21875 -3.03125 L 2.21875 -6.78125 L 0.984375 -6.78125 L 0.984375 -2.8125 C 0.984375 -0.453125 2.25 0.15625 3.3125 0.15625 C 4.515625 0.15625 5.25 -0.5625 5.5625 -1.109375 L 5.59375 -1.109375 L 5.65625 0 L 6.75 0 C 6.703125 -0.53125 6.6875 -1.140625 6.6875 -1.84375 Z M 6.6875 -6.78125 "/>
</symbol>
<symbol overflow="visible" id="glyph2-8">
<path style="stroke:none;" d="M 1.015625 -1.75 C 1.015625 -1.140625 1.015625 -0.46875 0.96875 0 L 2.03125 0 L 2.09375 -1.125 L 2.125 -1.125 C 2.640625 -0.21875 3.421875 0.15625 4.390625 0.15625 C 5.90625 0.15625 7.453125 -1.046875 7.453125 -3.484375 C 7.453125 -5.53125 6.265625 -6.9375 4.59375 -6.9375 C 3.5 -6.9375 2.71875 -6.453125 2.28125 -5.703125 L 2.25 -5.703125 L 2.25 -9.9375 L 1.015625 -9.9375 Z M 2.25 -3.9375 C 2.25 -4.125 2.28125 -4.296875 2.328125 -4.453125 C 2.5625 -5.375 3.34375 -5.96875 4.1875 -5.96875 C 5.5 -5.96875 6.203125 -4.796875 6.203125 -3.4375 C 6.203125 -1.875 5.453125 -0.828125 4.140625 -0.828125 C 3.265625 -0.828125 2.53125 -1.40625 2.296875 -2.265625 C 2.265625 -2.40625 2.25 -2.5625 2.25 -2.71875 Z M 2.25 -3.9375 "/>
</symbol>
<symbol overflow="visible" id="glyph2-9">
<path style="stroke:none;" d="M 1.09375 1.640625 C 1.484375 0.984375 2.09375 -0.578125 2.4375 -1.765625 L 1.0625 -1.625 C 0.90625 -0.609375 0.53125 0.890625 0.21875 1.734375 Z M 1.09375 1.640625 "/>
</symbol>
<symbol overflow="visible" id="glyph2-10">
<path style="stroke:none;" d=""/>
</symbol>
<symbol overflow="visible" id="glyph2-11">
<path style="stroke:none;" d="M 3.796875 0.15625 C 5.40625 0.15625 7.15625 -0.9375 7.15625 -3.453125 C 7.15625 -5.515625 5.84375 -6.9375 3.890625 -6.9375 C 2.03125 -6.9375 0.53125 -5.59375 0.53125 -3.328125 C 0.53125 -1.1875 1.953125 0.15625 3.78125 0.15625 Z M 3.8125 -0.765625 C 2.625 -0.765625 1.78125 -1.890625 1.78125 -3.375 C 1.78125 -4.65625 2.40625 -6 3.84375 -6 C 5.3125 -6 5.875 -4.5625 5.875 -3.421875 C 5.875 -1.875 5 -0.765625 3.828125 -0.765625 Z M 3.8125 -0.765625 "/>
</symbol>
<symbol overflow="visible" id="glyph2-12">
<path style="stroke:none;" d="M 1.015625 0 L 2.25 0 L 2.25 -9.9375 L 1.015625 -9.9375 Z M 1.015625 0 "/>
</symbol>
<symbol overflow="visible" id="glyph2-13">
<path style="stroke:none;" d="M 2.25 0 L 2.25 -6.78125 L 1.015625 -6.78125 L 1.015625 0 Z M 1.625 -8.015625 C 2.109375 -8.015625 2.421875 -8.390625 2.421875 -8.8125 C 2.421875 -9.25 2.109375 -9.609375 1.640625 -9.609375 C 1.15625 -9.609375 0.84375 -9.25 0.84375 -8.8125 C 0.84375 -8.390625 1.140625 -8.015625 1.609375 -8.015625 Z M 1.625 -8.015625 "/>
</symbol>
<symbol overflow="visible" id="glyph2-14">
<path style="stroke:none;" d="M 1.015625 2.765625 L 2.25 2.765625 L 2.25 -0.90625 L 2.28125 -0.90625 C 2.6875 -0.234375 3.453125 0.15625 4.375 0.15625 C 5.953125 0.15625 7.453125 -1.046875 7.453125 -3.484375 C 7.453125 -5.546875 6.21875 -6.9375 4.5625 -6.9375 C 3.46875 -6.9375 2.65625 -6.453125 2.171875 -5.609375 L 2.140625 -5.609375 L 2.078125 -6.78125 L 0.96875 -6.78125 C 1.015625 -6.125 1.015625 -5.4375 1.015625 -4.5625 Z M 2.25 -3.9375 C 2.25 -4.09375 2.296875 -4.265625 2.328125 -4.4375 C 2.5625 -5.359375 3.359375 -5.953125 4.203125 -5.953125 C 5.5 -5.953125 6.203125 -4.78125 6.203125 -3.4375 C 6.203125 -1.875 5.453125 -0.8125 4.140625 -0.8125 C 3.28125 -0.8125 2.515625 -1.40625 2.3125 -2.25 C 2.265625 -2.40625 2.25 -2.59375 2.25 -2.765625 Z M 2.25 -3.9375 "/>
</symbol>
<symbol overflow="visible" id="glyph2-15">
<path style="stroke:none;" d="M 0.5625 -0.328125 C 1.03125 -0.046875 1.71875 0.15625 2.46875 0.15625 C 4.046875 0.15625 4.984375 -0.6875 4.984375 -1.890625 C 4.984375 -2.90625 4.375 -3.5 3.203125 -3.9375 C 2.328125 -4.265625 1.9375 -4.515625 1.9375 -5.09375 C 1.9375 -5.59375 2.328125 -6.015625 3.046875 -6.015625 C 3.6875 -6.015625 4.171875 -5.78125 4.4375 -5.625 L 4.734375 -6.515625 C 4.375 -6.75 3.765625 -6.9375 3.078125 -6.9375 C 1.640625 -6.9375 0.734375 -6.03125 0.734375 -4.9375 C 0.734375 -4.125 1.3125 -3.46875 2.546875 -3.03125 C 3.4375 -2.6875 3.796875 -2.359375 3.796875 -1.78125 C 3.796875 -1.203125 3.375 -0.765625 2.484375 -0.765625 C 1.875 -0.765625 1.234375 -1.015625 0.859375 -1.25 Z M 0.5625 -0.328125 "/>
</symbol>
<symbol overflow="visible" id="glyph2-16">
<path style="stroke:none;" d="M 3.875 0 L 5.21875 -4.90625 C 5.578125 -6.125 5.796875 -7.046875 5.953125 -8 L 5.984375 -8 C 6.109375 -7.046875 6.296875 -6.125 6.59375 -4.90625 L 7.78125 0 L 9.0625 0 L 11.734375 -9.4375 L 10.484375 -9.4375 L 9.234375 -4.671875 C 8.953125 -3.5 8.6875 -2.453125 8.484375 -1.40625 L 8.453125 -1.40625 C 8.3125 -2.40625 8.0625 -3.515625 7.796875 -4.640625 L 6.65625 -9.4375 L 5.375 -9.4375 L 4.109375 -4.671875 C 3.796875 -3.453125 3.5 -2.34375 3.34375 -1.40625 L 3.3125 -1.40625 C 3.15625 -2.3125 2.890625 -3.46875 2.625 -4.65625 L 1.5 -9.4375 L 0.203125 -9.4375 L 2.609375 0 Z M 3.875 0 "/>
</symbol>
<symbol overflow="visible" id="glyph2-17">
<path style="stroke:none;" d="M 1.015625 0 L 2.25 0 L 2.25 -4.09375 C 2.25 -4.28125 2.28125 -4.515625 2.34375 -4.65625 C 2.5625 -5.34375 3.1875 -5.921875 3.984375 -5.921875 C 5.15625 -5.921875 5.5625 -5 5.5625 -3.90625 L 5.5625 0 L 6.796875 0 L 6.796875 -4.046875 C 6.796875 -6.375 5.328125 -6.9375 4.390625 -6.9375 C 3.28125 -6.9375 2.484375 -6.296875 2.15625 -5.671875 L 2.125 -5.671875 L 2.0625 -6.78125 L 0.96875 -6.78125 C 1.015625 -6.21875 1.015625 -5.65625 1.015625 -4.9375 Z M 1.015625 0 "/>
</symbol>
<symbol overflow="visible" id="glyph2-18">
<path style="stroke:none;" d="M 5.640625 -9.9375 L 5.640625 -5.90625 L 5.609375 -5.90625 C 5.3125 -6.4375 4.625 -6.9375 3.5625 -6.9375 C 1.9375 -6.9375 0.515625 -5.5625 0.53125 -3.296875 C 0.53125 -1.234375 1.8125 0.15625 3.4375 0.15625 C 4.546875 0.15625 5.359375 -0.421875 5.734375 -1.171875 L 5.765625 -1.171875 L 5.828125 0 L 6.9375 0 C 6.890625 -0.46875 6.875 -1.140625 6.875 -1.75 L 6.875 -9.9375 Z M 5.640625 -2.84375 C 5.640625 -2.640625 5.625 -2.484375 5.59375 -2.3125 C 5.359375 -1.40625 4.609375 -0.84375 3.78125 -0.84375 C 2.46875 -0.84375 1.78125 -1.96875 1.78125 -3.359375 C 1.78125 -4.84375 2.53125 -5.96875 3.8125 -5.96875 C 4.734375 -5.96875 5.40625 -5.3125 5.59375 -4.546875 C 5.625 -4.375 5.640625 -4.1875 5.640625 -4.015625 Z M 5.640625 -2.84375 "/>
</symbol>
<symbol overflow="visible" id="glyph2-19">
<path style="stroke:none;" d="M 5.640625 -1.15625 C 5.296875 -1.015625 4.828125 -0.84375 4.125 -0.84375 C 2.78125 -0.84375 1.78125 -1.8125 1.78125 -3.375 C 1.78125 -4.78125 2.625 -5.953125 4.171875 -5.953125 C 4.84375 -5.953125 5.3125 -5.78125 5.59375 -5.625 L 5.875 -6.5625 C 5.546875 -6.75 4.90625 -6.9375 4.171875 -6.9375 C 1.953125 -6.9375 0.53125 -5.40625 0.53125 -3.3125 C 0.53125 -1.234375 1.859375 0.15625 3.90625 0.15625 C 4.8125 0.15625 5.53125 -0.078125 5.859375 -0.234375 Z M 5.640625 -1.15625 "/>
</symbol>
<symbol overflow="visible" id="glyph2-20">
<path style="stroke:none;" d="M 2.25 -9.9375 L 1.015625 -9.9375 L 1.015625 0 L 2.25 0 L 2.25 -2.546875 L 2.890625 -3.265625 L 5.203125 0 L 6.703125 0 L 3.71875 -3.984375 L 6.34375 -6.78125 L 4.875 -6.78125 L 2.875 -4.4375 C 2.671875 -4.21875 2.453125 -3.90625 2.28125 -3.671875 L 2.25 -3.671875 Z M 2.25 -9.9375 "/>
</symbol>
<symbol overflow="visible" id="glyph3-0">
<path style="stroke:none;" d="M 0 0 L 7 0 L 7 -9.796875 L 0 -9.796875 Z M 3.5 -5.53125 L 1.125 -9.09375 L 5.875 -9.09375 Z M 3.921875 -4.90625 L 6.296875 -8.46875 L 6.296875 -1.328125 Z M 1.125 -0.703125 L 3.5 -4.265625 L 5.875 -0.703125 Z M 0.703125 -8.46875 L 3.078125 -4.90625 L 0.703125 -1.328125 Z M 0.703125 -8.46875 "/>
</symbol>
<symbol overflow="visible" id="glyph3-1">
<path style="stroke:none;" d="M 0.21875 -6.78125 L 2.515625 -3.453125 L 0.109375 0 L 1.46875 0 L 2.453125 -1.53125 C 2.703125 -1.9375 2.9375 -2.296875 3.15625 -2.703125 L 3.1875 -2.703125 C 3.4375 -2.296875 3.65625 -1.921875 3.921875 -1.53125 L 4.90625 0 L 6.3125 0 L 3.9375 -3.5 L 6.25 -6.78125 L 4.90625 -6.78125 L 3.96875 -5.328125 C 3.734375 -4.96875 3.515625 -4.625 3.296875 -4.21875 L 3.25 -4.21875 C 3.03125 -4.59375 2.8125 -4.9375 2.5625 -5.3125 L 1.59375 -6.78125 Z M 0.21875 -6.78125 "/>
</symbol>
<symbol overflow="visible" id="glyph3-2">
<path style="stroke:none;" d="M 0.125 -6.78125 L 2.625 -0.53125 C 2.6875 -0.375 2.71875 -0.28125 2.71875 -0.203125 C 2.71875 -0.140625 2.671875 -0.046875 2.625 0.078125 C 2.34375 0.71875 1.921875 1.1875 1.578125 1.453125 C 1.21875 1.765625 0.8125 1.953125 0.5 2.0625 L 0.8125 3.09375 C 1.125 3.03125 1.71875 2.828125 2.328125 2.296875 C 3.15625 1.5625 3.765625 0.375 4.640625 -1.953125 L 6.5 -6.78125 L 5.1875 -6.78125 L 3.84375 -2.796875 C 3.6875 -2.3125 3.546875 -1.796875 3.421875 -1.390625 L 3.390625 -1.390625 C 3.28125 -1.796875 3.109375 -2.328125 2.953125 -2.765625 L 1.46875 -6.78125 Z M 0.125 -6.78125 "/>
</symbol>
</g>
</defs>
<g id="surface1">
<path style=" stroke:none;fill-rule:nonzero;fill:rgb(100%,100%,100%);fill-opacity:1;" d="M 54.726562 148.492188 C 82.027344 148.492188 146.863281 149.085938 236.011719 119.402344 C 334.300781 86.675781 368.15625 83.035156 402.011719 83.035156 L 54.726562 148.492188 "/>
<path style=" stroke:none;fill-rule:nonzero;fill:rgb(56.864929%,56.079102%,56.274414%);fill-opacity:1;" d="M 54.726562 150.492188 C 55.773438 150.492188 56.878906 150.492188 58.039062 150.492188 C 72.5625 150.492188 95.738281 150.355469 126.003906 146.636719 C 156.269531 142.914062 193.648438 135.617188 236.644531 121.296875 C 285.742188 104.949219 318.710938 95.882812 343.566406 90.90625 C 368.429688 85.933594 385.15625 85.039062 402.011719 85.035156 L 402.011719 81.035156 C 385.011719 81.035156 367.882812 81.957031 342.78125 86.984375 C 317.671875 92.011719 284.566406 101.125 235.378906 117.503906 C 192.65625 131.730469 155.550781 138.976562 125.515625 142.664062 C 95.476562 146.355469 72.523438 146.492188 58.039062 146.492188 C 56.882812 146.492188 55.777344 146.492188 54.726562 146.492188 L 54.726562 150.492188 "/>
<path style=" stroke:none;fill-rule:nonzero;fill:rgb(74.008179%,73.535156%,73.652649%);fill-opacity:1;" d="M 77.886719 245.71875 C 77.726562 245.71875 77.5625 245.671875 77.363281 245.546875 C 76.996094 245.316406 76.550781 244.785156 76.121094 243.972656 C 75.355469 242.546875 74.617188 240.292969 73.957031 237.386719 C 71.96875 228.664062 70.65625 214.078125 70.65625 197.582031 C 70.65625 184.175781 71.523438 172.035156 72.914062 163.269531 C 73.609375 158.890625 74.441406 155.351562 75.34375 152.945312 C 75.785156 151.773438 76.242188 150.871094 76.6875 150.285156 C 77.457031 150.265625 78.238281 150.246094 79.03125 150.222656 C 79.234375 150.480469 79.445312 150.804688 79.652344 151.195312 C 80.414062 152.617188 81.152344 154.871094 81.8125 157.777344 C 83.800781 166.503906 85.113281 181.085938 85.113281 197.582031 C 85.113281 210.992188 84.25 223.132812 82.855469 231.894531 C 82.160156 236.277344 81.332031 239.816406 80.425781 242.222656 C 79.972656 243.421875 79.503906 244.339844 79.046875 244.925781 C 78.820312 245.214844 78.601562 245.421875 78.40625 245.546875 C 78.207031 245.671875 78.042969 245.71875 77.886719 245.71875 "/>
<path style=" stroke:none;fill-rule:nonzero;fill:rgb(52.316284%,51.448059%,51.663208%);fill-opacity:1;" d="M 76.6875 150.285156 C 76.699219 150.273438 76.710938 150.257812 76.722656 150.242188 C 76.949219 149.949219 77.167969 149.742188 77.363281 149.617188 C 77.5625 149.492188 77.726562 149.445312 77.886719 149.445312 C 78.042969 149.445312 78.207031 149.492188 78.40625 149.617188 C 78.597656 149.738281 78.8125 149.941406 79.03125 150.222656 C 78.238281 150.246094 77.457031 150.265625 76.6875 150.285156 "/>
<path style=" stroke:none;fill-rule:nonzero;fill:rgb(74.008179%,73.535156%,73.652649%);fill-opacity:1;" d="M 77.886719 246.71875 C 77.882812 246.71875 77.882812 246.71875 77.882812 246.71875 C 77.507812 246.71875 77.148438 246.597656 76.824219 246.390625 C 76.503906 246.183594 76.210938 245.894531 75.933594 245.539062 C 75.382812 244.824219 74.882812 243.832031 74.410156 242.574219 C 73.464844 240.058594 72.628906 236.472656 71.925781 232.050781 C 70.523438 223.214844 69.660156 211.035156 69.65625 197.582031 C 69.660156 181.027344 70.96875 166.410156 72.980469 157.554688 C 73.65625 154.601562 74.402344 152.289062 75.238281 150.722656 C 75.3125 150.582031 75.390625 150.445312 75.46875 150.316406 C 75.871094 150.308594 76.277344 150.296875 76.6875 150.285156 C 76.242188 150.871094 75.785156 151.773438 75.34375 152.945312 C 74.441406 155.351562 73.609375 158.890625 72.914062 163.269531 C 71.523438 172.035156 70.65625 184.175781 70.65625 197.582031 C 70.65625 214.078125 71.96875 228.664062 73.957031 237.386719 C 74.617188 240.292969 75.355469 242.546875 76.121094 243.972656 C 76.550781 244.785156 76.996094 245.316406 77.363281 245.546875 C 77.5625 245.671875 77.726562 245.71875 77.886719 245.71875 C 78.042969 245.71875 78.207031 245.671875 78.40625 245.546875 C 78.601562 245.421875 78.820312 245.214844 79.046875 244.925781 C 79.503906 244.339844 79.972656 243.421875 80.425781 242.222656 C 81.332031 239.816406 82.160156 236.277344 82.855469 231.894531 C 84.25 223.132812 85.113281 210.992188 85.113281 197.582031 C 85.113281 181.085938 83.800781 166.503906 81.8125 157.777344 C 81.152344 154.871094 80.414062 152.617188 79.652344 151.195312 C 79.445312 150.804688 79.234375 150.480469 79.03125 150.222656 C 79.425781 150.210938 79.824219 150.195312 80.222656 150.183594 C 80.625 150.828125 81 151.632812 81.359375 152.59375 C 82.304688 155.109375 83.140625 158.691406 83.84375 163.113281 C 85.246094 171.953125 86.113281 184.128906 86.113281 197.582031 C 86.113281 214.136719 84.804688 228.753906 82.789062 237.609375 C 82.113281 240.5625 81.367188 242.878906 80.53125 244.441406 C 80.050781 245.335938 79.550781 245.996094 78.945312 246.390625 C 78.625 246.597656 78.261719 246.71875 77.886719 246.71875 "/>
<path style=" stroke:none;fill-rule:nonzero;fill:rgb(52.316284%,51.448059%,51.663208%);fill-opacity:1;" d="M 75.46875 150.316406 C 75.878906 149.628906 76.316406 149.105469 76.824219 148.777344 C 77.148438 148.570312 77.507812 148.445312 77.882812 148.445312 C 77.882812 148.445312 77.882812 148.445312 77.886719 148.445312 C 77.886719 148.445312 77.886719 148.445312 77.890625 148.445312 C 78.261719 148.445312 78.625 148.570312 78.945312 148.777344 C 79.269531 148.984375 79.558594 149.273438 79.835938 149.628906 C 79.96875 149.796875 80.097656 149.984375 80.222656 150.183594 C 79.824219 150.195312 79.425781 150.210938 79.03125 150.222656 C 78.8125 149.941406 78.597656 149.738281 78.40625 149.617188 C 78.207031 149.492188 78.042969 149.445312 77.886719 149.445312 C 77.726562 149.445312 77.5625 149.492188 77.363281 149.617188 C 77.167969 149.742188 76.949219 149.949219 76.722656 150.242188 C 76.710938 150.257812 76.699219 150.273438 76.6875 150.285156 C 76.277344 150.296875 75.871094 150.308594 75.46875 150.316406 "/>
<path style=" stroke:none;fill-rule:nonzero;fill:rgb(74.008179%,73.535156%,73.652649%);fill-opacity:1;" d="M 365.617188 310.71875 C 365.617188 310.71875 365.613281 310.71875 365.613281 310.71875 C 365.609375 310.71875 365.609375 310.71875 365.605469 310.71875 C 365.46875 310.71875 365.253906 310.632812 364.96875 310.304688 C 364.429688 309.691406 363.8125 308.328125 363.234375 306.355469 C 361.191406 299.4375 359.398438 285.015625 358.132812 265.90625 C 356.863281 246.789062 356.113281 222.964844 356.113281 197.128906 C 356.113281 165.636719 357.230469 137.121094 359.039062 116.496094 C 359.941406 106.1875 361.019531 97.84375 362.210938 92.105469 C 362.328125 91.535156 362.445312 90.988281 362.566406 90.472656 L 368.390625 89.375 C 370.265625 96.753906 371.910156 110.507812 373.089844 128.351562 C 374.359375 147.464844 375.113281 171.292969 375.113281 197.128906 C 375.113281 228.621094 373.992188 257.132812 372.1875 277.757812 C 371.28125 288.070312 370.203125 296.414062 369.015625 302.152344 C 368.421875 305.019531 367.796875 307.238281 367.167969 308.703125 C 366.855469 309.4375 366.539062 309.976562 366.257812 310.304688 C 365.972656 310.632812 365.757812 310.71875 365.617188 310.71875 "/>
<path style=" stroke:none;fill-rule:nonzero;fill:rgb(73.945618%,73.471069%,73.588562%);fill-opacity:1;" d="M 362.566406 90.472656 C 362.824219 89.367188 363.085938 88.386719 363.347656 87.53125 C 364.824219 87.328125 366.273438 87.140625 367.699219 86.96875 C 367.796875 87.261719 367.894531 87.570312 367.988281 87.898438 C 368.125 88.359375 368.257812 88.851562 368.390625 89.375 L 362.566406 90.472656 "/>
<path style=" stroke:none;fill-rule:nonzero;fill:rgb(52.316284%,51.448059%,51.663208%);fill-opacity:1;" d="M 363.347656 87.53125 C 363.582031 86.769531 363.820312 86.105469 364.058594 85.550781 C 364.367188 84.820312 364.683594 84.28125 364.96875 83.953125 C 365.253906 83.625 365.46875 83.535156 365.605469 83.535156 C 365.609375 83.535156 365.609375 83.535156 365.613281 83.535156 C 365.613281 83.535156 365.617188 83.535156 365.617188 83.535156 C 365.757812 83.535156 365.972656 83.625 366.257812 83.953125 C 366.703125 84.464844 367.210938 85.496094 367.699219 86.96875 C 366.273438 87.140625 364.824219 87.328125 363.347656 87.53125 "/>
<path style=" stroke:none;fill-rule:nonzero;fill:rgb(78.263855%,77.868652%,77.967834%);fill-opacity:1;" d="M 365.613281 311.71875 C 365.0625 311.71875 364.59375 311.402344 364.210938 310.957031 C 363.824219 310.503906 363.476562 309.886719 363.136719 309.097656 C 362.464844 307.523438 361.832031 305.261719 361.230469 302.355469 C 360.027344 296.546875 358.949219 288.179688 358.042969 277.847656 C 356.230469 257.179688 355.113281 228.644531 355.113281 197.128906 C 355.113281 171.273438 355.867188 147.429688 357.136719 128.285156 C 358.246094 111.570312 359.742188 98.460938 361.496094 90.671875 L 362.566406 90.472656 C 362.445312 90.988281 362.328125 91.535156 362.210938 92.105469 C 361.019531 97.84375 359.941406 106.1875 359.039062 116.496094 C 357.230469 137.121094 356.113281 165.636719 356.113281 197.128906 C 356.113281 222.964844 356.863281 246.789062 358.132812 265.90625 C 359.398438 285.015625 361.191406 299.4375 363.234375 306.355469 C 363.8125 308.328125 364.429688 309.691406 364.96875 310.304688 C 365.253906 310.632812 365.46875 310.71875 365.605469 310.71875 C 365.609375 310.71875 365.609375 310.71875 365.613281 310.71875 C 365.613281 310.71875 365.617188 310.71875 365.617188 310.71875 C 365.757812 310.71875 365.972656 310.632812 366.257812 310.304688 C 366.539062 309.976562 366.855469 309.4375 367.167969 308.703125 C 367.796875 307.238281 368.421875 305.019531 369.015625 302.152344 C 370.203125 296.414062 371.28125 288.070312 372.1875 277.757812 C 373.992188 257.132812 375.113281 228.621094 375.113281 197.128906 C 375.113281 171.292969 374.359375 147.464844 373.089844 128.351562 C 371.910156 110.507812 370.265625 96.753906 368.390625 89.375 L 369.375 89.1875 C 369.585938 90.019531 369.792969 90.925781 369.996094 91.902344 C 371.199219 97.710938 372.277344 106.074219 373.183594 116.410156 C 374.992188 137.078125 376.113281 165.609375 376.113281 197.128906 C 376.113281 222.980469 375.359375 246.828125 374.089844 265.972656 C 372.816406 285.121094 371.035156 299.539062 368.949219 306.640625 C 368.34375 308.675781 367.734375 310.109375 367.011719 310.957031 C 366.628906 311.402344 366.164062 311.71875 365.613281 311.71875 M 364.136719 83.386719 C 364.160156 83.359375 364.1875 83.328125 364.210938 83.300781 C 364.59375 82.855469 365.0625 82.539062 365.613281 82.535156 C 366.054688 82.539062 366.441406 82.742188 366.773438 83.050781 C 365.90625 83.15625 365.027344 83.269531 364.136719 83.386719 "/>
<path style=" stroke:none;fill-rule:nonzero;fill:rgb(78.347778%,77.954102%,78.051758%);fill-opacity:1;" d="M 361.496094 90.671875 C 361.746094 89.566406 361.996094 88.570312 362.257812 87.683594 C 362.621094 87.632812 362.984375 87.582031 363.347656 87.53125 C 363.085938 88.386719 362.824219 89.367188 362.566406 90.472656 L 361.496094 90.671875 M 368.390625 89.375 C 368.257812 88.851562 368.125 88.359375 367.988281 87.898438 C 367.894531 87.570312 367.796875 87.261719 367.699219 86.96875 C 368.039062 86.925781 368.375 86.886719 368.710938 86.84375 C 368.9375 87.546875 369.15625 88.328125 369.375 89.1875 L 368.390625 89.375 "/>
<path style=" stroke:none;fill-rule:nonzero;fill:rgb(56.697083%,55.909729%,56.105042%);fill-opacity:1;" d="M 362.257812 87.683594 C 362.265625 87.660156 362.269531 87.640625 362.277344 87.617188 C 362.859375 85.652344 363.449219 84.246094 364.136719 83.386719 C 365.027344 83.269531 365.90625 83.15625 366.773438 83.050781 C 366.855469 83.128906 366.9375 83.210938 367.011719 83.300781 C 367.402344 83.753906 367.75 84.371094 368.085938 85.160156 C 368.300781 85.652344 368.507812 86.214844 368.710938 86.84375 C 368.375 86.886719 368.039062 86.925781 367.699219 86.96875 C 367.210938 85.496094 366.703125 84.464844 366.257812 83.953125 C 365.972656 83.625 365.757812 83.535156 365.617188 83.535156 C 365.617188 83.535156 365.613281 83.535156 365.613281 83.535156 C 365.609375 83.535156 365.609375 83.535156 365.605469 83.535156 C 365.46875 83.535156 365.253906 83.625 364.96875 83.953125 C 364.683594 84.28125 364.367188 84.820312 364.058594 85.550781 C 363.820312 86.105469 363.582031 86.769531 363.347656 87.53125 C 362.984375 87.582031 362.621094 87.632812 362.257812 87.683594 "/>
<path style=" stroke:none;fill-rule:nonzero;fill:rgb(13.729858%,12.159729%,12.548828%);fill-opacity:1;" d="M 25.453125 195.949219 L 52.726562 195.949219 L 52.726562 194.949219 L 25.453125 194.949219 Z M 25.453125 195.949219 "/>
<path style=" stroke:none;fill-rule:nonzero;fill:rgb(13.729858%,12.159729%,12.548828%);fill-opacity:1;" d="M 55.089844 194.421875 C 53.433594 193.921875 52.359375 193.464844 51.035156 192.929688 L 51.035156 197.976562 C 51.507812 197.75 53.433594 196.984375 55.089844 196.484375 C 56.859375 195.949219 58.460938 195.582031 59.503906 195.453125 C 58.460938 195.324219 56.859375 194.957031 55.089844 194.421875 "/>
<g style="fill:rgb(13.729858%,12.159729%,12.548828%);fill-opacity:1;">
  <use xlink:href="#glyph0-1" x="0" y="189.4"/>
</g>
<g style="fill:rgb(13.729858%,12.159729%,12.548828%);fill-opacity:1;">
  <use xlink:href="#glyph1-1" x="10.0441" y="195.4"/>
</g>
<g style="fill:rgb(13.729858%,12.159729%,12.548828%);fill-opacity:1;">
  <use xlink:href="#glyph0-1" x="213.3401" y="180.309"/>
</g>
<g style="fill:rgb(13.729858%,12.159729%,12.548828%);fill-opacity:1;">
  <use xlink:href="#glyph1-2" x="223.3842" y="186.309"/>
</g>
<g style="fill:rgb(13.729858%,12.159729%,12.548828%);fill-opacity:1;">
  <use xlink:href="#glyph0-1" x="337.0182" y="167.1301"/>
</g>
<g style="fill:rgb(13.729858%,12.159729%,12.548828%);fill-opacity:1;">
  <use xlink:href="#glyph1-3" x="347.0623" y="173.1301"/>
</g>
<g style="fill:rgb(13.729858%,12.159729%,12.548828%);fill-opacity:1;">
  <use xlink:href="#glyph0-2" x="77.8853" y="266.902"/>
</g>
<g style="fill:rgb(13.729858%,12.159729%,12.548828%);fill-opacity:1;">
  <use xlink:href="#glyph1-1" x="88.9013" y="272.902"/>
</g>
<g style="fill:rgb(13.729858%,12.159729%,12.548828%);fill-opacity:1;">
  <use xlink:href="#glyph0-2" x="255.0673" y="301.0391"/>
</g>
<g style="fill:rgb(13.729858%,12.159729%,12.548828%);fill-opacity:1;">
  <use xlink:href="#glyph1-2" x="266.0833" y="307.0391"/>
</g>
<g style="fill:rgb(13.729858%,12.159729%,12.548828%);fill-opacity:1;">
  <use xlink:href="#glyph0-2" x="375.6133" y="325.7649"/>
</g>
<g style="fill:rgb(13.729858%,12.159729%,12.548828%);fill-opacity:1;">
  <use xlink:href="#glyph1-3" x="386.6293" y="331.7649"/>
</g>
<path style=" stroke:none;fill-rule:nonzero;fill:rgb(13.729858%,12.159729%,12.548828%);fill-opacity:1;" d="M 354.15625 104.105469 L 381.429688 104.105469 L 381.429688 103.105469 L 354.15625 103.105469 Z M 354.15625 104.105469 "/>
<path style=" stroke:none;fill-rule:nonzero;fill:rgb(13.729858%,12.159729%,12.548828%);fill-opacity:1;" d="M 383.792969 102.582031 C 382.140625 102.082031 381.0625 101.621094 379.738281 101.089844 L 379.738281 106.132812 C 380.214844 105.90625 382.140625 105.140625 383.792969 104.640625 C 385.5625 104.105469 387.164062 103.742188 388.207031 103.609375 C 387.164062 103.480469 385.5625 103.113281 383.792969 102.582031 "/>
<g style="fill:rgb(13.729858%,12.159729%,12.548828%);fill-opacity:1;">
  <use xlink:href="#glyph0-3" x="0" y="232.858"/>
</g>
<g style="fill:rgb(13.729858%,12.159729%,12.548828%);fill-opacity:1;">
  <use xlink:href="#glyph1-4" x="10.2418" y="238.858"/>
</g>
<g style="fill:rgb(13.729858%,12.159729%,12.548828%);fill-opacity:1;">
  <use xlink:href="#glyph0-3" x="213.3398" y="220.2658"/>
</g>
<g style="fill:rgb(13.729858%,12.159729%,12.548828%);fill-opacity:1;">
  <use xlink:href="#glyph1-5" x="223.582" y="226.2658"/>
</g>
<g style="fill:rgb(13.729858%,12.159729%,12.548828%);fill-opacity:1;">
  <use xlink:href="#glyph0-3" x="268.341" y="220.2658"/>
</g>
<g style="fill:rgb(13.729858%,12.159729%,12.548828%);fill-opacity:1;">
  <use xlink:href="#glyph1-6" x="278.5832" y="226.2658"/>
</g>
<g style="fill:rgb(13.729858%,12.159729%,12.548828%);fill-opacity:1;">
  <use xlink:href="#glyph0-3" x="394.9852" y="220.2658"/>
</g>
<g style="fill:rgb(13.729858%,12.159729%,12.548828%);fill-opacity:1;">
  <use xlink:href="#glyph1-4" x="405.227" y="226.2658"/>
</g>
<g style="fill:rgb(13.729858%,12.159729%,12.548828%);fill-opacity:1;">
  <use xlink:href="#glyph2-1" x="92.886" y="372.1278"/>
</g>
<g style="fill:rgb(13.729858%,12.159729%,12.548828%);fill-opacity:1;">
  <use xlink:href="#glyph2-2" x="99.733258" y="372.1278"/>
  <use xlink:href="#glyph2-3" x="104.367258" y="372.1278"/>
</g>
<g style="fill:rgb(13.729858%,12.159729%,12.548828%);fill-opacity:1;">
  <use xlink:href="#glyph2-4" x="108.863165" y="372.1278"/>
  <use xlink:href="#glyph2-5" x="115.877165" y="372.1278"/>
  <use xlink:href="#glyph2-6" x="122.625165" y="372.1278"/>
</g>
<g style="fill:rgb(13.729858%,12.159729%,12.548828%);fill-opacity:1;">
  <use xlink:href="#glyph2-2" x="134.246466" y="372.1278"/>
  <use xlink:href="#glyph2-7" x="138.880466" y="372.1278"/>
  <use xlink:href="#glyph2-8" x="146.594466" y="372.1278"/>
</g>
<g style="fill:rgb(13.729858%,12.159729%,12.548828%);fill-opacity:1;">
  <use xlink:href="#glyph2-4" x="154.573918" y="372.1278"/>
</g>
<g style="fill:rgb(13.729858%,12.159729%,12.548828%);fill-opacity:1;">
  <use xlink:href="#glyph2-9" x="161.324624" y="372.1278"/>
</g>
<g style="fill:rgb(13.729858%,12.159729%,12.548828%);fill-opacity:1;">
  <use xlink:href="#glyph2-10" x="163.258549" y="372.1278"/>
</g>
<g style="fill:rgb(13.729858%,12.159729%,12.548828%);fill-opacity:1;">
  <use xlink:href="#glyph2-11" x="92.886" y="388.9278"/>
  <use xlink:href="#glyph2-3" x="100.572" y="388.9278"/>
  <use xlink:href="#glyph2-10" x="105.15" y="388.9278"/>
  <use xlink:href="#glyph2-1" x="108.118" y="388.9278"/>
</g>
<g style="fill:rgb(13.729858%,12.159729%,12.548828%);fill-opacity:1;">
  <use xlink:href="#glyph2-12" x="114.992644" y="388.9278"/>
  <use xlink:href="#glyph2-13" x="118.268644" y="388.9278"/>
  <use xlink:href="#glyph2-14" x="121.544644" y="388.9278"/>
  <use xlink:href="#glyph2-15" x="129.510644" y="388.9278"/>
  <use xlink:href="#glyph2-2" x="135.054644" y="388.9278"/>
  <use xlink:href="#glyph2-3" x="139.688644" y="388.9278"/>
</g>
<g style="fill:rgb(13.729858%,12.159729%,12.548828%);fill-opacity:1;">
  <use xlink:href="#glyph2-4" x="144.18327" y="388.9278"/>
  <use xlink:href="#glyph2-5" x="151.19727" y="388.9278"/>
  <use xlink:href="#glyph2-6" x="157.94527" y="388.9278"/>
</g>
<g style="fill:rgb(13.729858%,12.159729%,12.548828%);fill-opacity:1;">
  <use xlink:href="#glyph2-16" x="155.6133" y="12.1288"/>
</g>
<g style="fill:rgb(13.729858%,12.159729%,12.548828%);fill-opacity:1;">
  <use xlink:href="#glyph2-13" x="167.484509" y="12.1288"/>
  <use xlink:href="#glyph2-17" x="170.760509" y="12.1288"/>
  <use xlink:href="#glyph2-18" x="178.530509" y="12.1288"/>
  <use xlink:href="#glyph2-6" x="186.426509" y="12.1288"/>
  <use xlink:href="#glyph2-13" x="198.102509" y="12.1288"/>
  <use xlink:href="#glyph2-12" x="201.378509" y="12.1288"/>
  <use xlink:href="#glyph2-12" x="204.654509" y="12.1288"/>
  <use xlink:href="#glyph2-9" x="207.930509" y="12.1288"/>
</g>
<g style="fill:rgb(13.729858%,12.159729%,12.548828%);fill-opacity:1;">
  <use xlink:href="#glyph2-10" x="209.864447" y="12.1288"/>
  <use xlink:href="#glyph2-5" x="212.832447" y="12.1288"/>
  <use xlink:href="#glyph2-15" x="219.580447" y="12.1288"/>
  <use xlink:href="#glyph2-10" x="225.124447" y="12.1288"/>
  <use xlink:href="#glyph2-5" x="228.092447" y="12.1288"/>
  <use xlink:href="#glyph2-19" x="234.840447" y="12.1288"/>
</g>
<g style="fill:rgb(13.729858%,12.159729%,12.548828%);fill-opacity:1;">
  <use xlink:href="#glyph2-2" x="241.293575" y="12.1288"/>
  <use xlink:href="#glyph2-7" x="245.927575" y="12.1288"/>
  <use xlink:href="#glyph2-5" x="253.641575" y="12.1288"/>
</g>
<g style="fill:rgb(13.729858%,12.159729%,12.548828%);fill-opacity:1;">
  <use xlink:href="#glyph2-2" x="260.334814" y="12.1288"/>
</g>
<g style="fill:rgb(13.729858%,12.159729%,12.548828%);fill-opacity:1;">
  <use xlink:href="#glyph2-11" x="264.886685" y="12.1288"/>
  <use xlink:href="#glyph2-3" x="272.572685" y="12.1288"/>
  <use xlink:href="#glyph2-10" x="277.150685" y="12.1288"/>
  <use xlink:href="#glyph2-18" x="280.118685" y="12.1288"/>
  <use xlink:href="#glyph2-13" x="288.014685" y="12.1288"/>
  <use xlink:href="#glyph2-15" x="291.290685" y="12.1288"/>
  <use xlink:href="#glyph2-20" x="296.834685" y="12.1288"/>
</g>
<path style=" stroke:none;fill-rule:nonzero;fill:rgb(31.92749%,30.688477%,30.995178%);fill-opacity:1;" d="M 237.980469 425.855469 L 246.332031 425.855469 L 246.332031 280.402344 L 237.980469 280.402344 Z M 237.980469 425.855469 "/>
<path style=" stroke:none;fill-rule:nonzero;fill:rgb(31.92749%,30.688477%,30.995178%);fill-opacity:1;" d="M 65.421875 425.035156 L 392.632812 425.035156 C 392.632812 425.035156 405.320312 442.183594 371.785156 445.425781 C 338.246094 448.667969 275.707031 437.082031 243.980469 437.546875 C 212.257812 438.011719 194.132812 436.621094 171.472656 438.476562 C 148.8125 440.328125 77.207031 449.132812 66.328125 442.183594 C 55.453125 435.230469 53.640625 437.085938 57.265625 430.597656 "/>
<g style="fill:rgb(13.729858%,12.159729%,12.548828%);fill-opacity:1;">
  <use xlink:href="#glyph0-3" x="283.968" y="83.037"/>
</g>
<g style="fill:rgb(13.729858%,12.159729%,12.548828%);fill-opacity:1;">
  <use xlink:href="#glyph1-4" x="294.2102" y="89.037"/>
</g>
<path style=" stroke:none;fill-rule:nonzero;fill:rgb(74.008179%,73.535156%,73.652649%);fill-opacity:1;" d="M 243.664062 280.402344 L 241.925781 280.402344 C 241.375 278.53125 240.828125 275.402344 240.339844 271.28125 C 238.574219 256.519531 237.386719 228.832031 237.386719 197.128906 C 237.386719 173.484375 238.046875 152.082031 239.113281 136.597656 C 239.585938 129.796875 240.132812 124.136719 240.734375 119.941406 C 242.054688 119.503906 243.363281 119.074219 244.660156 118.648438 C 244.863281 119.929688 245.058594 121.378906 245.25 122.976562 C 247.011719 137.738281 248.203125 165.425781 248.203125 197.128906 C 248.203125 220.769531 247.542969 242.175781 246.472656 257.65625 C 245.941406 265.398438 245.304688 271.660156 244.601562 275.96875 C 244.296875 277.828125 243.980469 279.324219 243.664062 280.402344 M 242.148438 113.167969 C 242.308594 112.726562 242.46875 112.398438 242.605469 112.199219 C 242.679688 112.085938 242.75 112.019531 242.785156 111.992188 L 242.789062 111.988281 L 242.875 112.058594 C 242.996094 112.1875 243.171875 112.484375 243.34375 112.921875 C 243.347656 112.925781 243.351562 112.933594 243.351562 112.941406 L 242.148438 113.167969 "/>
<path style=" stroke:none;fill-rule:nonzero;fill:rgb(73.945618%,73.471069%,73.588562%);fill-opacity:1;" d="M 241.519531 115.46875 C 241.703125 114.632812 241.890625 113.929688 242.078125 113.378906 C 242.101562 113.304688 242.125 113.234375 242.148438 113.167969 L 243.351562 112.941406 C 243.53125 113.390625 243.710938 113.976562 243.886719 114.691406 C 243.101562 114.949219 242.3125 115.207031 241.519531 115.46875 "/>
<path style=" stroke:none;fill-rule:nonzero;fill:rgb(52.316284%,51.448059%,51.663208%);fill-opacity:1;" d="M 240.734375 119.941406 C 240.816406 119.363281 240.902344 118.8125 240.988281 118.289062 C 241.160156 117.226562 241.339844 116.285156 241.519531 115.46875 C 242.3125 115.207031 243.101562 114.949219 243.886719 114.691406 C 244.148438 115.742188 244.40625 117.070312 244.660156 118.648438 C 243.363281 119.074219 242.054688 119.503906 240.734375 119.941406 "/>
<path style=" stroke:none;fill-rule:nonzero;fill:rgb(40.184021%,39.096069%,39.36615%);fill-opacity:1;" d="M 242.796875 282.269531 L 242.714844 282.195312 C 242.589844 282.066406 242.414062 281.769531 242.242188 281.335938 C 242.136719 281.074219 242.03125 280.761719 241.925781 280.402344 L 243.664062 280.402344 C 243.613281 280.570312 243.5625 280.730469 243.511719 280.878906 C 243.328125 281.425781 243.140625 281.828125 242.984375 282.054688 C 242.90625 282.171875 242.839844 282.238281 242.800781 282.265625 L 242.796875 282.269531 "/>
<path style=" stroke:none;fill-rule:nonzero;fill:rgb(78.263855%,77.868652%,77.967834%);fill-opacity:1;" d="M 244.703125 280.402344 L 243.664062 280.402344 C 243.980469 279.324219 244.296875 277.828125 244.601562 275.96875 C 245.304688 271.660156 245.941406 265.398438 246.472656 257.65625 C 247.542969 242.175781 248.203125 220.769531 248.203125 197.128906 C 248.203125 165.425781 247.011719 137.738281 245.25 122.976562 C 245.058594 121.378906 244.863281 119.929688 244.660156 118.648438 C 244.980469 118.542969 245.300781 118.4375 245.621094 118.332031 C 246.320312 122.683594 246.945312 128.890625 247.472656 136.53125 C 248.542969 152.046875 249.203125 173.46875 249.203125 197.128906 C 249.203125 215.929688 248.785156 233.320312 248.078125 247.453125 C 247.367188 261.59375 246.371094 272.460938 245.199219 278.28125 C 245.035156 279.085938 244.871094 279.789062 244.703125 280.402344 M 241.925781 280.402344 L 240.886719 280.402344 C 240.578125 279.289062 240.285156 277.863281 240 276.128906 C 239.289062 271.769531 238.652344 265.488281 238.117188 257.726562 C 237.046875 242.210938 236.386719 220.789062 236.386719 197.128906 C 236.386719 178.324219 236.804688 160.9375 237.511719 146.800781 C 238.070312 135.632812 238.8125 126.503906 239.675781 120.289062 C 240.027344 120.175781 240.386719 120.054688 240.734375 119.941406 C 240.132812 124.136719 239.585938 129.796875 239.113281 136.597656 C 238.046875 152.082031 237.386719 173.484375 237.386719 197.128906 C 237.386719 228.832031 238.574219 256.519531 240.339844 271.28125 C 240.828125 275.402344 241.375 278.53125 241.925781 280.402344 M 241.027344 113.378906 C 241.164062 112.929688 241.308594 112.539062 241.460938 112.214844 C 241.671875 111.765625 241.878906 111.425781 242.195312 111.1875 C 242.355469 111.066406 242.566406 110.976562 242.789062 110.976562 C 242.792969 110.976562 242.792969 110.976562 242.792969 110.976562 C 242.796875 110.976562 242.796875 110.976562 242.796875 110.976562 C 243.023438 110.976562 243.234375 111.066406 243.394531 111.1875 C 243.558594 111.308594 243.691406 111.460938 243.8125 111.640625 C 244.011719 111.933594 244.183594 112.300781 244.351562 112.753906 L 243.351562 112.941406 C 243.351562 112.933594 243.347656 112.925781 243.34375 112.921875 C 243.171875 112.484375 242.996094 112.1875 242.875 112.058594 L 242.789062 111.988281 L 242.785156 111.992188 C 242.75 112.019531 242.679688 112.085938 242.605469 112.199219 C 242.46875 112.398438 242.308594 112.726562 242.148438 113.167969 L 241.027344 113.378906 "/>
<path style=" stroke:none;fill-rule:nonzero;fill:rgb(78.347778%,77.954102%,78.051758%);fill-opacity:1;" d="M 240.417969 115.832031 C 240.617188 114.875 240.816406 114.054688 241.027344 113.378906 L 242.148438 113.167969 C 242.125 113.234375 242.101562 113.304688 242.078125 113.378906 C 241.890625 113.929688 241.703125 114.632812 241.519531 115.46875 C 241.152344 115.589844 240.785156 115.710938 240.417969 115.832031 M 243.886719 114.691406 C 243.710938 113.976562 243.53125 113.390625 243.351562 112.941406 L 244.351562 112.753906 C 244.386719 112.851562 244.421875 112.953125 244.460938 113.058594 C 244.589844 113.445312 244.714844 113.882812 244.839844 114.378906 C 244.523438 114.480469 244.207031 114.585938 243.886719 114.691406 "/>
<path style=" stroke:none;fill-rule:nonzero;fill:rgb(56.697083%,55.909729%,56.105042%);fill-opacity:1;" d="M 239.675781 120.289062 C 239.90625 118.640625 240.144531 117.195312 240.390625 115.972656 C 240.398438 115.925781 240.410156 115.878906 240.417969 115.832031 C 240.785156 115.710938 241.152344 115.589844 241.519531 115.46875 C 241.339844 116.285156 241.160156 117.226562 240.988281 118.289062 C 240.902344 118.8125 240.816406 119.363281 240.734375 119.941406 C 240.386719 120.054688 240.027344 120.175781 239.675781 120.289062 M 244.660156 118.648438 C 244.40625 117.070312 244.148438 115.742188 243.886719 114.691406 C 244.207031 114.585938 244.523438 114.480469 244.839844 114.378906 C 245.101562 115.402344 245.347656 116.65625 245.589844 118.128906 C 245.597656 118.195312 245.609375 118.261719 245.621094 118.332031 C 245.300781 118.4375 244.980469 118.542969 244.660156 118.648438 "/>
<path style=" stroke:none;fill-rule:nonzero;fill:rgb(44.564819%,43.556213%,43.806458%);fill-opacity:1;" d="M 242.796875 283.28125 C 242.796875 283.28125 242.796875 283.28125 242.792969 283.28125 C 242.792969 283.28125 242.792969 283.28125 242.789062 283.28125 C 242.566406 283.28125 242.355469 283.191406 242.195312 283.070312 C 242.03125 282.949219 241.898438 282.796875 241.777344 282.617188 C 241.535156 282.261719 241.332031 281.796875 241.128906 281.199219 C 241.046875 280.953125 240.964844 280.6875 240.886719 280.402344 L 241.925781 280.402344 C 242.03125 280.761719 242.136719 281.074219 242.242188 281.335938 C 242.414062 281.769531 242.589844 282.066406 242.714844 282.195312 L 242.796875 282.269531 L 242.800781 282.265625 C 242.839844 282.238281 242.90625 282.171875 242.984375 282.054688 C 243.140625 281.828125 243.328125 281.425781 243.511719 280.878906 C 243.5625 280.730469 243.613281 280.570312 243.664062 280.402344 L 244.703125 280.402344 C 244.519531 281.058594 244.328125 281.605469 244.128906 282.042969 C 243.917969 282.492188 243.710938 282.832031 243.394531 283.070312 C 243.234375 283.191406 243.023438 283.28125 242.796875 283.28125 "/>
<path style=" stroke:none;fill-rule:nonzero;fill:rgb(13.729858%,12.159729%,12.548828%);fill-opacity:1;" d="M 229.15625 176.324219 L 256.429688 176.324219 L 256.429688 175.324219 L 229.15625 175.324219 Z M 229.15625 176.324219 "/>
<path style=" stroke:none;fill-rule:nonzero;fill:rgb(13.729858%,12.159729%,12.548828%);fill-opacity:1;" d="M 258.792969 174.800781 C 257.140625 174.300781 256.0625 173.839844 254.738281 173.308594 L 254.738281 178.351562 C 255.214844 178.128906 257.140625 177.359375 258.792969 176.859375 C 260.5625 176.324219 262.167969 175.960938 263.207031 175.828125 C 262.167969 175.699219 260.5625 175.335938 258.792969 174.800781 "/>
<path style=" stroke:none;fill-rule:nonzero;fill:rgb(13.729858%,12.159729%,12.548828%);fill-opacity:1;" d="M 25.453125 219.765625 L 52.726562 219.765625 L 52.726562 218.765625 L 25.453125 218.765625 Z M 25.453125 219.765625 "/>
<path style=" stroke:none;fill-rule:nonzero;fill:rgb(13.729858%,12.159729%,12.548828%);fill-opacity:1;" d="M 55.089844 218.242188 C 53.433594 217.742188 52.359375 217.28125 51.035156 216.75 L 51.035156 221.792969 C 51.507812 221.566406 53.433594 220.800781 55.089844 220.300781 C 56.859375 219.765625 58.460938 219.402344 59.503906 219.269531 C 58.460938 219.140625 56.859375 218.773438 55.089844 218.242188 "/>
<path style=" stroke:none;fill-rule:nonzero;fill:rgb(13.729858%,12.159729%,12.548828%);fill-opacity:1;" d="M 25.453125 243.585938 L 52.726562 243.585938 L 52.726562 242.585938 L 25.453125 242.585938 Z M 25.453125 243.585938 "/>
<path style=" stroke:none;fill-rule:nonzero;fill:rgb(13.729858%,12.159729%,12.548828%);fill-opacity:1;" d="M 55.089844 242.058594 C 53.433594 241.558594 52.359375 241.097656 51.035156 240.566406 L 51.035156 245.613281 C 51.507812 245.386719 53.433594 244.617188 55.089844 244.121094 C 56.859375 243.585938 58.460938 243.21875 59.503906 243.089844 C 58.460938 242.960938 56.859375 242.59375 55.089844 242.058594 "/>
<path style=" stroke:none;fill-rule:nonzero;fill:rgb(13.729858%,12.159729%,12.548828%);fill-opacity:1;" d="M 25.453125 267.402344 L 52.726562 267.402344 L 52.726562 266.402344 L 25.453125 266.402344 Z M 25.453125 267.402344 "/>
<path style=" stroke:none;fill-rule:nonzero;fill:rgb(13.729858%,12.159729%,12.548828%);fill-opacity:1;" d="M 55.089844 265.878906 C 53.433594 265.378906 52.359375 264.917969 51.035156 264.386719 L 51.035156 269.429688 C 51.507812 269.203125 53.433594 268.4375 55.089844 267.9375 C 56.859375 267.402344 58.460938 267.035156 59.503906 266.90625 C 58.460938 266.777344 56.859375 266.410156 55.089844 265.878906 "/>
<path style=" stroke:none;fill-rule:nonzero;fill:rgb(13.729858%,12.159729%,12.548828%);fill-opacity:1;" d="M 25.453125 291.21875 L 52.726562 291.21875 L 52.726562 290.21875 L 25.453125 290.21875 Z M 25.453125 291.21875 "/>
<path style=" stroke:none;fill-rule:nonzero;fill:rgb(13.729858%,12.159729%,12.548828%);fill-opacity:1;" d="M 55.089844 289.695312 C 53.433594 289.195312 52.359375 288.734375 51.035156 288.203125 L 51.035156 293.246094 C 51.507812 293.023438 53.433594 292.253906 55.089844 291.757812 C 56.859375 291.222656 58.460938 290.855469 59.503906 290.726562 C 58.460938 290.59375 56.859375 290.230469 55.089844 289.695312 "/>
<path style=" stroke:none;fill-rule:nonzero;fill:rgb(13.729858%,12.159729%,12.548828%);fill-opacity:1;" d="M 25.453125 315.039062 L 52.726562 315.039062 L 52.726562 314.039062 L 25.453125 314.039062 Z M 25.453125 315.039062 "/>
<path style=" stroke:none;fill-rule:nonzero;fill:rgb(13.729858%,12.159729%,12.548828%);fill-opacity:1;" d="M 55.089844 313.511719 C 53.433594 313.015625 52.359375 312.554688 51.035156 312.023438 L 51.035156 317.066406 C 51.507812 316.839844 53.433594 316.074219 55.089844 315.574219 C 56.859375 315.039062 58.460938 314.675781 59.503906 314.542969 C 58.460938 314.414062 56.859375 314.046875 55.089844 313.511719 "/>
<path style=" stroke:none;fill-rule:nonzero;fill:rgb(13.729858%,12.159729%,12.548828%);fill-opacity:1;" d="M 25.453125 100.675781 L 52.726562 100.675781 L 52.726562 99.675781 L 25.453125 99.675781 Z M 25.453125 100.675781 "/>
<path style=" stroke:none;fill-rule:nonzero;fill:rgb(13.729858%,12.159729%,12.548828%);fill-opacity:1;" d="M 55.089844 99.148438 C 53.433594 98.652344 52.359375 98.191406 51.035156 97.660156 L 51.035156 102.703125 C 51.507812 102.476562 53.433594 101.710938 55.089844 101.210938 C 56.855469 100.675781 58.464844 100.3125 59.503906 100.179688 C 58.464844 100.050781 56.855469 99.683594 55.089844 99.148438 "/>
<path style=" stroke:none;fill-rule:nonzero;fill:rgb(13.729858%,12.159729%,12.548828%);fill-opacity:1;" d="M 25.453125 124.492188 L 52.726562 124.492188 L 52.726562 123.492188 L 25.453125 123.492188 Z M 25.453125 124.492188 "/>
<path style=" stroke:none;fill-rule:nonzero;fill:rgb(13.729858%,12.159729%,12.548828%);fill-opacity:1;" d="M 55.089844 122.96875 C 53.433594 122.46875 52.359375 122.007812 51.035156 121.476562 L 51.035156 126.519531 C 51.507812 126.296875 53.433594 125.527344 55.089844 125.027344 C 56.859375 124.492188 58.460938 124.128906 59.503906 123.996094 C 58.460938 123.867188 56.859375 123.503906 55.089844 122.96875 "/>
<path style=" stroke:none;fill-rule:nonzero;fill:rgb(13.729858%,12.159729%,12.548828%);fill-opacity:1;" d="M 25.453125 148.3125 L 52.726562 148.3125 L 52.726562 147.3125 L 25.453125 147.3125 Z M 25.453125 148.3125 "/>
<path style=" stroke:none;fill-rule:nonzero;fill:rgb(13.729858%,12.159729%,12.548828%);fill-opacity:1;" d="M 55.089844 146.785156 C 53.433594 146.285156 52.359375 145.828125 51.035156 145.296875 L 51.035156 150.339844 C 51.507812 150.113281 53.433594 149.347656 55.089844 148.847656 C 56.859375 148.3125 58.460938 147.945312 59.503906 147.816406 C 58.460938 147.6875 56.859375 147.320312 55.089844 146.785156 "/>
<path style=" stroke:none;fill-rule:nonzero;fill:rgb(13.729858%,12.159729%,12.548828%);fill-opacity:1;" d="M 25.453125 172.128906 L 52.726562 172.128906 L 52.726562 171.128906 L 25.453125 171.128906 Z M 25.453125 172.128906 "/>
<path style=" stroke:none;fill-rule:nonzero;fill:rgb(13.729858%,12.159729%,12.548828%);fill-opacity:1;" d="M 55.089844 170.605469 C 53.433594 170.105469 52.359375 169.644531 51.035156 169.113281 L 51.035156 174.15625 C 51.507812 173.933594 53.433594 173.164062 55.089844 172.664062 C 56.859375 172.132812 58.460938 171.765625 59.503906 171.636719 C 58.460938 171.503906 56.859375 171.140625 55.089844 170.605469 "/>
<path style=" stroke:none;fill-rule:nonzero;fill:rgb(100%,100%,100%);fill-opacity:1;" d="M 50.15625 103.605469 C 77.789062 103.605469 143.402344 103.976562 233.625 85.320312 C 333.09375 64.753906 367.355469 62.46875 401.617188 62.46875 "/>
<path style=" stroke:none;fill-rule:nonzero;fill:rgb(56.864929%,56.079102%,56.274414%);fill-opacity:1;" d="M 50.15625 104.605469 C 51.21875 104.605469 52.335938 104.605469 53.507812 104.605469 C 82.886719 104.605469 146.980469 104.261719 233.828125 86.300781 C 283.546875 76.019531 316.957031 70.3125 342.199219 67.175781 C 367.441406 64.039062 384.511719 63.46875 401.617188 63.46875 L 401.617188 61.46875 C 384.464844 61.46875 367.273438 62.042969 341.949219 65.191406 C 316.628906 68.339844 283.171875 74.054688 233.421875 84.34375 C 146.753906 102.261719 82.84375 102.605469 53.507812 102.605469 C 52.335938 102.605469 51.21875 102.605469 50.15625 102.605469 L 50.15625 104.605469 "/>
<path style=" stroke:none;fill-rule:nonzero;fill:rgb(100%,100%,100%);fill-opacity:1;" d="M 51.25 54.726562 C 78.808594 54.726562 144.253906 54.949219 234.242188 43.761719 C 333.453125 31.429688 367.628906 30.058594 401.800781 30.058594 "/>
<path style=" stroke:none;fill-rule:nonzero;fill:rgb(56.864929%,56.079102%,56.274414%);fill-opacity:1;" d="M 51.25 55.726562 C 52.308594 55.726562 53.421875 55.726562 54.59375 55.726562 C 83.890625 55.726562 147.78125 55.519531 234.363281 44.753906 C 333.566406 32.425781 367.667969 31.058594 401.800781 31.058594 L 401.800781 29.058594 C 367.589844 29.058594 333.339844 30.4375 234.117188 42.769531 C 147.644531 53.519531 83.863281 53.726562 54.59375 53.726562 C 53.425781 53.726562 52.308594 53.726562 51.25 53.726562 L 51.25 55.726562 "/>
<path style=" stroke:none;fill-rule:nonzero;fill:rgb(100%,100%,100%);fill-opacity:1;" d="M 54.726562 175.515625 C 82.027344 175.515625 146.863281 176.019531 236.011719 150.890625 C 334.300781 123.183594 368.15625 120.105469 402.011719 120.105469 "/>
<path style=" stroke:none;fill-rule:nonzero;fill:rgb(56.864929%,56.079102%,56.274414%);fill-opacity:1;" d="M 54.726562 176.515625 C 55.777344 176.515625 56.882812 176.515625 58.042969 176.515625 C 87.078125 176.519531 150.449219 176.050781 236.285156 151.851562 C 285.40625 138.003906 318.414062 130.316406 343.339844 126.09375 C 368.269531 121.871094 385.113281 121.105469 402.011719 121.105469 L 402.011719 119.105469 C 385.050781 119.105469 368.039062 119.878906 343.007812 124.121094 C 317.96875 128.363281 284.902344 136.066406 235.742188 149.925781 C 150.136719 174.054688 87.023438 174.515625 58.042969 174.515625 C 56.882812 174.515625 55.777344 174.515625 54.726562 174.515625 L 54.726562 176.515625 "/>
<path style=" stroke:none;fill-rule:nonzero;fill:rgb(100%,100%,100%);fill-opacity:1;" d="M 60.136719 245.015625 C 87.4375 245.015625 152.273438 244.421875 241.421875 274.105469 C 339.710938 306.835938 373.566406 310.472656 407.417969 310.472656 "/>
<path style=" stroke:none;fill-rule:nonzero;fill:rgb(56.864929%,56.079102%,56.274414%);fill-opacity:1;" d="M 60.136719 247.015625 C 61.1875 247.015625 62.289062 247.015625 63.449219 247.015625 C 77.929688 247.015625 100.882812 247.152344 130.921875 250.84375 C 160.957031 254.53125 198.0625 261.777344 240.789062 276.003906 C 289.976562 292.382812 323.082031 301.496094 348.191406 306.523438 C 373.292969 311.550781 390.417969 312.472656 407.417969 312.472656 L 407.417969 308.472656 C 390.566406 308.46875 373.839844 307.574219 348.976562 302.601562 C 324.121094 297.625 291.152344 288.558594 242.054688 272.210938 C 199.054688 257.890625 161.679688 250.589844 131.410156 246.871094 C 101.144531 243.152344 77.96875 243.015625 63.449219 243.015625 C 62.289062 243.015625 61.183594 243.015625 60.136719 243.015625 L 60.136719 247.015625 "/>
<path style=" stroke:none;fill-rule:nonzero;fill:rgb(100%,100%,100%);fill-opacity:1;" d="M 55.566406 295.902344 C 83.199219 295.902344 148.8125 295.53125 239.035156 314.1875 C 338.503906 334.753906 372.765625 337.039062 407.027344 337.039062 "/>
<path style=" stroke:none;fill-rule:nonzero;fill:rgb(56.864929%,56.079102%,56.274414%);fill-opacity:1;" d="M 55.566406 296.902344 C 56.632812 296.902344 57.75 296.902344 58.921875 296.902344 C 88.261719 296.902344 152.167969 297.246094 238.832031 315.164062 C 288.582031 325.453125 322.039062 331.171875 347.359375 334.316406 C 372.683594 337.464844 389.875 338.039062 407.027344 338.039062 L 407.027344 336.039062 C 389.921875 336.039062 372.851562 335.46875 347.609375 332.332031 C 322.367188 329.195312 288.957031 323.488281 239.234375 313.207031 C 152.394531 295.246094 88.300781 294.902344 58.921875 294.902344 C 57.75 294.902344 56.628906 294.902344 55.566406 294.902344 L 55.566406 296.902344 "/>
<path style=" stroke:none;fill-rule:nonzero;fill:rgb(100%,100%,100%);fill-opacity:1;" d="M 56.660156 338.78125 C 84.21875 338.78125 149.664062 338.558594 239.648438 349.742188 C 338.863281 362.078125 373.039062 363.449219 407.210938 363.449219 "/>
<path style=" stroke:none;fill-rule:nonzero;fill:rgb(56.864929%,56.079102%,56.274414%);fill-opacity:1;" d="M 56.660156 339.78125 C 57.714844 339.78125 58.824219 339.78125 59.988281 339.78125 C 89.253906 339.78125 153.039062 339.988281 239.527344 350.738281 C 338.746094 363.074219 373 364.449219 407.210938 364.449219 L 407.210938 362.449219 C 373.078125 362.449219 338.976562 361.085938 239.773438 348.753906 C 153.175781 337.988281 89.277344 337.78125 59.988281 337.78125 C 58.824219 337.78125 57.714844 337.78125 56.660156 337.78125 L 56.660156 339.78125 "/>
<path style=" stroke:none;fill-rule:nonzero;fill:rgb(100%,100%,100%);fill-opacity:1;" d="M 60.136719 217.992188 C 87.4375 217.992188 152.273438 217.488281 241.421875 242.617188 C 339.710938 270.324219 373.566406 273.402344 407.417969 273.402344 "/>
<path style=" stroke:none;fill-rule:nonzero;fill:rgb(56.864929%,56.079102%,56.274414%);fill-opacity:1;" d="M 60.136719 218.992188 C 61.1875 218.992188 62.292969 218.992188 63.453125 218.992188 C 92.4375 218.992188 155.546875 219.453125 241.152344 243.582031 C 290.3125 257.4375 323.382812 265.144531 348.414062 269.386719 C 373.449219 273.628906 390.460938 274.402344 407.417969 274.402344 L 407.417969 272.402344 C 390.523438 272.402344 373.679688 271.636719 348.75 267.414062 C 323.824219 263.191406 290.816406 255.503906 241.691406 241.65625 C 155.859375 217.460938 92.492188 216.988281 63.453125 216.992188 C 62.292969 216.992188 61.1875 216.992188 60.136719 216.992188 L 60.136719 218.992188 "/>
<path style=" stroke:none;fill-rule:nonzero;fill:rgb(100%,100%,100%);fill-opacity:1;" d="M 55.761719 196.230469 C 83.359375 196.230469 148.902344 196.214844 239.023438 197.027344 C 338.386719 197.925781 372.609375 198.023438 406.835938 198.023438 "/>
<path style=" stroke:none;fill-rule:nonzero;fill:rgb(56.864929%,56.079102%,56.274414%);fill-opacity:1;" d="M 55.761719 197.230469 C 56.84375 197.230469 57.984375 197.230469 59.183594 197.230469 C 88.539062 197.230469 152.433594 197.246094 239.015625 198.027344 C 338.378906 198.925781 372.609375 199.023438 406.835938 199.023438 L 406.835938 197.023438 C 372.613281 197.023438 338.394531 196.925781 239.035156 196.027344 C 152.441406 195.246094 88.539062 195.230469 59.183594 195.230469 C 57.984375 195.230469 56.84375 195.230469 55.761719 195.230469 L 55.761719 197.230469 "/>
<path style=" stroke:none;fill-rule:nonzero;fill:rgb(13.729858%,12.159729%,12.548828%);fill-opacity:1;" d="M 232.699219 218.113281 L 259.96875 218.113281 L 259.96875 217.113281 L 232.699219 217.113281 Z M 232.699219 218.113281 "/>
<path style=" stroke:none;fill-rule:nonzero;fill:rgb(13.729858%,12.159729%,12.548828%);fill-opacity:1;" d="M 262.332031 216.589844 C 260.679688 216.089844 259.605469 215.628906 258.277344 215.097656 L 258.277344 220.140625 C 258.753906 219.914062 260.679688 219.148438 262.332031 218.648438 C 264.101562 218.113281 265.707031 217.746094 266.746094 217.617188 C 265.707031 217.488281 264.101562 217.121094 262.332031 216.589844 "/>
<path style=" stroke:none;fill-rule:nonzero;fill:rgb(13.729858%,12.159729%,12.548828%);fill-opacity:1;" d="M 229.15625 134.535156 L 256.429688 134.535156 L 256.429688 133.535156 L 229.15625 133.535156 Z M 229.15625 134.535156 "/>
<path style=" stroke:none;fill-rule:nonzero;fill:rgb(13.729858%,12.159729%,12.548828%);fill-opacity:1;" d="M 258.792969 133.011719 C 257.140625 132.511719 256.0625 132.050781 254.738281 131.519531 L 254.738281 136.5625 C 255.210938 136.339844 257.140625 135.570312 258.792969 135.074219 C 260.5625 134.539062 262.164062 134.171875 263.207031 134.042969 C 262.164062 133.910156 260.5625 133.546875 258.792969 133.011719 "/>
<path style=" stroke:none;fill-rule:nonzero;fill:rgb(13.729858%,12.159729%,12.548828%);fill-opacity:1;" d="M 232.699219 259.902344 L 259.96875 259.902344 L 259.96875 258.902344 L 232.699219 258.902344 Z M 232.699219 259.902344 "/>
<path style=" stroke:none;fill-rule:nonzero;fill:rgb(13.729858%,12.159729%,12.548828%);fill-opacity:1;" d="M 262.332031 258.375 C 260.679688 257.875 259.605469 257.414062 258.277344 256.882812 L 258.277344 261.929688 C 258.753906 261.703125 260.679688 260.9375 262.332031 260.4375 C 264.101562 259.902344 265.707031 259.535156 266.746094 259.40625 C 265.707031 259.277344 264.101562 258.910156 262.332031 258.375 "/>
<path style=" stroke:none;fill-rule:nonzero;fill:rgb(13.729858%,12.159729%,12.548828%);fill-opacity:1;" d="M 140.625 358.757812 L 178.886719 257.019531 L 177.949219 256.667969 L 139.691406 358.40625 "/>
<path style=" stroke:none;fill-rule:nonzero;fill:rgb(13.729858%,12.159729%,12.548828%);fill-opacity:1;" d="M 195.429688 16.765625 L 243.703125 126.765625 "/>
<path style=" stroke:none;fill-rule:nonzero;fill:rgb(13.729858%,12.159729%,12.548828%);fill-opacity:1;" d="M 194.972656 16.964844 L 243.246094 126.964844 L 244.160156 126.5625 L 195.890625 16.5625 "/>
<path style=" stroke:none;fill-rule:nonzero;fill:rgb(13.729858%,12.159729%,12.548828%);fill-opacity:1;" d="M 354.15625 159.992188 L 381.429688 159.992188 L 381.429688 158.992188 L 354.15625 158.992188 Z M 354.15625 159.992188 "/>
<path style=" stroke:none;fill-rule:nonzero;fill:rgb(13.729858%,12.159729%,12.548828%);fill-opacity:1;" d="M 383.792969 158.464844 C 382.140625 157.964844 381.0625 157.507812 379.738281 156.972656 L 379.738281 162.019531 C 380.214844 161.792969 382.140625 161.027344 383.792969 160.527344 C 385.5625 159.992188 387.164062 159.625 388.207031 159.496094 C 387.164062 159.367188 385.5625 159 383.792969 158.464844 "/>
<path style=" stroke:none;fill-rule:nonzero;fill:rgb(13.729858%,12.159729%,12.548828%);fill-opacity:1;" d="M 354.15625 234.105469 L 381.429688 234.105469 L 381.429688 233.105469 L 354.15625 233.105469 Z M 354.15625 234.105469 "/>
<path style=" stroke:none;fill-rule:nonzero;fill:rgb(13.729858%,12.159729%,12.548828%);fill-opacity:1;" d="M 383.792969 232.582031 C 382.140625 232.082031 381.0625 231.621094 379.738281 231.089844 L 379.738281 236.132812 C 380.214844 235.90625 382.140625 235.140625 383.792969 234.640625 C 385.5625 234.105469 387.164062 233.742188 388.207031 233.609375 C 387.164062 233.480469 385.5625 233.113281 383.792969 232.582031 "/>
<path style=" stroke:none;fill-rule:nonzero;fill:rgb(13.729858%,12.159729%,12.548828%);fill-opacity:1;" d="M 354.15625 290.402344 L 381.429688 290.402344 L 381.429688 289.402344 L 354.15625 289.402344 Z M 354.15625 290.402344 "/>
<path style=" stroke:none;fill-rule:nonzero;fill:rgb(13.729858%,12.159729%,12.548828%);fill-opacity:1;" d="M 383.792969 288.878906 C 382.140625 288.378906 381.0625 287.917969 379.738281 287.386719 L 379.738281 292.429688 C 380.214844 292.203125 382.140625 291.4375 383.792969 290.9375 C 385.5625 290.402344 387.164062 290.035156 388.207031 289.90625 C 387.164062 289.777344 385.5625 289.410156 383.792969 288.878906 "/>
<g style="fill:rgb(13.729858%,12.159729%,12.548828%);fill-opacity:1;">
  <use xlink:href="#glyph3-1" x="337.018" y="409.5801"/>
</g>
<path style=" stroke:none;fill-rule:nonzero;fill:rgb(13.729858%,12.159729%,12.548828%);fill-opacity:1;" d="M 283.96875 410.582031 L 310.4375 410.582031 L 310.4375 408.582031 L 283.96875 408.582031 Z M 283.96875 410.582031 "/>
<path style=" stroke:none;fill-rule:nonzero;fill:rgb(13.729858%,12.159729%,12.548828%);fill-opacity:1;" d="M 306.476562 415.390625 L 328.15625 409.582031 L 306.476562 403.769531 Z M 306.476562 415.390625 "/>
<path style=" stroke:none;fill-rule:nonzero;fill:rgb(13.729858%,12.159729%,12.548828%);fill-opacity:1;" d="M 282.96875 409.582031 L 284.96875 409.582031 L 284.96875 385.390625 L 282.96875 385.390625 Z M 282.96875 409.582031 "/>
<path style=" stroke:none;fill-rule:nonzero;fill:rgb(13.729858%,12.159729%,12.548828%);fill-opacity:1;" d="M 289.777344 389.355469 L 283.96875 367.671875 L 278.15625 389.355469 Z M 289.777344 389.355469 "/>
<g style="fill:rgb(13.729858%,12.159729%,12.548828%);fill-opacity:1;">
  <use xlink:href="#glyph3-2" x="290.422" y="378.402"/>
</g>
</g>
</svg>
